{
  "creationDate": "2020-04-21",
  "name": "g_vqa__Extract Settings",
  "macros": [
    {
      "macro": "g/_vqa_ES_01_open extract settings.json",
      "loops": 1
    },
    {
      "macro": "g/_vqa_ES_02_create new extract.json",
      "loops": 1
    },
    {
      "macro": "g/_vqa_ES_03_save as extract settings.json",
      "loops": 1
    },
    {
      "macro": "g/_vqa_ES_04_edit and update extract.json",
      "loops": 1
    },
    {
      "macro": "g/_vqa_ES_05_delete extract.json",
      "loops": 1
    },
    {
      "macro": "g/_vqa_ES_06_delete save as extract.json",
      "loops": 1
    },
    {
      "macro": "g/_vqa_ES_07_Complete extract settings.json",
      "loops": 1
    }
  ]
}