{
  "creationDate": "2020-04-21",
  "name": "g_vqa__Document Manager",
  "macros": [
    {
      "macro": "g/_vqa_TAM_DM_01_open doc manager.json",
      "loops": 1
    },
    {
      "macro": "g/_vqa_TAM_DM_02_create new doc.json",
      "loops": 1
    },
    {
      "macro": "g/_vqa_TAM_DM_03_save as doc manager.json",
      "loops": 1
    },
    {
      "macro": "g/_vqa_TAM_DM_04_delete just save as DM.json",
      "loops": 1
    },
    {
      "macro": "g/_vqa_TAM_DM_05_edit and update DM.json",
      "loops": 1
    },
    {
      "macro": "g/_vqa_TAM_DM_06_DataCreateAndPublish.json",
      "loops": 1
    },
    {
      "macro": "g/_vqa_TAM_DM_07_publishDataViewed.json",
      "loops": 1
    },
    {
      "macro": "g/_vqa_TAM_DM_08_PublishDataDeleteAndTryToSee.json",
      "loops": 1
    },
    {
      "macro": "g/_vqa_TAM_DM_09_pvt_DataCreateAndPublish.json",
      "loops": 1
    },
    {
      "macro": "g/_vqa_TAM_DM_10_pvt_publishDataViewedAndUpdate.json",
      "loops": 1
    },
    {
      "macro": "g/_vqa_TAM_DM_11_pvt_UpdatedDataViewedDeleteAndTryToSee.json",
      "loops": 1
    },
    {
      "macro": "g/_vqa_TAM_DM_12_delete DM.json",
      "loops": 1
    },
    {
      "macro": "g/_vqa_TAM_DM_13_complete_Document_Manager.json",
      "loops": 1
    }
  ]
}