{
  "creationDate": "2020-04-21",
  "name": "g_vqa__Team Management",
  "macros": [
    {
      "macro": "g/_vqa_TM_01_open team management.json",
      "loops": 1
    },
    {
      "macro": "g/_vqa_TM_02_without members and role-  create new team.json",
      "loops": 1
    },
    {
      "macro": "g/_vqa_TM_03_without members and role-  save as.json",
      "loops": 1
    },
    {
      "macro": "g/_vqa_TM_04_without members and role-  edit update.json",
      "loops": 1
    },
    {
      "macro": "g/_vqa_TM_05_without members and role-  update deleted.json",
      "loops": 1
    },
    {
      "macro": "g/_vqa_TM_06_add  members and role-  new team.json",
      "loops": 1
    },
    {
      "macro": "g/_vqa_TM_07_update members and rols- new team.json",
      "loops": 1
    },
    {
      "macro": "g/_vqa_TM_08_try to delete with members and roles.json",
      "loops": 1
    },
    {
      "macro": "g/_vqa_TM_09_deleting members and roles before final delete.json",
      "loops": 1
    }
  ]
}