{
  "creationDate": "2020-04-21",
  "name": "g_vqa__User Lists",
  "macros": [
    {
      "macro": "g/_vqa_UL_01_open UL.json",
      "loops": 1
    },
    {
      "macro": "g/_vqa_UL_02_create UL.json",
      "loops": 1
    },
    {
      "macro": "g/_vqa_UL_03_save as UL.json",
      "loops": 1
    },
    {
      "macro": "g/_vqa_UL_04_delete saved as UL.json",
      "loops": 1
    },
    {
      "macro": "g/_vqa_UL_05_edit and update UL.json",
      "loops": 1
    },
    {
      "macro": "g/_vqa_UL_06_delete UL.json",
      "loops": 1
    },
    {
      "macro": "g/_vqa_UL_07_Complete UL.json",
      "loops": 1
    }
  ]
}