{
  "creationDate": "2020-04-21",
  "name": "g_vqa__Tools_Contacts",
  "macros": [
    {
      "macro": "g/_vqa_TC_1_open contacts.json",
      "loops": 1
    },
    {
      "macro": "g/_vqa_TC_2_create new contact.json",
      "loops": 1
    },
    {
      "macro": "g/_vqa_TC_3_edit and update contact.json",
      "loops": 1
    },
    {
      "macro": "g/_vqa_TC_4_delete contact.json",
      "loops": 1
    },
    {
      "macro": "g/_vqa_TC_5_complete_contact.json",
      "loops": 1
    }
  ]
}