{
  "Name": "_pos issue tt",
  "CreationDate": "2020-4-21",
  "Commands": [
    {
      "Command": "open",
      "Target": "https://forum.ui.vision/t/kantu-scripts-are-throwing-error-while-running-them-in-new-version/2762/6",
      "Value": ""
    },
    {
      "Command": "clickAndWait",
      "Target": "link=»@POS=3",
      "Value": ""
    }
  ]
}