{
  "Name": "_vqa_RA_RAM_17 open and Create Manage Rules in RAM",
  "CreationDate": "2020-4-21",
  "Commands": [
    {
      "Command": "open",
      "Target": "https://10.200.225.14/VSSQA",
      "Value": ""
    },
    {
      "Command": "pause",
      "Target": "1000",
      "Value": ""
    },
    {
      "Command": "type",
      "Target": "//td[2]/input",
      "Value": "QA_11"
    },
    {
      "Command": "type",
      "Target": "//tr[2]/td[2]/input",
      "Value": ".vss@2019"
    },
    {
      "Command": "click",
      "Target": "//tr[4]/td/input",
      "Value": "Log In"
    },
    {
      "Command": "pause",
      "Target": "5000",
      "Value": ""
    },
    {
      "Command": "mouseOver",
      "Target": "//div/ul/li[4]/a",
      "Value": "Risk Assessment"
    },
    {
      "Command": "click",
      "Target": "//li[4]/ul/li/a",
      "Value": "Manage Risk Assessment Models"
    },
    {
      "Command": "pause",
      "Target": "9000",
      "Value": ""
    },
    {
      "Command": "selectWindow",
      "Target": "TAB=1",
      "Value": ""
    },
    {
      "Command": "click",
      "Target": "//td/input",
      "Value": ""
    },
    {
      "Command": "type",
      "Target": "//td/input",
      "Value": "z_RAM_title"
    },
    {
      "Command": "pause",
      "Target": "2000",
      "Value": ""
    },
    {
      "Command": "verifyText",
      "Target": "xpath=(//td[text()[contains(.,'z_RAM_title')]])",
      "Value": "z_RAM_title"
    },
    {
      "Command": "click",
      "Target": "xpath=(//td[text()[contains(.,'z_RAM_title')]])",
      "Value": "z_RAM_title"
    },
    {
      "Command": "pause",
      "Target": "3000",
      "Value": ""
    },
    {
      "Command": "verifyText",
      "Target": "//li/div/span[3]",
      "Value": "Manage Rules"
    },
    {
      "Command": "click",
      "Target": "//li/div/span[3]",
      "Value": "Manage Rules"
    },
    {
      "Command": "pause",
      "Target": "8000",
      "Value": ""
    },
    {
      "Command": "selectFrame",
      "Target": "id=frm",
      "Value": ""
    },
    {
      "Command": "verifyText",
      "Target": "//div/label",
      "Value": "Manage Rules"
    },
    {
      "Command": "click",
      "Target": "//div/div/img",
      "Value": "New"
    },
    {
      "Command": "pause",
      "Target": "3000",
      "Value": ""
    },
    {
      "Command": "type",
      "Target": "//td[2]/div/input",
      "Value": "f_T_Manage Rules "
    },
    {
      "Command": "type",
      "Target": "//textarea",
      "Value": "f_Manage Rules _desc"
    },
    {
      "Command": "select",
      "Target": "//fieldset[2]/table/tbody/tr/td/div/div/select",
      "Value": "label=Standard"
    },
    {
      "Command": "select",
      "Target": "//td[2]/select",
      "Value": "label=ReferenceLookup"
    },
    {
      "Command": "select",
      "Target": "//div[2]/table/tbody/tr/td/select",
      "Value": "label=Class Society Performance"
    },
    {
      "Command": "select",
      "Target": "//td[3]/select",
      "Value": "label=Key Value"
    },
    {
      "Command": "select",
      "Target": "//div[3]/table/tbody/tr/td/select",
      "Value": "label=VesselCountryVisitMetrics"
    },
    {
      "Command": "click",
      "Target": "//div/div/input",
      "Value": ""
    },
    {
      "Command": "pause",
      "Target": "1000",
      "Value": ""
    },
    {
      "Command": "click",
      "Target": "//span/input",
      "Value": ""
    },
    {
      "Command": "click",
      "Target": "//span[2]/input",
      "Value": ""
    },
    {
      "Command": "pause",
      "Target": "2000",
      "Value": ""
    },
    {
      "Command": "select",
      "Target": "//td/table/tbody/tr/td/select",
      "Value": "label=True"
    },
    {
      "Command": "type",
      "Target": "//tr[2]/td/table/tbody/tr/td/input",
      "Value": "gui123"
    },
    {
      "Command": "type",
      "Target": "//tr[3]/td[2]/textarea",
      "Value": "ratio_Manage Rules "
    },
    {
      "Command": "click",
      "Target": "//div/table/tbody/tr/td/img",
      "Value": "Save"
    },
    {
      "Command": "pause",
      "Target": "1000",
      "Value": ""
    },
    {
      "Command": "verifyText",
      "Target": "//div[2]/div/div/center/table/tbody/tr/td[2]/div/span",
      "Value": "Save Successful!"
    },
    {
      "Command": "click",
      "Target": "//div[2]/div/div/center/div/input[2]",
      "Value": "Ok"
    },
    {
      "Command": "pause",
      "Target": "1000",
      "Value": ""
    },
    {
      "Command": "click",
      "Target": "//*[@id=\"closeicon\"]/img",
      "Value": "Close"
    },
    {
      "Command": "selectFrame",
      "Target": "relative=top",
      "Value": ""
    },
    {
      "Command": "pause",
      "Target": "1000",
      "Value": ""
    },
    {
      "Command": "type",
      "Target": "xpath=//td[2]/input",
      "Value": "z_RAM_title_MR"
    },
    {
      "Command": "click",
      "Target": "//td[3]/table/tbody/tr/td/img",
      "Value": "Save"
    },
    {
      "Command": "pause",
      "Target": "1000",
      "Value": ""
    },
    {
      "Command": "verifyText",
      "Target": "//div[2]/div/div/div/center/table/tbody/tr/td[2]/label",
      "Value": "Save Successful!"
    },
    {
      "Command": "click",
      "Target": "id=btnOkPopup",
      "Value": ""
    },
    {
      "Command": "pause",
      "Target": "1000",
      "Value": ""
    },
    {
      "Command": "click",
      "Target": "//a",
      "Value": ""
    },
    {
      "Command": "pause",
      "Target": "8000",
      "Value": ""
    },
    {
      "Command": "selectWindow",
      "Target": "TAB=CLOSEALLOTHER",
      "Value": ""
    },
    {
      "Command": "refresh",
      "Target": "",
      "Value": ""
    }
  ]
}