{
  "Name": "_vqa_V_AORM_04_New_Radius",
  "CreationDate": "2020-4-21",
  "Commands": [
    {
      "Command": "open",
      "Target": "https://10.200.225.14/VSSQA",
      "Value": ""
    },
    {
      "Command": "pause",
      "Target": "1000",
      "Value": ""
    },
    {
      "Command": "type",
      "Target": "//td[2]/input",
      "Value": "QA_11"
    },
    {
      "Command": "type",
      "Target": "//tr[2]/td[2]/input",
      "Value": ".vss@2019"
    },
    {
      "Command": "click",
      "Target": "//tr[4]/td/input",
      "Value": "Log In"
    },
    {
      "Command": "pause",
      "Target": "6000",
      "Value": ""
    },
    {
      "Command": "mouseOver",
      "Target": "//div/ul/li[3]/a",
      "Value": "Views »"
    },
    {
      "Command": "verifyText",
      "Target": "//li[3]/ul/li[3]/a",
      "Value": "AOR Manager"
    },
    {
      "Command": "click",
      "Target": "//li[3]/ul/li[3]/a",
      "Value": ""
    },
    {
      "Command": "pause",
      "Target": "9000",
      "Value": ""
    },
    {
      "Command": "selectWindow",
      "Target": "tab=1",
      "Value": ""
    },
    {
      "Command": "verifyText",
      "Target": "//div/label",
      "Value": "AOR Manager"
    },
    {
      "Command": "click",
      "Target": "xpath=//*[@id=\"tabContainer1_body\"]/table/tbody/tr/td[1]/img",
      "Value": ""
    },
    {
      "Command": "pause",
      "Target": "3000",
      "Value": ""
    },
    {
      "Command": "type",
      "Target": "//td/table/tbody/tr/td[2]/input",
      "Value": "New_Radius"
    },
    {
      "Command": "type",
      "Target": "//textarea",
      "Value": "New_Radius_Desc"
    },
    {
      "Command": "click",
      "Target": "//center/span",
      "Value": ""
    },
    {
      "Command": "pause",
      "Target": "1000",
      "Value": ""
    },
    {
      "Command": "select",
      "Target": "//td/table/tbody/tr/td/div/select",
      "Value": "label=Radius"
    },
    {
      "Command": "select",
      "Target": "//td[2]/select",
      "Value": "label=Degrees, Minutes, Seconds"
    },
    {
      "Command": "pause",
      "Target": "1000",
      "Value": ""
    },
    {
      "Command": "click",
      "Target": "//fieldset/table/tbody/tr/td[3]/label/input",
      "Value": ""
    },
    {
      "Command": "pause",
      "Target": "1000",
      "Value": ""
    },
    {
      "Command": "type",
      "Target": "//fieldset/table/tbody/tr/td[2]/table/tbody/tr/td/input",
      "Value": "2"
    },
    {
      "Command": "type",
      "Target": "//td[2]/table/tbody/tr/td[3]/input",
      "Value": "4"
    },
    {
      "Command": "type",
      "Target": "//td[5]/input",
      "Value": "6"
    },
    {
      "Command": "type",
      "Target": "//fieldset/table/tbody/tr[2]/td[2]/table/tbody/tr/td/input",
      "Value": "8"
    },
    {
      "Command": "type",
      "Target": "//tr[2]/td[2]/table/tbody/tr/td[3]/input",
      "Value": "10"
    },
    {
      "Command": "type",
      "Target": "//tr[2]/td[2]/table/tbody/tr/td[5]/input",
      "Value": "12"
    },
    {
      "Command": "type",
      "Target": "//tr[3]/td[2]/input",
      "Value": "500"
    },
    {
      "Command": "select",
      "Target": "//td[7]/select",
      "Value": "label=S"
    },
    {
      "Command": "pause",
      "Target": "1000",
      "Value": ""
    },
    {
      "Command": "click",
      "Target": "//div/table/tbody/tr[3]/td[2]/input",
      "Value": "Save"
    },
    {
      "Command": "pause",
      "Target": "1000",
      "Value": ""
    },
    {
      "Command": "click",
      "Target": "xpath=//img[@title='Save']",
      "Value": "Save"
    },
    {
      "Command": "pause",
      "Target": "1000",
      "Value": ""
    },
    {
      "Command": "verifyText",
      "Target": "//div[2]/div/div/center/table/tbody/tr/td[2]/div",
      "Value": "Do you want to automatically create a view for this AOR?"
    },
    {
      "Command": "click",
      "Target": "//div[2]/div/div/center/div/input",
      "Value": "Yes"
    },
    {
      "Command": "pause",
      "Target": "1000",
      "Value": ""
    },
    {
      "Command": "verifyText",
      "Target": "//div[2]/div/div/center/table/tbody/tr/td[2]/div/span",
      "Value": "Save Successful!"
    },
    {
      "Command": "click",
      "Target": "//div[2]/div/div/center/div/input[2]",
      "Value": "Ok"
    },
    {
      "Command": "pause",
      "Target": "1000",
      "Value": ""
    },
    {
      "Command": "click",
      "Target": "//a",
      "Value": ""
    },
    {
      "Command": "pause",
      "Target": "5000",
      "Value": ""
    },
    {
      "Command": "selectWindow",
      "Target": "TAB=CLOSEALLOTHER",
      "Value": ""
    }
  ]
}