{
  "Name": "_vqa_MISC08B__OGA_Delete",
  "CreationDate": "2020-4-21",
  "Commands": [
    {
      "Command": "open",
      "Target": "https://10.200.225.14/VSSQA",
      "Value": ""
    },
    {
      "Command": "pause",
      "Target": "3000",
      "Value": ""
    },
    {
      "Command": "type",
      "Target": "//td[2]/input",
      "Value": "QA_11"
    },
    {
      "Command": "type",
      "Target": "//tr[2]/td[2]/input",
      "Value": ".vss@2019"
    },
    {
      "Command": "click",
      "Target": "//tr[4]/td/input",
      "Value": "Log In"
    },
    {
      "Command": "pause",
      "Target": "4000",
      "Value": ""
    },
    {
      "Command": "mouseOver",
      "Target": "//div/ul/li[5]/a",
      "Value": "Administration"
    },
    {
      "Command": "mouseOver",
      "Target": "//li[5]/ul/li/a",
      "Value": "Security"
    },
    {
      "Command": "verifyText",
      "Target": "//li[5]/ul/li/ul/li/a",
      "Value": "Administrator Settings"
    },
    {
      "Command": "click",
      "Target": "//li[5]/ul/li/ul/li/a",
      "Value": ""
    },
    {
      "Command": "pause",
      "Target": "2000",
      "Value": ""
    },
    {
      "Command": "selectWindow",
      "Target": "tab=1",
      "Value": ""
    },
    {
      "Command": "verifyText",
      "Target": "//div[3]/div/span",
      "Value": "Administrator Settings"
    },
    {
      "Command": "verifyText",
      "Target": "//span[5]/span/span/a/span",
      "Value": "OGA"
    },
    {
      "Command": "click",
      "Target": "//span[5]/span/span/a/span",
      "Value": ""
    },
    {
      "Command": "verifyText",
      "Target": "//div[5]/div/table/tbody/tr[2]/td[2]/span",
      "Value": "OGAN_Update"
    },
    {
      "Command": "verifyText",
      "Target": "//div[5]/div/table/tbody/tr[2]/td[3]/span",
      "Value": "OGAC__Update"
    },
    {
      "Command": "verifyText",
      "Target": "//div[5]/div/table/tbody/tr[2]/td[4]/span",
      "Value": "ODAD__Update"
    },
    {
      "Command": "click",
      "Target": "//td/input[2]",
      "Value": "Remove"
    },
    {
      "Command": "pause",
      "Target": "2000",
      "Value": ""
    },
    {
      "Command": "click",
      "Target": "xpath=//*[@id=\"__tab_ctl00_ContentPlaceHolder1_tc_tabMiscellaneous\"]/span",
      "Value": "Miscellaneous"
    },
    {
      "Command": "pause",
      "Target": "1000",
      "Value": ""
    },
    {
      "Command": "verifyText",
      "Target": "xpath=//*[@id=\"ctl00_ContentPlaceHolder1_tc_tabMiscellaneous_MiscTable\"]/tbody/tr[11]/td[1]",
      "Value": "Enable OGA"
    },
    {
      "Command": "click",
      "Target": "id=ctl00_ContentPlaceHolder1_tc_tabMiscellaneous_EnableOGA",
      "Value": "Enable OGA"
    },
    {
      "Command": "click",
      "Target": "xpath=//div[@id='ctl00_ContentPlaceHolder1_UpdatePanelNew']/input",
      "Value": ""
    },
    {
      "Command": "pause",
      "Target": "4000",
      "Value": ""
    },
    {
      "Command": "verifyText",
      "Target": "id=ctl00_ContentPlaceHolder1_MessageBox1_lblTitle",
      "Value": "Administrator Settings"
    },
    {
      "Command": "verifyText",
      "Target": "id=ctl00_ContentPlaceHolder1_MessageBox1_lblMessage",
      "Value": "Save Successful!"
    },
    {
      "Command": "click",
      "Target": "id=ctl00_ContentPlaceHolder1_MessageBox1_MessageOK",
      "Value": "Ok"
    },
    {
      "Command": "click",
      "Target": "//a",
      "Value": ""
    },
    {
      "Command": "pause",
      "Target": "2000",
      "Value": ""
    },
    {
      "Command": "selectWindow",
      "Target": "TAB=CLOSEALLOTHER",
      "Value": ""
    },
    {
      "Command": "refresh",
      "Target": "",
      "Value": ""
    }
  ]
}