{
  "Name": "_vqa_TAM_WFM_02_create new WFM",
  "CreationDate": "2020-4-21",
  "Commands": [
    {
      "Command": "open",
      "Target": "https://10.200.225.14/VSSQA",
      "Value": ""
    },
    {
      "Command": "pause",
      "Target": "1000",
      "Value": ""
    },
    {
      "Command": "type",
      "Target": "//td[2]/input",
      "Value": "QA_11"
    },
    {
      "Command": "type",
      "Target": "//tr[2]/td[2]/input",
      "Value": ".vss@2019"
    },
    {
      "Command": "click",
      "Target": "//tr[4]/td/input",
      "Value": "Log In"
    },
    {
      "Command": "pause",
      "Target": "6000",
      "Value": ""
    },
    {
      "Command": "mouseOver",
      "Target": "//li[6]/ul/li[3]/a",
      "Value": "Tools"
    },
    {
      "Command": "mouseOver",
      "Target": "xpath=//*[@id=\"menubar\"]/ul/li[6]/ul/li[3]/a",
      "Value": "Asset Managment"
    },
    {
      "Command": "click",
      "Target": "link=Workflow Manager@POS=2",
      "Value": ""
    },
    {
      "Command": "pause",
      "Target": "4000",
      "Value": ""
    },
    {
      "Command": "selectWindow",
      "Target": "tab=1",
      "Value": ""
    },
    {
      "Command": "type",
      "Target": "//fieldset/div/table/tbody/tr/td[2]/input",
      "Value": "new_WFM"
    },
    {
      "Command": "click",
      "Target": "//td[3]/input",
      "Value": "Save"
    },
    {
      "Command": "pause",
      "Target": "2000",
      "Value": ""
    },
    {
      "Command": "verifyText",
      "Target": "//div[2]/div/div/center/table/tbody/tr/td[2]/div/span",
      "Value": "Save Successful!"
    },
    {
      "Command": "click",
      "Target": "//div[2]/div/div/center/div/input",
      "Value": "Ok"
    },
    {
      "Command": "pause",
      "Target": "2000",
      "Value": ""
    },
    {
      "Command": "click",
      "Target": "//a",
      "Value": ""
    },
    {
      "Command": "pause",
      "Target": "1000",
      "Value": ""
    },
    {
      "Command": "selectWindow",
      "Target": "TAB=CLOSEALLOTHER",
      "Value": ""
    }
  ]
}