{
  "Name": "_vqa_TAM_IM_06_delete I_M",
  "CreationDate": "2020-4-21",
  "Commands": [
    {
      "Command": "open",
      "Target": "https://10.200.225.14/VSSQA",
      "Value": ""
    },
    {
      "Command": "pause",
      "Target": "1000",
      "Value": ""
    },
    {
      "Command": "type",
      "Target": "//td[2]/input",
      "Value": "QA_11"
    },
    {
      "Command": "type",
      "Target": "//tr[2]/td[2]/input",
      "Value": ".vss@2019"
    },
    {
      "Command": "click",
      "Target": "//tr[4]/td/input",
      "Value": "Log In"
    },
    {
      "Command": "pause",
      "Target": "6000",
      "Value": ""
    },
    {
      "Command": "mouseOver",
      "Target": "xpath=(//a[contains(@href, '#a')])[6]",
      "Value": "Tools"
    },
    {
      "Command": "mouseOver",
      "Target": "xpath=(//a[contains(@href, 'javascript:void(0)')])[2]",
      "Value": "Asset Management"
    },
    {
      "Command": "click",
      "Target": "link=Image Manager",
      "Value": "Image Manager"
    },
    {
      "Command": "pause",
      "Target": "4000",
      "Value": ""
    },
    {
      "Command": "selectWindow",
      "Target": "TAB=1",
      "Value": ""
    },
    {
      "Command": "verifyText",
      "Target": "//*[text()[contains(.,'_New_Description_img_updated')]]",
      "Value": "_New_Description_img_updated"
    },
    {
      "Command": "click",
      "Target": "//*[text()[contains(.,'_New_Description_img_updated')]]",
      "Value": "_New_Description_img_updated"
    },
    {
      "Command": "pause",
      "Target": "2000",
      "Value": ""
    },
    {
      "Command": "verifyElementPresent",
      "Target": "//div[@id='ctl00_ContentPlaceHolder1_panelDetails']/table/tbody/tr[2]/td[3]/textarea",
      "Value": "_New_Description_img_updated"
    },
    {
      "Command": "click",
      "Target": "//div[@id='ctl00_ContentPlaceHolder1_actionMenu_divToolbar']/table/tbody/tr/td[6]/input",
      "Value": ""
    },
    {
      "Command": "pause",
      "Target": "6000",
      "Value": ""
    },
    {
      "Command": "verifyText",
      "Target": "//span[@id='ctl00_ContentPlaceHolder1_DialogBoxDelete_lblMessage']/span",
      "Value": "Are you sure you want to delete?"
    },
    {
      "Command": "click",
      "Target": "//div[@id='ctl00_ContentPlaceHolder1_DialogBoxDelete_MessagePanel']/div/center/div/input",
      "Value": "Yes"
    },
    {
      "Command": "pause",
      "Target": "3000",
      "Value": ""
    },
    {
      "Command": "verifyText",
      "Target": "//div[@id='ctl00_ContentPlaceHolder1_MessageBox1_MessageAllignment']/span",
      "Value": "Delete Successful!"
    },
    {
      "Command": "click",
      "Target": "//div[@id='ctl00_ContentPlaceHolder1_MessageBox1_MessagePanel']/div/center/div/input",
      "Value": "Ok"
    },
    {
      "Command": "pause",
      "Target": "1000",
      "Value": ""
    },
    {
      "Command": "clickAndWait",
      "Target": "//a",
      "Value": ""
    },
    {
      "Command": "pause",
      "Target": "3000",
      "Value": ""
    },
    {
      "Command": "selectWindow",
      "Target": "TAB=CLOSEALLOTHER",
      "Value": ""
    },
    {
      "Command": "refresh",
      "Target": "",
      "Value": ""
    }
  ]
}