{
  "Name": "_vqa_TAM_VM_06_search and delete",
  "CreationDate": "2020-4-21",
  "Commands": [
    {
      "Command": "open",
      "Target": "https://10.200.225.14/VSSQA/",
      "Value": ""
    },
    {
      "Command": "pause",
      "Target": "1000",
      "Value": ""
    },
    {
      "Command": "type",
      "Target": "//td[2]/input",
      "Value": "QA_11"
    },
    {
      "Command": "type",
      "Target": "//tr[2]/td[2]/input",
      "Value": ".vss@2019"
    },
    {
      "Command": "click",
      "Target": "//tr[4]/td/input",
      "Value": "Log In"
    },
    {
      "Command": "pause",
      "Target": "11000",
      "Value": ""
    },
    {
      "Command": "mouseOver",
      "Target": "//div[@id='menubar']/ul/li[6]/a",
      "Value": "Tools"
    },
    {
      "Command": "mouseOver",
      "Target": "xpath=//*[@id=\"menubar\"]/ul/li[6]/ul/li[3]/a",
      "Value": "Asset Managment"
    },
    {
      "Command": "click",
      "Target": "link=VID Manager",
      "Value": ""
    },
    {
      "Command": "pause",
      "Target": "6000",
      "Value": ""
    },
    {
      "Command": "selectWindow",
      "Target": "tab=1",
      "Value": ""
    },
    {
      "Command": "type",
      "Target": "//div[@id='panelListSearch']/fieldset/table/tbody/tr/td[2]/div/input",
      "Value": "sachinan 1"
    },
    {
      "Command": "pause",
      "Target": "1000",
      "Value": ""
    },
    {
      "Command": "click",
      "Target": "xpath=//*[@id=\"fieldset_IMO-X527696\"]",
      "Value": "IMO-X527696"
    },
    {
      "Command": "pause",
      "Target": "1000",
      "Value": ""
    },
    {
      "Command": "verifyText",
      "Target": "//fieldset[@id='fieldset_body_detail']/table/tbody/tr/td/table/tbody/tr/td/table/tbody/tr/td[2]/div",
      "Value": "SACHINAN 1"
    },
    {
      "Command": "click",
      "Target": "//div[@id='div_grid_IMO-X527696']/table/tbody/tr[2]/td[9]/div/img",
      "Value": "Delete"
    },
    {
      "Command": "pause",
      "Target": "2000",
      "Value": ""
    },
    {
      "Command": "verifyText",
      "Target": "//div[@id='MessagePanel']/div/center/table/tbody/tr/td[2]/div",
      "Value": "Are you sure that you want to permanently delete this VID Report?"
    },
    {
      "Command": "click",
      "Target": "//div[2]/div/div/center/div/input",
      "Value": "Yes"
    },
    {
      "Command": "pause",
      "Target": "1000",
      "Value": ""
    },
    {
      "Command": "verifyText",
      "Target": "//div[@id='MessagePanel']/div/center/table/tbody/tr/td[2]/div/span",
      "Value": "Delete Successful!"
    },
    {
      "Command": "click",
      "Target": "xpath=(//div[@id='MessagePanel']/div/center/div/input[2])[2]",
      "Value": "Ok"
    },
    {
      "Command": "pause",
      "Target": "3000",
      "Value": ""
    },
    {
      "Command": "click",
      "Target": "//a[contains(@href, \"javascript:__doPostBack('ctl00$LoginStatus2$LoginStatus1$ctl00','')\")]",
      "Value": ""
    },
    {
      "Command": "pause",
      "Target": "4000",
      "Value": ""
    },
    {
      "Command": "selectWindow",
      "Target": "TAB=CLOSEALLOTHER",
      "Value": ""
    }
  ]
}