{
  "Name": "_vqa_TM_03_without members and role-  save as",
  "CreationDate": "2020-4-21",
  "Commands": [
    {
      "Command": "open",
      "Target": "https://10.200.225.14/VSSQA",
      "Value": ""
    },
    {
      "Command": "pause",
      "Target": "1000",
      "Value": ""
    },
    {
      "Command": "type",
      "Target": "//td[2]/input",
      "Value": "QA_11"
    },
    {
      "Command": "type",
      "Target": "//tr[2]/td[2]/input",
      "Value": ".vss@2019"
    },
    {
      "Command": "click",
      "Target": "//tr[4]/td/input",
      "Value": "Log In"
    },
    {
      "Command": "pause",
      "Target": "8000",
      "Value": ""
    },
    {
      "Command": "mouseOver",
      "Target": "xpath=//*[@id=\"menubar\"]/ul/li[5]/a",
      "Value": "Administration"
    },
    {
      "Command": "mouseOver",
      "Target": "xpath=//*[@id=\"menubar\"]/ul/li[5]/ul/li[1]/a",
      "Value": "Security"
    },
    {
      "Command": "click",
      "Target": "//a[contains(text(),'Manage Teams')]",
      "Value": "Manage Teams"
    },
    {
      "Command": "pause",
      "Target": "4000",
      "Value": ""
    },
    {
      "Command": "selectWindow",
      "Target": "TAB=1",
      "Value": ""
    },
    {
      "Command": "verifyText",
      "Target": "/html/body/form/div/div/div/span",
      "Value": "Team Management"
    },
    {
      "Command": "verifyText",
      "Target": "//a[contains(text(),'z_team_Name_Script')]",
      "Value": "z_team_Name_Script"
    },
    {
      "Command": "click",
      "Target": "//a[contains(text(),'z_team_Name_Script')]",
      "Value": "z_team_Name_Script"
    },
    {
      "Command": "pause",
      "Target": "2000",
      "Value": ""
    },
    {
      "Command": "click",
      "Target": "//div[@id='ctl00_ContentPlaceHolder1_NoteUpdatePanel']/table/tbody/tr/td[2]/div/table/tbody/tr/td[4]/input",
      "Value": "Save as"
    },
    {
      "Command": "pause",
      "Target": "4000",
      "Value": ""
    },
    {
      "Command": "verifyText",
      "Target": "//div[@id='ctl00_ContentPlaceHolder1_MessageBox1_MessageAllignment']/span",
      "Value": "Save Successful!"
    },
    {
      "Command": "click",
      "Target": "//div[@id='ctl00_ContentPlaceHolder1_MessageBox1_MessagePanel']/div/center/div/input",
      "Value": "Ok"
    },
    {
      "Command": "pause",
      "Target": "2000",
      "Value": ""
    },
    {
      "Command": "click",
      "Target": "//div[@id='ctl00_ContentPlaceHolder1_NoteUpdatePanel']/table/tbody/tr/td[2]/div/table/tbody/tr/td[3]/input",
      "Value": "save"
    },
    {
      "Command": "pause",
      "Target": "1000",
      "Value": ""
    },
    {
      "Command": "verifyText",
      "Target": "//div[@id='ctl00_ContentPlaceHolder1_MessageBox1_MessageAllignment']/span",
      "Value": "Save Successful!"
    },
    {
      "Command": "click",
      "Target": "//div[@id='ctl00_ContentPlaceHolder1_MessageBox1_MessagePanel']/div/center/div/input",
      "Value": "Ok"
    },
    {
      "Command": "pause",
      "Target": "1000",
      "Value": ""
    },
    {
      "Command": "click",
      "Target": "link=Logout",
      "Value": ""
    },
    {
      "Command": "pause",
      "Target": "4000",
      "Value": ""
    },
    {
      "Command": "selectWindow",
      "Target": "TAB=CLOSEALLOTHER",
      "Value": ""
    },
    {
      "Command": "refresh",
      "Target": "",
      "Value": ""
    }
  ]
}