{
  "Name": "_vqa_MISC014_deleting_9d",
  "CreationDate": "2020-4-21",
  "Commands": [
    {
      "Command": "open",
      "Target": "https://10.200.225.14/VSSQA/Login.aspx",
      "Value": ""
    },
    {
      "Command": "pause",
      "Target": "1000",
      "Value": ""
    },
    {
      "Command": "type",
      "Target": "//td[2]/input",
      "Value": "QA_11"
    },
    {
      "Command": "type",
      "Target": "//tr[2]/td[2]/input",
      "Value": ".vss@2019"
    },
    {
      "Command": "click",
      "Target": "id=ctl00_ContentPlaceHolder1_loginBtn",
      "Value": "Log In"
    },
    {
      "Command": "pause",
      "Target": "5000",
      "Value": ""
    },
    {
      "Command": "mouseOver",
      "Target": "//div/ul/li[5]/a",
      "Value": "Administration"
    },
    {
      "Command": "mouseOver",
      "Target": "//li[5]/ul/li/a",
      "Value": "Security"
    },
    {
      "Command": "verifyText",
      "Target": "//li[5]/ul/li/ul/li/a",
      "Value": "Administrator Settings"
    },
    {
      "Command": "click",
      "Target": "linkText=Manage Users",
      "Value": "  Manage Users"
    },
    {
      "Command": "pause",
      "Target": "4000",
      "Value": ""
    },
    {
      "Command": "selectWindow",
      "Target": "tab=1",
      "Value": ""
    },
    {
      "Command": "click",
      "Target": "linkText=QA_11",
      "Value": "QA_11"
    },
    {
      "Command": "pause",
      "Target": "4000",
      "Value": ""
    },
    {
      "Command": "selectWindow",
      "Target": "tab=2",
      "Value": ""
    },
    {
      "Command": "click",
      "Target": "id=ctl00_ContentPlaceHolder1_btnEdit",
      "Value": ""
    },
    {
      "Command": "pause",
      "Target": "2000",
      "Value": ""
    },
    {
      "Command": "click",
      "Target": "xpath=(//label[text()='Administrator'])",
      "Value": "Administrator"
    },
    {
      "Command": "click",
      "Target": "xpath=(//label[text()='z_qa_Administrator'])",
      "Value": "z_qa_Administrator"
    },
    {
      "Command": "click",
      "Target": "xpath=//td/input",
      "Value": "save"
    },
    {
      "Command": "pause",
      "Target": "2000",
      "Value": ""
    },
    {
      "Command": "verifyText",
      "Target": "id=ctl00_ContentPlaceHolder1_MessageBox1_lblMessage",
      "Value": "Save Successful!"
    },
    {
      "Command": "click",
      "Target": "id=ctl00_ContentPlaceHolder1_MessageBox1_MessageOK",
      "Value": "Ok"
    },
    {
      "Command": "pause",
      "Target": "2000",
      "Value": ""
    },
    {
      "Command": "mouseOver",
      "Target": "xpath=//*[@id=\"menubar\"]/ul/li[5]/a",
      "Value": "Administration"
    },
    {
      "Command": "mouseOver",
      "Target": "xpath=//*[@id=\"menubar\"]/ul/li[5]/ul/li[1]/a",
      "Value": "Security"
    },
    {
      "Command": "click",
      "Target": "link=Manage Roles",
      "Value": ""
    },
    {
      "Command": "pause",
      "Target": "8000",
      "Value": ""
    },
    {
      "Command": "selectWindow",
      "Target": "tab=3",
      "Value": ""
    },
    {
      "Command": "verifyText",
      "Target": "xpath=(//td[text()[contains(.,'z_qa_Administrator')]])",
      "Value": "z_qa_Administrator"
    },
    {
      "Command": "click",
      "Target": "xpath=(//td[text()[contains(.,'z_qa_Administrator')]])",
      "Value": "z_qa_Administrator"
    },
    {
      "Command": "pause",
      "Target": "2000",
      "Value": ""
    },
    {
      "Command": "verifyElementPresent",
      "Target": "xpath=//*[@id=\"ctl00_ContentPlaceHolder1_tc_tabMain_txtRole\"]",
      "Value": "z_qa_Administrator"
    },
    {
      "Command": "click",
      "Target": "id=ctl00_ContentPlaceHolder1_actionMenu_btnDelete",
      "Value": "Delete"
    },
    {
      "Command": "pause",
      "Target": "2000",
      "Value": ""
    },
    {
      "Command": "verifyText",
      "Target": "xpath=//td[2]/span",
      "Value": "Are you sure you want to delete?\\n[z_qa_Administrator]"
    },
    {
      "Command": "click",
      "Target": "xpath=//div[4]/div[2]/div/center/div/input",
      "Value": "yes"
    },
    {
      "Command": "pause",
      "Target": "2000",
      "Value": ""
    },
    {
      "Command": "verifyText",
      "Target": "id=ctl00_ContentPlaceHolder1_MessageBox1_lblMessage",
      "Value": "Delete Successful!"
    },
    {
      "Command": "click",
      "Target": "id=ctl00_ContentPlaceHolder1_MessageBox1_MessageOK",
      "Value": "Ok"
    },
    {
      "Command": "click",
      "Target": "link=Logout",
      "Value": ""
    },
    {
      "Command": "pause",
      "Target": "4000",
      "Value": ""
    },
    {
      "Command": "selectWindow",
      "Target": "TAB=CLOSEALLOTHER",
      "Value": ""
    },
    {
      "Command": "refresh",
      "Target": "",
      "Value": ""
    }
  ]
}