{
  "Name": "_vqa_MISC06_Full_A_Page_Open_Verify",
  "CreationDate": "2020-4-21",
  "Commands": [
    {
      "Command": "open",
      "Target": "https://10.200.225.14/VSSQA",
      "Value": ""
    },
    {
      "Command": "pause",
      "Target": "1000",
      "Value": ""
    },
    {
      "Command": "type",
      "Target": "//td[2]/input",
      "Value": "QA_11"
    },
    {
      "Command": "type",
      "Target": "//tr[2]/td[2]/input",
      "Value": ".vss@2019"
    },
    {
      "Command": "click",
      "Target": "//tr[4]/td/input",
      "Value": "Log In"
    },
    {
      "Command": "pause",
      "Target": "8000",
      "Value": ""
    },
    {
      "Command": "verifyText",
      "Target": "//span[2]",
      "Value": ": QA_11_ Full_Nam... "
    },
    {
      "Command": "verifyElementPresent",
      "Target": "//li/a",
      "Value": "Home"
    },
    {
      "Command": "verifyText",
      "Target": "//li/ul/li/a",
      "Value": "Vessel Dashboard"
    },
    {
      "Command": "click",
      "Target": "//li/ul/li/a",
      "Value": "Vessel Dashboard"
    },
    {
      "Command": "pause",
      "Target": "14000",
      "Value": ""
    },
    {
      "Command": "selectWindow",
      "Target": "tab=1",
      "Value": ""
    },
    {
      "Command": "verifyText",
      "Target": "//div[2]/div/div[2]/span",
      "Value": "Inbox"
    },
    {
      "Command": "mouseOver",
      "Target": "//li[2]/a",
      "Value": "Data Viewers"
    },
    {
      "Command": "verifyText",
      "Target": "//li[2]/ul/li/a",
      "Value": "Companies"
    },
    {
      "Command": "click",
      "Target": "//li[2]/ul/li/a",
      "Value": "Companies"
    },
    {
      "Command": "pause",
      "Target": "3000",
      "Value": ""
    },
    {
      "Command": "selectWindow",
      "Target": "tab=2",
      "Value": ""
    },
    {
      "Command": "verifyText",
      "Target": "//div[3]/div/span",
      "Value": "Company Data Viewer"
    },
    {
      "Command": "mouseOver",
      "Target": "//li[2]/a",
      "Value": "Data Viewers"
    },
    {
      "Command": "verifyText",
      "Target": "//li[2]/ul/li[2]/a",
      "Value": "Ports"
    },
    {
      "Command": "click",
      "Target": "//li[2]/ul/li[2]/a",
      "Value": "Ports"
    },
    {
      "Command": "pause",
      "Target": "3000",
      "Value": ""
    },
    {
      "Command": "selectWindow",
      "Target": "tab=3",
      "Value": ""
    },
    {
      "Command": "verifyText",
      "Target": "//div[3]/div/span",
      "Value": "Port Data Viewer"
    },
    {
      "Command": "mouseOver",
      "Target": "//li[2]/a",
      "Value": "Data Viewers"
    },
    {
      "Command": "verifyText",
      "Target": "//li[3]/a",
      "Value": "Vessels"
    },
    {
      "Command": "click",
      "Target": "//li[3]/a",
      "Value": "Vessels"
    },
    {
      "Command": "pause",
      "Target": "3000",
      "Value": ""
    },
    {
      "Command": "selectWindow",
      "Target": "tab=4",
      "Value": ""
    },
    {
      "Command": "mouseOver",
      "Target": "//li[2]/a",
      "Value": "Data Viewers"
    },
    {
      "Command": "verifyText",
      "Target": "//li[4]/a",
      "Value": "Port Metrics"
    },
    {
      "Command": "click",
      "Target": "//li[4]/a",
      "Value": "Port Metrics"
    },
    {
      "Command": "pause",
      "Target": "3000",
      "Value": ""
    },
    {
      "Command": "selectWindow",
      "Target": "tab=5",
      "Value": ""
    },
    {
      "Command": "verifyText",
      "Target": "xpath=//*[@id=\"Title\"]",
      "Value": "Port Metrics"
    },
    {
      "Command": "mouseOver",
      "Target": "//div/ul/li[3]/a",
      "Value": "Views »"
    },
    {
      "Command": "verifyText",
      "Target": "//li[3]/ul/li/a",
      "Value": "View Manager"
    },
    {
      "Command": "click",
      "Target": "//li[3]/ul/li/a",
      "Value": "View Manager"
    },
    {
      "Command": "pause",
      "Target": "3000",
      "Value": ""
    },
    {
      "Command": "selectWindow",
      "Target": "tab=6",
      "Value": ""
    },
    {
      "Command": "verifyText",
      "Target": "//div[3]/div/div/span",
      "Value": "View Manager"
    },
    {
      "Command": "click",
      "Target": "//li[3]/ul/li[2]/a",
      "Value": ""
    },
    {
      "Command": "pause",
      "Target": "3000",
      "Value": ""
    },
    {
      "Command": "selectWindow",
      "Target": "tab=7",
      "Value": ""
    },
    {
      "Command": "verifyText",
      "Target": "//div[3]/div/span",
      "Value": "View Wizard"
    },
    {
      "Command": "mouseOver",
      "Target": "//div/ul/li[3]/a",
      "Value": "Views »"
    },
    {
      "Command": "verifyText",
      "Target": "//li[3]/ul/li[3]/a",
      "Value": "AOR Manager"
    },
    {
      "Command": "click",
      "Target": "//li[3]/ul/li[3]/a",
      "Value": ""
    },
    {
      "Command": "pause",
      "Target": "5000",
      "Value": ""
    },
    {
      "Command": "selectWindow",
      "Target": "tab=8",
      "Value": ""
    },
    {
      "Command": "verifyText",
      "Target": "//div/label",
      "Value": "AOR Manager"
    },
    {
      "Command": "mouseOver",
      "Target": "//div/ul/li[4]/a",
      "Value": "Risk Assessment »"
    },
    {
      "Command": "verifyText",
      "Target": "//li[4]/ul/li/a",
      "Value": "Manage Risk Assessment Models"
    },
    {
      "Command": "click",
      "Target": "//li[4]/ul/li/a",
      "Value": ""
    },
    {
      "Command": "pause",
      "Target": "3000",
      "Value": ""
    },
    {
      "Command": "selectWindow",
      "Target": "tab=9",
      "Value": ""
    },
    {
      "Command": "verifyText",
      "Target": "//div[3]/div/span",
      "Value": "Risk Assessment Models"
    },
    {
      "Command": "mouseOver",
      "Target": "//div/ul/li[4]/a",
      "Value": "Risk Assessment »"
    },
    {
      "Command": "verifyText",
      "Target": "//li[4]/ul/li[2]/a",
      "Value": "Modify Risk Settings"
    },
    {
      "Command": "click",
      "Target": "//li[4]/ul/li[2]/a",
      "Value": ""
    },
    {
      "Command": "pause",
      "Target": "3000",
      "Value": ""
    },
    {
      "Command": "selectWindow",
      "Target": "tab=10",
      "Value": ""
    },
    {
      "Command": "verifyText",
      "Target": "//div/label",
      "Value": "Modify Risk Settings"
    },
    {
      "Command": "mouseOver",
      "Target": "//div/ul/li[4]/a",
      "Value": "Risk Assessment »"
    },
    {
      "Command": "verifyText",
      "Target": "//li[4]/ul/li[3]/a",
      "Value": "Manage Risk Reference Lists"
    },
    {
      "Command": "click",
      "Target": "//li[4]/ul/li[3]/a",
      "Value": ""
    },
    {
      "Command": "pause",
      "Target": "3000",
      "Value": ""
    },
    {
      "Command": "selectWindow",
      "Target": "tab=11",
      "Value": ""
    },
    {
      "Command": "verifyText",
      "Target": "//div[3]/div/span",
      "Value": "Risk Reference Lists"
    },
    {
      "Command": "mouseOver",
      "Target": "//div/ul/li[4]/a",
      "Value": "Risk Assessment »"
    },
    {
      "Command": "verifyText",
      "Target": "//li[4]/ul/li[4]/a",
      "Value": "Manage Reference Tables"
    },
    {
      "Command": "click",
      "Target": "//li[4]/ul/li[4]/a",
      "Value": ""
    },
    {
      "Command": "pause",
      "Target": "3000",
      "Value": ""
    },
    {
      "Command": "selectWindow",
      "Target": "tab=12",
      "Value": ""
    },
    {
      "Command": "verifyText",
      "Target": "//div[3]/div[3]/div",
      "Value": "Reference Tables"
    },
    {
      "Command": "mouseOver",
      "Target": "//div/ul/li[4]/a",
      "Value": "Risk Assessment »"
    },
    {
      "Command": "verifyText",
      "Target": "link=Manage Rules",
      "Value": "Manage Rules"
    },
    {
      "Command": "click",
      "Target": "link=Manage Rules",
      "Value": ""
    },
    {
      "Command": "pause",
      "Target": "26000",
      "Value": ""
    },
    {
      "Command": "selectWindow",
      "Target": "tab=13",
      "Value": ""
    },
    {
      "Command": "verifyText",
      "Target": "//div/label",
      "Value": "Manage Rules"
    },
    {
      "Command": "mouseOver",
      "Target": "//div/ul/li[5]/a",
      "Value": "Administration »"
    },
    {
      "Command": "mouseOver",
      "Target": "//li[5]/ul/li/a",
      "Value": "Security »"
    },
    {
      "Command": "verifyText",
      "Target": "//li[5]/ul/li/ul/li/a",
      "Value": "Administrator Settings"
    },
    {
      "Command": "click",
      "Target": "//li[5]/ul/li/ul/li/a",
      "Value": ""
    },
    {
      "Command": "pause",
      "Target": "3000",
      "Value": ""
    },
    {
      "Command": "selectWindow",
      "Target": "tab=14",
      "Value": ""
    },
    {
      "Command": "verifyText",
      "Target": "//div[3]/div/span",
      "Value": "Administrator Settings"
    },
    {
      "Command": "mouseOver",
      "Target": "//div/ul/li[5]/a",
      "Value": "Administration »"
    },
    {
      "Command": "mouseOver",
      "Target": "//li[5]/ul/li/a",
      "Value": "Security »"
    },
    {
      "Command": "verifyText",
      "Target": "//li[5]/ul/li/ul/li[2]/a",
      "Value": "Manage Users"
    },
    {
      "Command": "click",
      "Target": "//li[5]/ul/li/ul/li[2]/a",
      "Value": ""
    },
    {
      "Command": "pause",
      "Target": "3000",
      "Value": ""
    },
    {
      "Command": "selectWindow",
      "Target": "tab=15",
      "Value": ""
    },
    {
      "Command": "verifyText",
      "Target": "//div[3]/div/span",
      "Value": "User Management"
    },
    {
      "Command": "verifyElementPresent",
      "Target": "//td[2]/input",
      "Value": ""
    },
    {
      "Command": "click",
      "Target": "//td[2]/input",
      "Value": ""
    },
    {
      "Command": "pause",
      "Target": "1000",
      "Value": ""
    },
    {
      "Command": "verifyText",
      "Target": "//div[3]/div/span",
      "Value": "Add User"
    },
    {
      "Command": "mouseOver",
      "Target": "//div/ul/li[5]/a",
      "Value": "Administration »"
    },
    {
      "Command": "mouseOver",
      "Target": "//li[5]/ul/li/a",
      "Value": "Security »"
    },
    {
      "Command": "verifyText",
      "Target": "//li[5]/ul/li/ul/li[3]/a",
      "Value": "Manage Teams"
    },
    {
      "Command": "click",
      "Target": "//li[5]/ul/li/ul/li[3]/a",
      "Value": ""
    },
    {
      "Command": "pause",
      "Target": "3000",
      "Value": ""
    },
    {
      "Command": "selectWindow",
      "Target": "tab=16",
      "Value": ""
    },
    {
      "Command": "verifyText",
      "Target": "//div[3]/div/span",
      "Value": "Team Management"
    },
    {
      "Command": "mouseOver",
      "Target": "//div/ul/li[5]/a",
      "Value": "Administration »"
    },
    {
      "Command": "mouseOver",
      "Target": "//li[5]/ul/li/a",
      "Value": "Security »"
    },
    {
      "Command": "pause",
      "Target": "1000",
      "Value": ""
    },
    {
      "Command": "verifyText",
      "Target": "//li[5]/ul/li/ul/li[4]/a",
      "Value": "Manage Roles"
    },
    {
      "Command": "click",
      "Target": "//li[5]/ul/li/ul/li[4]/a",
      "Value": ""
    },
    {
      "Command": "pause",
      "Target": "3000",
      "Value": ""
    },
    {
      "Command": "selectWindow",
      "Target": "tab=17",
      "Value": ""
    },
    {
      "Command": "verifyText",
      "Target": "//div[3]/div/span",
      "Value": "Role Management"
    },
    {
      "Command": "mouseOver",
      "Target": "//div/ul/li[5]/a",
      "Value": "Administration »"
    },
    {
      "Command": "verifyText",
      "Target": "//li[5]/ul/li[2]/a",
      "Value": "Workflow Manager"
    },
    {
      "Command": "click",
      "Target": "//li[5]/ul/li[2]/a",
      "Value": ""
    },
    {
      "Command": "pause",
      "Target": "3000",
      "Value": ""
    },
    {
      "Command": "selectWindow",
      "Target": "tab=18",
      "Value": ""
    },
    {
      "Command": "verifyText",
      "Target": "//div[3]/div/span",
      "Value": "Workflow Manager"
    },
    {
      "Command": "mouseOver",
      "Target": "//div/ul/li[5]/a",
      "Value": "Administration »"
    },
    {
      "Command": "verifyText",
      "Target": "//li[5]/ul/li[3]/a",
      "Value": "Manage Services"
    },
    {
      "Command": "click",
      "Target": "//li[5]/ul/li[3]/a",
      "Value": ""
    },
    {
      "Command": "pause",
      "Target": "3000",
      "Value": ""
    },
    {
      "Command": "selectWindow",
      "Target": "tab=19",
      "Value": ""
    },
    {
      "Command": "verifyText",
      "Target": "//div[3]/div/span",
      "Value": "Service Management"
    },
    {
      "Command": "mouseOver",
      "Target": "//div/ul/li[5]/a",
      "Value": "Administration »"
    },
    {
      "Command": "verifyText",
      "Target": "//li[5]/ul/li[4]/a",
      "Value": "Notify Users"
    },
    {
      "Command": "click",
      "Target": "//li[5]/ul/li[4]/a",
      "Value": ""
    },
    {
      "Command": "pause",
      "Target": "3000",
      "Value": ""
    },
    {
      "Command": "selectWindow",
      "Target": "tab=20",
      "Value": ""
    },
    {
      "Command": "verifyText",
      "Target": "//div[3]/div/span",
      "Value": "System Notifications"
    },
    {
      "Command": "mouseOver",
      "Target": "xpath=//div/ul/li[6]/a",
      "Value": "Tools »"
    },
    {
      "Command": "verifyText",
      "Target": "xpath=//a[contains(text(),'User Lists')]",
      "Value": "User Lists"
    },
    {
      "Command": "click",
      "Target": "xpath=//a[contains(text(),'User Lists')]",
      "Value": ""
    },
    {
      "Command": "pause",
      "Target": "3000",
      "Value": ""
    },
    {
      "Command": "selectWindow",
      "Target": "tab=21",
      "Value": ""
    },
    {
      "Command": "verifyText",
      "Target": "//div/label",
      "Value": "User Lists"
    },
    {
      "Command": "mouseOver",
      "Target": "//li[6]/a",
      "Value": "Tools »"
    },
    {
      "Command": "verifyText",
      "Target": "xpath=//a[contains(text(),'Extract Settings')]",
      "Value": "Extract Settings"
    },
    {
      "Command": "click",
      "Target": "xpath=//a[contains(text(),'Extract Settings')]",
      "Value": ""
    },
    {
      "Command": "pause",
      "Target": "3000",
      "Value": ""
    },
    {
      "Command": "selectWindow",
      "Target": "tab=22",
      "Value": ""
    },
    {
      "Command": "verifyText",
      "Target": "//div[3]/div/span",
      "Value": "Extract Settings"
    },
    {
      "Command": "mouseOver",
      "Target": "xpath=//div/ul/li[6]/a",
      "Value": "Tools »"
    },
    {
      "Command": "mouseOver",
      "Target": "xpath=//div[@id='menubar']/ul/li[6]/ul/li[4]/a",
      "Value": "Asset Management »"
    },
    {
      "Command": "verifyText",
      "Target": "xpath=(//a[contains(text(),'Workflow Manager')])[2]",
      "Value": "Workflow Manager"
    },
    {
      "Command": "click",
      "Target": "xpath=(//a[contains(text(),'Workflow Manager')])[2]",
      "Value": ""
    },
    {
      "Command": "pause",
      "Target": "3000",
      "Value": ""
    },
    {
      "Command": "selectWindow",
      "Target": "tab=23",
      "Value": ""
    },
    {
      "Command": "verifyText",
      "Target": "//div[3]/div/span",
      "Value": "Workflow Manager"
    },
    {
      "Command": "mouseOver",
      "Target": "//li[6]/a",
      "Value": "Tools »"
    },
    {
      "Command": "mouseOver",
      "Target": "xpath=//div[@id='menubar']/ul/li[6]/ul/li[4]/a",
      "Value": "Asset Management »"
    },
    {
      "Command": "verifyText",
      "Target": "xpath=//a[contains(text(),'VID Manager')]",
      "Value": "VID Manager"
    },
    {
      "Command": "click",
      "Target": "xpath=//a[contains(text(),'VID Manager')]",
      "Value": ""
    },
    {
      "Command": "pause",
      "Target": "3000",
      "Value": ""
    },
    {
      "Command": "selectWindow",
      "Target": "tab=24",
      "Value": ""
    },
    {
      "Command": "verifyText",
      "Target": "//div/label",
      "Value": "VID Manager"
    },
    {
      "Command": "mouseOver",
      "Target": "xpath=//div/ul/li[6]/a",
      "Value": "Tools »"
    },
    {
      "Command": "mouseOver",
      "Target": "xpath=//div[@id='menubar']/ul/li[6]/ul/li[4]/a",
      "Value": "Asset Management »"
    },
    {
      "Command": "verifyText",
      "Target": "xpath=//a[contains(text(),'Document Manager')]",
      "Value": "Document Manager"
    },
    {
      "Command": "click",
      "Target": "xpath=//a[contains(text(),'Document Manager')]",
      "Value": ""
    },
    {
      "Command": "pause",
      "Target": "3000",
      "Value": ""
    },
    {
      "Command": "selectWindow",
      "Target": "tab=25",
      "Value": ""
    },
    {
      "Command": "verifyText",
      "Target": "//div[3]/div/span[2]",
      "Value": "Document Manager"
    },
    {
      "Command": "mouseOver",
      "Target": "xpath=//div/ul/li[6]/a",
      "Value": "Tools »"
    },
    {
      "Command": "mouseOver",
      "Target": "xpath=//div[@id='menubar']/ul/li[6]/ul/li[4]/a",
      "Value": "Asset Management »"
    },
    {
      "Command": "verifyText",
      "Target": "xpath=//a[contains(text(),'Image Manager')]",
      "Value": "Image Manager"
    },
    {
      "Command": "click",
      "Target": "xpath=//a[contains(text(),'Image Manager')]",
      "Value": ""
    },
    {
      "Command": "pause",
      "Target": "3000",
      "Value": ""
    },
    {
      "Command": "selectWindow",
      "Target": "tab=26",
      "Value": ""
    },
    {
      "Command": "verifyText",
      "Target": "//div[3]/div/span[2]",
      "Value": "Image Manager"
    },
    {
      "Command": "mouseOver",
      "Target": "//li[6]/a",
      "Value": "Tools »"
    },
    {
      "Command": "verifyText",
      "Target": "xpath=//a[contains(text(),'Contacts')]",
      "Value": "Contacts"
    },
    {
      "Command": "click",
      "Target": "xpath=//a[contains(text(),'Contacts')]",
      "Value": ""
    },
    {
      "Command": "pause",
      "Target": "3000",
      "Value": ""
    },
    {
      "Command": "selectWindow",
      "Target": "tab=27",
      "Value": ""
    },
    {
      "Command": "verifyText",
      "Target": "//div[3]/div/span",
      "Value": "Contact Management"
    },
    {
      "Command": "verifyText",
      "Target": "//th/a",
      "Value": "Contact Name"
    },
    {
      "Command": "click",
      "Target": "//td[2]/input",
      "Value": ""
    },
    {
      "Command": "pause",
      "Target": "2000",
      "Value": ""
    },
    {
      "Command": "verifyText",
      "Target": "//div[3]/div/span",
      "Value": "Add Contact"
    },
    {
      "Command": "mouseOver",
      "Target": "//li[6]/a",
      "Value": "Tools »"
    },
    {
      "Command": "verifyText",
      "Target": "xpath=//a[contains(text(),'User Settings')]",
      "Value": "User Settings"
    },
    {
      "Command": "click",
      "Target": "xpath=//a[contains(text(),'User Settings')]",
      "Value": ""
    },
    {
      "Command": "pause",
      "Target": "3000",
      "Value": ""
    },
    {
      "Command": "selectWindow",
      "Target": "tab=28",
      "Value": ""
    },
    {
      "Command": "verifyElementPresent",
      "Target": "//div[3]/div[3]/div",
      "Value": "Settings QA_11_ Full_Name_1"
    },
    {
      "Command": "mouseOver",
      "Target": "//li[7]/a",
      "Value": "Help »"
    },
    {
      "Command": "click",
      "Target": "//li[7]/a",
      "Value": ""
    },
    {
      "Command": "click",
      "Target": "xpath=//a[contains(text(),'About VSS')]",
      "Value": "About VSS"
    },
    {
      "Command": "pause",
      "Target": "2000",
      "Value": ""
    },
    {
      "Command": "selectFrame",
      "Target": "id=frm",
      "Value": ""
    },
    {
      "Command": "verifyText",
      "Target": "//span",
      "Value": "About"
    },
    {
      "Command": "verifyText",
      "Target": "//h1/span",
      "Value": "VSS"
    },
    {
      "Command": "click",
      "Target": "id=OkBtn",
      "Value": ""
    },
    {
      "Command": "selectFrame",
      "Target": "relative=top",
      "Value": ""
    },
    {
      "Command": "pause",
      "Target": "1000",
      "Value": ""
    },
    {
      "Command": "mouseOver",
      "Target": "//li[7]/a",
      "Value": "Help »"
    },
    {
      "Command": "verifyText",
      "Target": "//li[7]/ul/li[2]/a",
      "Value": "Online Help"
    },
    {
      "Command": "click",
      "Target": "//li[7]/ul/li[2]/a",
      "Value": "Online Help"
    },
    {
      "Command": "pause",
      "Target": "6000",
      "Value": ""
    },
    {
      "Command": "selectWindow",
      "Target": "tab=28",
      "Value": ""
    },
    {
      "Command": "mouseOver",
      "Target": "//li[7]/a",
      "Value": "Help »"
    },
    {
      "Command": "verifyElementPresent",
      "Target": "//li[7]/ul/li[3]/a",
      "Value": "User Guides »"
    },
    {
      "Command": "mouseOver",
      "Target": "//li[7]/ul/li[3]/a",
      "Value": "User Guides »"
    },
    {
      "Command": "verifyElementPresent",
      "Target": "//li[7]/ul/li[3]/ul/li/a/img",
      "Value": "Analyst Guide"
    },
    {
      "Command": "verifyText",
      "Target": "//li[7]/ul/li[3]/ul/li[2]/a",
      "Value": "Quick Start Guide"
    },
    {
      "Command": "click",
      "Target": "//li[7]/ul/li[3]/ul/li/a/img",
      "Value": "Analyst Guide"
    },
    {
      "Command": "pause",
      "Target": "6000",
      "Value": ""
    },
    {
      "Command": "selectWindow",
      "Target": "tab=28",
      "Value": ""
    },
    {
      "Command": "click",
      "Target": "//li[7]/ul/li[3]/ul/li[2]/a",
      "Value": "Quick Start Guide"
    },
    {
      "Command": "pause",
      "Target": "6000",
      "Value": ""
    },
    {
      "Command": "selectWindow",
      "Target": "tab=28",
      "Value": ""
    },
    {
      "Command": "mouseOver",
      "Target": "//li[7]/a",
      "Value": "Help »"
    },
    {
      "Command": "mouseOver",
      "Target": "//li[7]/ul/li[4]/a",
      "Value": "Support »"
    },
    {
      "Command": "verifyText",
      "Target": "xpath=//a[contains(text(),'Request Support')]",
      "Value": "Request Support"
    },
    {
      "Command": "click",
      "Target": "xpath=//a[contains(text(),'Request Support')]",
      "Value": ""
    },
    {
      "Command": "selectFrame",
      "Target": "id=frmRequest",
      "Value": ""
    },
    {
      "Command": "verifyText",
      "Target": "//*[@id=\"m\"]/div[1]/div/strong/label",
      "Value": "Contact Information"
    },
    {
      "Command": "click",
      "Target": "//*[@id=\"m\"]/div[14]/div/span/input[1]",
      "Value": "Cancel"
    },
    {
      "Command": "selectFrame",
      "Target": "relative=top",
      "Value": ""
    },
    {
      "Command": "verifyText",
      "Target": "//a",
      "Value": "Logout"
    },
    {
      "Command": "click",
      "Target": "//a",
      "Value": ""
    },
    {
      "Command": "selectWindow",
      "Target": "TAB=CLOSEALLOTHER",
      "Value": ""
    },
    {
      "Command": "refresh",
      "Target": "",
      "Value": ""
    }
  ]
}