{
  "Name": "_vqa_TM_06_add  members and role-  new team",
  "CreationDate": "2020-4-21",
  "Commands": [
    {
      "Command": "open",
      "Target": "https://10.200.225.14/VSSQA",
      "Value": ""
    },
    {
      "Command": "pause",
      "Target": "1000",
      "Value": ""
    },
    {
      "Command": "type",
      "Target": "//td[2]/input",
      "Value": "QA_11"
    },
    {
      "Command": "type",
      "Target": "//tr[2]/td[2]/input",
      "Value": ".vss@2019"
    },
    {
      "Command": "click",
      "Target": "//tr[4]/td/input",
      "Value": "Log In"
    },
    {
      "Command": "pause",
      "Target": "8000",
      "Value": ""
    },
    {
      "Command": "mouseOver",
      "Target": "xpath=//*[@id=\"menubar\"]/ul/li[5]/a",
      "Value": "Administration"
    },
    {
      "Command": "mouseOver",
      "Target": "xpath=//*[@id=\"menubar\"]/ul/li[5]/ul/li[1]/a",
      "Value": "Security"
    },
    {
      "Command": "click",
      "Target": "//a[contains(text(),'Manage Teams')]",
      "Value": "Manage Teams"
    },
    {
      "Command": "pause",
      "Target": "4000",
      "Value": ""
    },
    {
      "Command": "selectWindow",
      "Target": "TAB=1",
      "Value": ""
    },
    {
      "Command": "verifyText",
      "Target": "/html/body/form/div/div/div/span",
      "Value": "Team Management"
    },
    {
      "Command": "verifyText",
      "Target": "//a[contains(text(),'z_team_Name_Script')]",
      "Value": "z_team_Name_Script"
    },
    {
      "Command": "click",
      "Target": "//a[contains(text(),'z_team_Name_Script')]",
      "Value": "z_team_Name_Script"
    },
    {
      "Command": "pause",
      "Target": "2000",
      "Value": ""
    },
    {
      "Command": "click",
      "Target": "//div[@id='ctl00_ContentPlaceHolder1_NoteUpdatePanel']/table/tbody/tr/td[2]/div/table/tbody/tr/td[2]/input",
      "Value": "Edit"
    },
    {
      "Command": "pause",
      "Target": "2000",
      "Value": ""
    },
    {
      "Command": "comment",
      "Target": "id=ctl00_ContentPlaceHolder1_gridUsers_ctl01_ddlUserName",
      "Value": "label=Sachin Gupta"
    },
    {
      "Command": "select",
      "Target": "xpath=//*[@id=\"ctl00_ContentPlaceHolder1_gridUsers_ctl01_ddlUserName\"]",
      "Value": "label=sachin gupta"
    },
    {
      "Command": "click",
      "Target": "//table[@id='ctl00_ContentPlaceHolder1_gridUsers']/tbody/tr/td/table/tbody/tr[2]/td[3]/input",
      "Value": "Add"
    },
    {
      "Command": "pause",
      "Target": "1000",
      "Value": ""
    },
    {
      "Command": "select",
      "Target": "id=ctl00_ContentPlaceHolder1_gridRoles_ctl01_ddlRoleName",
      "Value": "label=Analyst"
    },
    {
      "Command": "click",
      "Target": "//table[@id='ctl00_ContentPlaceHolder1_gridRoles']/tbody/tr/td/table/tbody/tr[2]/td[2]/input",
      "Value": "Add"
    },
    {
      "Command": "pause",
      "Target": "1000",
      "Value": ""
    },
    {
      "Command": "type",
      "Target": "//div[@id='ctl00_ContentPlaceHolder1_panelRule']/table/tbody/tr/td[3]/input",
      "Value": "z_team_Name_Script_added members and roles"
    },
    {
      "Command": "click",
      "Target": "//div[@id='ctl00_ContentPlaceHolder1_NoteUpdatePanel']/table/tbody/tr/td[2]/div/table/tbody/tr/td[3]/input",
      "Value": "Save"
    },
    {
      "Command": "pause",
      "Target": "9000",
      "Value": ""
    },
    {
      "Command": "verifyText",
      "Target": "//div[@id='ctl00_ContentPlaceHolder1_MessageBox1_MessageAllignment']/span",
      "Value": "Save Successful!"
    },
    {
      "Command": "click",
      "Target": "//div[@id='ctl00_ContentPlaceHolder1_MessageBox1_MessagePanel']/div/center/div/input",
      "Value": "Ok"
    },
    {
      "Command": "pause",
      "Target": "1000",
      "Value": ""
    },
    {
      "Command": "click",
      "Target": "link=Logout",
      "Value": ""
    },
    {
      "Command": "pause",
      "Target": "2000",
      "Value": ""
    },
    {
      "Command": "selectWindow",
      "Target": "TAB=CLOSEALLOTHER",
      "Value": ""
    },
    {
      "Command": "refresh",
      "Target": "",
      "Value": ""
    }
  ]
}