{
  "Name": "_vqa_RA_RRL_02_Create new RRL",
  "CreationDate": "2020-4-21",
  "Commands": [
    {
      "Command": "open",
      "Target": "https://10.200.225.14/VSSQA",
      "Value": ""
    },
    {
      "Command": "pause",
      "Target": "1000",
      "Value": ""
    },
    {
      "Command": "type",
      "Target": "//td[2]/input",
      "Value": "QA_11"
    },
    {
      "Command": "type",
      "Target": "//tr[2]/td[2]/input",
      "Value": ".vss@2019"
    },
    {
      "Command": "click",
      "Target": "//tr[4]/td/input",
      "Value": "Log In"
    },
    {
      "Command": "pause",
      "Target": "3000",
      "Value": ""
    },
    {
      "Command": "mouseOver",
      "Target": "//div/ul/li[4]/a",
      "Value": "Risk Assessment"
    },
    {
      "Command": "click",
      "Target": "link=Manage Risk Reference Lists",
      "Value": "Manage Risk Reference Lists"
    },
    {
      "Command": "pause",
      "Target": "4000",
      "Value": ""
    },
    {
      "Command": "selectWindow",
      "Target": "TAB=1",
      "Value": ""
    },
    {
      "Command": "verifyText",
      "Target": "id=ctl00_ContentPlaceHolder1__Berth_Details",
      "Value": "Risk Reference Lists"
    },
    {
      "Command": "type",
      "Target": "id=ctl00_ContentPlaceHolder1_txtListName2",
      "Value": "z_TITLE_RRL"
    },
    {
      "Command": "type",
      "Target": "id=ctl00_ContentPlaceHolder1_txtDescription2",
      "Value": "z_DESCRIPTION RRL"
    },
    {
      "Command": "select",
      "Target": "id=ctl00_ContentPlaceHolder1_ddlReference2",
      "Value": "label=BIS DPL"
    },
    {
      "Command": "select",
      "Target": "id=ctl00_ContentPlaceHolder1_ddlListType2",
      "Value": "label=Rank"
    },
    {
      "Command": "click",
      "Target": "id=ctl00_ContentPlaceHolder1_actionMenu_btnSave",
      "Value": "Save"
    },
    {
      "Command": "pause",
      "Target": "1000",
      "Value": ""
    },
    {
      "Command": "verifyText",
      "Target": "id=ctl00_ContentPlaceHolder1_MessageBox1_lblMessage",
      "Value": "Save Successful!"
    },
    {
      "Command": "click",
      "Target": "id=ctl00_ContentPlaceHolder1_MessageBox1_MessageOK",
      "Value": "Ok"
    },
    {
      "Command": "click",
      "Target": "link=Logout",
      "Value": ""
    },
    {
      "Command": "pause",
      "Target": "3000",
      "Value": ""
    },
    {
      "Command": "selectWindow",
      "Target": "TAB=CLOSEALLOTHER",
      "Value": ""
    },
    {
      "Command": "refresh",
      "Target": "",
      "Value": ""
    }
  ]
}