{
  "Name": "_vqa_UMS_09_LCBPDeleteAndTryToSee",
  "CreationDate": "2020-4-21",
  "Commands": [
    {
      "Command": "open",
      "Target": "https://10.200.225.14/VSSQA/Tools/UMS.aspx",
      "Value": ""
    },
    {
      "Command": "pause",
      "Target": "1000",
      "Value": ""
    },
    {
      "Command": "type",
      "Target": "//td[2]/input",
      "Value": "qa10@पीएई.कॉम"
    },
    {
      "Command": "type",
      "Target": "//tr[2]/td[2]/input",
      "Value": "planet.ten@gmail.com10"
    },
    {
      "Command": "click",
      "Target": "//tr[4]/td/input",
      "Value": "Log In"
    },
    {
      "Command": "pause",
      "Target": "11000",
      "Value": ""
    },
    {
      "Command": "verifyText",
      "Target": "id=ctl00_ContentPlaceHolder1__User_Map_Settings",
      "Value": "User Map Settings"
    },
    {
      "Command": "verifyText",
      "Target": "//a[@id='__tab_ctl00_ContentPlaceHolder1_tc_tabConfiguration']/span",
      "Value": "Layer Configuration"
    },
    {
      "Command": "click",
      "Target": "//a[@id='__tab_ctl00_ContentPlaceHolder1_tc_tabConfiguration']/span",
      "Value": "Layer Configuration"
    },
    {
      "Command": "pause",
      "Target": "4000",
      "Value": ""
    },
    {
      "Command": "verifyText",
      "Target": "xpath=(//td[text()[contains(.,'*QA_test_updated')]])[1]",
      "Value": "*QA_test_updated"
    },
    {
      "Command": "click",
      "Target": "xpath=(//td[text()[contains(.,'*QA_test')]])[1]",
      "Value": "*QA_test_updated"
    },
    {
      "Command": "pause",
      "Target": "3000",
      "Value": ""
    },
    {
      "Command": "verifyElementPresent",
      "Target": "id=ctl00_ContentPlaceHolder1_tc_tabConfiguration_txtTitle",
      "Value": "*QA_test_updated"
    },
    {
      "Command": "click",
      "Target": "id=ctl00_ContentPlaceHolder1_tc_tabConfiguration_actionMenu_btnDelete",
      "Value": "Delete"
    },
    {
      "Command": "pause",
      "Target": "4000",
      "Value": ""
    },
    {
      "Command": "verifyElementPresent",
      "Target": "xpath=//center/table/tbody/tr/td[2]/span",
      "Value": "Are you sure you want to delete?[*QA_test_updated]"
    },
    {
      "Command": "click",
      "Target": "id=ctl00_ContentPlaceHolder1_DialogBox1_MessageOK",
      "Value": "Yes"
    },
    {
      "Command": "pause",
      "Target": "3000",
      "Value": ""
    },
    {
      "Command": "verifyText",
      "Target": "//div[@id='ctl00_ContentPlaceHolder1_MessageBox1_MessageAllignment']/span",
      "Value": "Layer deleted"
    },
    {
      "Command": "click",
      "Target": "id=ctl00_ContentPlaceHolder1_DialogBox1_MessageOK",
      "Value": "Ok"
    },
    {
      "Command": "pause",
      "Target": "1000",
      "Value": ""
    },
    {
      "Command": "click",
      "Target": "//a",
      "Value": ""
    },
    {
      "Command": "pause",
      "Target": "3000",
      "Value": ""
    },
    {
      "Command": "refresh",
      "Target": "",
      "Value": ""
    },
    {
      "Command": "pause",
      "Target": "1000",
      "Value": ""
    },
    {
      "Command": "open",
      "Target": "https://10.200.225.14/VSSQA/Tools/UMS.aspx",
      "Value": ""
    },
    {
      "Command": "pause",
      "Target": "1000",
      "Value": ""
    },
    {
      "Command": "type",
      "Target": "//td[2]/input",
      "Value": "qa_16"
    },
    {
      "Command": "type",
      "Target": "//tr[2]/td[2]/input",
      "Value": ".vss@2020"
    },
    {
      "Command": "click",
      "Target": "//tr[4]/td/input",
      "Value": "Log In"
    },
    {
      "Command": "pause",
      "Target": "6000",
      "Value": ""
    },
    {
      "Command": "verifyText",
      "Target": "id=ctl00_ContentPlaceHolder1__User_Map_Settings",
      "Value": "User Map Settings"
    },
    {
      "Command": "verifyText",
      "Target": "//a[@id='__tab_ctl00_ContentPlaceHolder1_tc_tabConfiguration']/span",
      "Value": "Layer Configuration"
    },
    {
      "Command": "click",
      "Target": "//a[@id='__tab_ctl00_ContentPlaceHolder1_tc_tabConfiguration']/span",
      "Value": "Layer Configuration"
    },
    {
      "Command": "pause",
      "Target": "1000",
      "Value": ""
    },
    {
      "Command": "verifyElementNotPresent",
      "Target": "xpath=(//td[text()[contains(.,'*QA_test_updated')]])[1]",
      "Value": "*QA_test_updated"
    },
    {
      "Command": "pause",
      "Target": "1000",
      "Value": ""
    },
    {
      "Command": "click",
      "Target": "//a",
      "Value": ""
    },
    {
      "Command": "pause",
      "Target": "3000",
      "Value": ""
    },
    {
      "Command": "refresh",
      "Target": "",
      "Value": ""
    },
    {
      "Command": "pause",
      "Target": "1000",
      "Value": ""
    },
    {
      "Command": "open",
      "Target": "https://10.200.225.14/VSSQA/Tools/UMS.aspx",
      "Value": ""
    },
    {
      "Command": "pause",
      "Target": "1000",
      "Value": ""
    },
    {
      "Command": "type",
      "Target": "//td[2]/input",
      "Value": "qa_11"
    },
    {
      "Command": "type",
      "Target": "//tr[2]/td[2]/input",
      "Value": ".vss@2019"
    },
    {
      "Command": "click",
      "Target": "//tr[4]/td/input",
      "Value": "Log In"
    },
    {
      "Command": "pause",
      "Target": "6000",
      "Value": ""
    },
    {
      "Command": "verifyText",
      "Target": "id=ctl00_ContentPlaceHolder1__User_Map_Settings",
      "Value": "User Map Settings"
    },
    {
      "Command": "verifyText",
      "Target": "//a[@id='__tab_ctl00_ContentPlaceHolder1_tc_tabConfiguration']/span",
      "Value": "Layer Configuration"
    },
    {
      "Command": "click",
      "Target": "//a[@id='__tab_ctl00_ContentPlaceHolder1_tc_tabConfiguration']/span",
      "Value": "Layer Configuration"
    },
    {
      "Command": "pause",
      "Target": "1000",
      "Value": ""
    },
    {
      "Command": "verifyElementNotPresent",
      "Target": "xpath=(//td[text()[contains(.,'*QA_test_updated')]])[1]",
      "Value": "*QA_test_updated"
    },
    {
      "Command": "click",
      "Target": "//a",
      "Value": ""
    },
    {
      "Command": "pause",
      "Target": "3000",
      "Value": ""
    }
  ]
}