{
  "Name": "_vqa_UMS_19_LC_OLTS_OpacityandRefresh",
  "CreationDate": "2020-4-21",
  "Commands": [
    {
      "Command": "open",
      "Target": "https://10.200.225.14/VSSQA/Tools/UMS.aspx",
      "Value": ""
    },
    {
      "Command": "pause",
      "Target": "1000",
      "Value": ""
    },
    {
      "Command": "type",
      "Target": "//td[2]/input",
      "Value": "qa10@पीएई.कॉम"
    },
    {
      "Command": "type",
      "Target": "//tr[2]/td[2]/input",
      "Value": "planet.ten@gmail.com10"
    },
    {
      "Command": "click",
      "Target": "//tr[4]/td/input",
      "Value": "Log In"
    },
    {
      "Command": "pause",
      "Target": "9000",
      "Value": ""
    },
    {
      "Command": "verifyText",
      "Target": "id=ctl00_ContentPlaceHolder1__User_Map_Settings",
      "Value": "User Map Settings"
    },
    {
      "Command": "verifyText",
      "Target": "//a[@id='__tab_ctl00_ContentPlaceHolder1_tc_tabConfiguration']/span",
      "Value": "Layer Configuration"
    },
    {
      "Command": "click",
      "Target": "//a[@id='__tab_ctl00_ContentPlaceHolder1_tc_tabConfiguration']/span",
      "Value": "Layer Configuration"
    },
    {
      "Command": "pause",
      "Target": "1000",
      "Value": ""
    },
    {
      "Command": "click",
      "Target": "//div[@id='ctl00_ContentPlaceHolder1_tc_tabConfiguration_actionMenu_divToolbar']/table/tbody/tr/td/input",
      "Value": "New"
    },
    {
      "Command": "pause",
      "Target": "4000",
      "Value": ""
    },
    {
      "Command": "type",
      "Target": "id=ctl00_ContentPlaceHolder1_tc_tabConfiguration_txtTitle",
      "Value": "*QA_test"
    },
    {
      "Command": "pause",
      "Target": "3000",
      "Value": ""
    },
    {
      "Command": "type",
      "Target": "id=ctl00_ContentPlaceHolder1_tc_tabConfiguration_txtDescription",
      "Value": "_QA test description"
    },
    {
      "Command": "pause",
      "Target": "3000",
      "Value": ""
    },
    {
      "Command": "select",
      "Target": "xpath=//td[3]/select",
      "Value": "label=Overlay Layer (Tile Server)"
    },
    {
      "Command": "pause",
      "Target": "2000",
      "Value": ""
    },
    {
      "Command": "type",
      "Target": "id=ctl00_ContentPlaceHolder1_tc_tabConfiguration_txtTileURL",
      "Value": "https://services.arcgisonline.com/arcgis/rest/services/Canvas/World_Dark_Gray_Base/MapServer/tile/"
    },
    {
      "Command": "pause",
      "Target": "2000",
      "Value": ""
    },
    {
      "Command": "click",
      "Target": "id=ctl00_ContentPlaceHolder1_tc_tabConfiguration_txtOpacity",
      "Value": ""
    },
    {
      "Command": "type",
      "Target": "id=ctl00_ContentPlaceHolder1_tc_tabConfiguration_txtOpacity",
      "Value": "30"
    },
    {
      "Command": "pause",
      "Target": "2000",
      "Value": ""
    },
    {
      "Command": "click",
      "Target": "id=ctl00_ContentPlaceHolder1_tc_tabConfiguration_txtRefresh",
      "Value": ""
    },
    {
      "Command": "type",
      "Target": "id=ctl00_ContentPlaceHolder1_tc_tabConfiguration_txtRefresh",
      "Value": "10"
    },
    {
      "Command": "pause",
      "Target": "2000",
      "Value": ""
    },
    {
      "Command": "click",
      "Target": "xpath=//td[3]/input",
      "Value": "Save"
    },
    {
      "Command": "pause",
      "Target": "2000",
      "Value": ""
    },
    {
      "Command": "verifyText",
      "Target": "//div[@id='ctl00_ContentPlaceHolder1_MessageBox1_MessageAllignment']/span",
      "Value": "Layer added"
    },
    {
      "Command": "click",
      "Target": "id=ctl00_ContentPlaceHolder1_MessageBox1_MessageOK",
      "Value": "Ok"
    },
    {
      "Command": "pause",
      "Target": "1000",
      "Value": ""
    },
    {
      "Command": "refresh",
      "Target": "",
      "Value": ""
    },
    {
      "Command": "pause",
      "Target": "1000",
      "Value": ""
    },
    {
      "Command": "verifyText",
      "Target": "//a[@id='__tab_ctl00_ContentPlaceHolder1_tc_tabConfiguration']/span",
      "Value": "Layer Configuration"
    },
    {
      "Command": "click",
      "Target": "//a[@id='__tab_ctl00_ContentPlaceHolder1_tc_tabConfiguration']/span",
      "Value": "Layer Configuration"
    },
    {
      "Command": "click",
      "Target": "xpath=(//td[text()[contains(.,'*QA_test')]])[1]",
      "Value": "*QA_test"
    },
    {
      "Command": "pause",
      "Target": "4000",
      "Value": ""
    },
    {
      "Command": "verifyElementPresent",
      "Target": "xpath=//*[@id=\"ctl00_ContentPlaceHolder1_tc_tabConfiguration_txtTitle\"]",
      "Value": "*QA_test"
    },
    {
      "Command": "verifyElementPresent",
      "Target": "xpath=//*[@id=\"ctl00_ContentPlaceHolder1_tc_tabConfiguration_txtDescription\"]",
      "Value": "_QA test description"
    },
    {
      "Command": "executeScript",
      "Target": "return document.getElementById('ctl00_ContentPlaceHolder1_tc_tabConfiguration_txtOpacity').value",
      "Value": "VarWithResult"
    },
    {
      "Command": "if_v2",
      "Target": "${VarWithResult} != '30'",
      "Value": ""
    },
    {
      "Command": "throwError",
      "Target": "opacity is not 30",
      "Value": ""
    },
    {
      "Command": "end",
      "Target": "",
      "Value": ""
    },
    {
      "Command": "pause",
      "Target": "2000",
      "Value": ""
    },
    {
      "Command": "executeScript",
      "Target": "return document.getElementById('ctl00_ContentPlaceHolder1_tc_tabConfiguration_txtRefresh').value",
      "Value": "VarWithResult"
    },
    {
      "Command": "if_v2",
      "Target": "${VarWithResult} != '10'",
      "Value": ""
    },
    {
      "Command": "throwError",
      "Target": "refresh is not 10",
      "Value": ""
    },
    {
      "Command": "end",
      "Target": "",
      "Value": ""
    },
    {
      "Command": "pause",
      "Target": "3000",
      "Value": ""
    },
    {
      "Command": "click",
      "Target": "//td[6]/input",
      "Value": "Delete"
    },
    {
      "Command": "pause",
      "Target": "4000",
      "Value": ""
    },
    {
      "Command": "verifyElementPresent",
      "Target": "id=ctl00_ContentPlaceHolder1_DialogBox1_lblMessage",
      "Value": "Are you sure you want to delete?[*QA_test]"
    },
    {
      "Command": "click",
      "Target": "id=ctl00_ContentPlaceHolder1_DialogBox1_MessageOK",
      "Value": "yes"
    },
    {
      "Command": "pause",
      "Target": "1000",
      "Value": ""
    },
    {
      "Command": "verifyText",
      "Target": "//div[@id='ctl00_ContentPlaceHolder1_MessageBox1_MessageAllignment']/span",
      "Value": "Layer deleted"
    },
    {
      "Command": "click",
      "Target": "id=ctl00_ContentPlaceHolder1_MessageBox1_MessageOK",
      "Value": "Ok"
    },
    {
      "Command": "pause",
      "Target": "1000",
      "Value": ""
    },
    {
      "Command": "click",
      "Target": "//a[contains(text(),'Logout')]",
      "Value": ""
    },
    {
      "Command": "pause",
      "Target": "3000",
      "Value": ""
    },
    {
      "Command": "refresh",
      "Target": "",
      "Value": ""
    }
  ]
}