{
  "Name": "_vqa_RA_RRL_10_search by reference_list_description",
  "CreationDate": "2020-4-21",
  "Commands": [
    {
      "Command": "open",
      "Target": "https://10.200.225.14/VSSQA",
      "Value": ""
    },
    {
      "Command": "pause",
      "Target": "1000",
      "Value": ""
    },
    {
      "Command": "type",
      "Target": "//td[2]/input",
      "Value": "QA_11"
    },
    {
      "Command": "type",
      "Target": "//tr[2]/td[2]/input",
      "Value": ".vss@2019"
    },
    {
      "Command": "click",
      "Target": "//tr[4]/td/input",
      "Value": "Log In"
    },
    {
      "Command": "pause",
      "Target": "4000",
      "Value": ""
    },
    {
      "Command": "mouseOver",
      "Target": "//div/ul/li[4]/a",
      "Value": "Risk Assessment"
    },
    {
      "Command": "click",
      "Target": "link=Manage Risk Reference Lists",
      "Value": "Manage Risk Reference Lists"
    },
    {
      "Command": "pause",
      "Target": "3000",
      "Value": ""
    },
    {
      "Command": "selectWindow",
      "Target": "TAB=1",
      "Value": ""
    },
    {
      "Command": "verifyText",
      "Target": "id=ctl00_ContentPlaceHolder1__Berth_Details",
      "Value": "Risk Reference Lists"
    },
    {
      "Command": "type",
      "Target": "id=ctl00_ContentPlaceHolder1_txtDescription",
      "Value": "z_DESCRIPTION RRL"
    },
    {
      "Command": "pause",
      "Target": "2000",
      "Value": ""
    },
    {
      "Command": "verifyText",
      "Target": "xpath=(//td[text()[contains(.,'z_DESCRIPTION RRL')]])",
      "Value": "z_DESCRIPTION RRL"
    },
    {
      "Command": "click",
      "Target": "xpath=(//td[text()[contains(.,'z_DESCRIPTION RRL')]])",
      "Value": "z_DESCRIPTION RRL"
    },
    {
      "Command": "pause",
      "Target": "2000",
      "Value": ""
    },
    {
      "Command": "verifyValue",
      "Target": "id=ctl00_ContentPlaceHolder1_txtDescription2",
      "Value": "z_DESCRIPTION RRL"
    },
    {
      "Command": "refresh",
      "Target": "",
      "Value": ""
    },
    {
      "Command": "pause",
      "Target": "1000",
      "Value": ""
    },
    {
      "Command": "select",
      "Target": "id=ctl00_ContentPlaceHolder1_ddlReference",
      "Value": "label=BIS DPL"
    },
    {
      "Command": "pause",
      "Target": "2000",
      "Value": ""
    },
    {
      "Command": "verifyText",
      "Target": "//*[@id=\"ctl00_ContentPlaceHolder1_grid\"]/tbody/tr/td[3]",
      "Value": "BIS DPL"
    },
    {
      "Command": "click",
      "Target": "//*[@id=\"ctl00_ContentPlaceHolder1_grid\"]/tbody/tr/td[3]",
      "Value": "BIS DPL"
    },
    {
      "Command": "pause",
      "Target": "2000",
      "Value": ""
    },
    {
      "Command": "verifyValue",
      "Target": "id=ctl00_ContentPlaceHolder1_ddlReference2",
      "Value": "BIS DPL"
    },
    {
      "Command": "refresh",
      "Target": "",
      "Value": ""
    },
    {
      "Command": "pause",
      "Target": "1000",
      "Value": ""
    },
    {
      "Command": "select",
      "Target": "id=ctl00_ContentPlaceHolder1_ddlListType",
      "Value": "label=Rank"
    },
    {
      "Command": "pause",
      "Target": "1000",
      "Value": ""
    },
    {
      "Command": "verifyText",
      "Target": "//*[@id=\"ctl00_ContentPlaceHolder1_grid\"]/tbody/tr/td[4]",
      "Value": "Rank"
    },
    {
      "Command": "click",
      "Target": "//*[@id=\"ctl00_ContentPlaceHolder1_grid\"]/tbody/tr/td[4]",
      "Value": "Rank"
    },
    {
      "Command": "pause",
      "Target": "2000",
      "Value": ""
    },
    {
      "Command": "verifyValue",
      "Target": "id=ctl00_ContentPlaceHolder1_ddlListType2",
      "Value": "Rank"
    },
    {
      "Command": "click",
      "Target": "//a",
      "Value": ""
    },
    {
      "Command": "pause",
      "Target": "2000",
      "Value": ""
    },
    {
      "Command": "selectWindow",
      "Target": "TAB=CLOSEALLOTHER",
      "Value": ""
    },
    {
      "Command": "refresh",
      "Target": "",
      "Value": ""
    }
  ]
}