{
  "Name": "_vqa_MR_11_Save As Procedure Rule",
  "CreationDate": "2020-4-21",
  "Commands": [
    {
      "Command": "open",
      "Target": "https://10.200.225.14/VSSQA",
      "Value": ""
    },
    {
      "Command": "pause",
      "Target": "1000",
      "Value": ""
    },
    {
      "Command": "type",
      "Target": "//td[2]/input",
      "Value": "QA_11"
    },
    {
      "Command": "type",
      "Target": "//tr[2]/td[2]/input",
      "Value": ".vss@2019"
    },
    {
      "Command": "click",
      "Target": "//tr[4]/td/input",
      "Value": "Log In"
    },
    {
      "Command": "pause",
      "Target": "6000",
      "Value": ""
    },
    {
      "Command": "mouseOver",
      "Target": "xpath=//*[@id=\"menubar\"]/ul/li[4]/a",
      "Value": "Risk Assessment"
    },
    {
      "Command": "click",
      "Target": "link=Manage Rules",
      "Value": ""
    },
    {
      "Command": "pause",
      "Target": "10000",
      "Value": ""
    },
    {
      "Command": "selectWindow",
      "Target": "tab=1",
      "Value": ""
    },
    {
      "Command": "verifyText",
      "Target": "//*[@id=\"Title\"]/label",
      "Value": "Manage Rules"
    },
    {
      "Command": "click",
      "Target": "//td[2]/input",
      "Value": ""
    },
    {
      "Command": "type",
      "Target": "//td[2]/input",
      "Value": "_Description_Procedure_"
    },
    {
      "Command": "pause",
      "Target": "2000",
      "Value": ""
    },
    {
      "Command": "verifyText",
      "Target": "//*[text()[contains(.,'_Description_Procedure_')]]",
      "Value": "_Description_Procedure_"
    },
    {
      "Command": "click",
      "Target": "//*[text()[contains(.,'_Description_Procedure_')]]",
      "Value": "_Description_Procedure_"
    },
    {
      "Command": "pause",
      "Target": "3000",
      "Value": ""
    },
    {
      "Command": "click",
      "Target": "//td[2]/img",
      "Value": "Save As"
    },
    {
      "Command": "verifyElementPresent",
      "Target": "//body/div/div/div/div/center/table/tbody/tr/td/div",
      "Value": "You have selected a column that does not appear to match the parameter name on the stored procedure. Are you sure you want to save?@ClassStatus1 - FirstCountryVisitDate@ClassSociety2 - LastCountryVisitDate@ClassStatus2 - NumberVisitsLast2Years@ClassSociety3 - NumberVisitsLast2Years@ClassStatus3 - LastCountryVisitDate"
    },
    {
      "Command": "click",
      "Target": "//table[2]/tbody/tr/td/input",
      "Value": "Yes"
    },
    {
      "Command": "pause",
      "Target": "3000",
      "Value": ""
    },
    {
      "Command": "verifyText",
      "Target": "id=lblMsg",
      "Value": "Save Successful!"
    },
    {
      "Command": "click",
      "Target": "id=btnOkPopup",
      "Value": "Ok"
    },
    {
      "Command": "pause",
      "Target": "1000",
      "Value": ""
    },
    {
      "Command": "click",
      "Target": "//a",
      "Value": ""
    },
    {
      "Command": "pause",
      "Target": "2000",
      "Value": ""
    },
    {
      "Command": "selectWindow",
      "Target": "TAB=CLOSEALLOTHER",
      "Value": ""
    },
    {
      "Command": "refresh",
      "Target": "",
      "Value": ""
    }
  ]
}