{
  "Name": "_vqa_DV_P_07_CPURDelWholeThread",
  "CreationDate": "2020-4-21",
  "Commands": [
    {
      "Command": "open",
      "Target": "https://10.200.225.14/VSSQA/DataViewers/PortDataDetails.aspx?portid=13340&A_Src=_Port_Data_Viewer",
      "Value": ""
    },
    {
      "Command": "pause",
      "Target": "1000",
      "Value": ""
    },
    {
      "Command": "type",
      "Target": "//td[2]/input",
      "Value": "qa10@पीएई.कॉम"
    },
    {
      "Command": "type",
      "Target": "//tr[2]/td[2]/input",
      "Value": "planet.ten@gmail.com10"
    },
    {
      "Command": "click",
      "Target": "//tr[4]/td/input",
      "Value": "Log In"
    },
    {
      "Command": "pause",
      "Target": "9000",
      "Value": ""
    },
    {
      "Command": "verifyText",
      "Target": "id=ctl00_ContentPlaceHolder1_lblPortName",
      "Value": "Corpus Christi "
    },
    {
      "Command": "verifyText",
      "Target": "//div[@id='ctl00_ContentPlaceHolder1_Notes1_panelAddNote']/div/span",
      "Value": "Add Note"
    },
    {
      "Command": "type",
      "Target": "//div[@id='ctl00_ContentPlaceHolder1_Notes1_panelAddNote']/table/tbody/tr/td[2]/textarea",
      "Value": "Publish_Notes_Port_Data_Viewer_page"
    },
    {
      "Command": "click",
      "Target": "//div[@id='ctl00_ContentPlaceHolder1_Notes1_panelAddNote']/table/tbody/tr[3]/td[2]/div/table/tbody/tr/td/input",
      "Value": "Save"
    },
    {
      "Command": "pause",
      "Target": "4000",
      "Value": ""
    },
    {
      "Command": "verifyText",
      "Target": "id=ctl00_ContentPlaceHolder1_Notes1_MessageBox1_lblMessage",
      "Value": "This Note has been applied."
    },
    {
      "Command": "click",
      "Target": "//div[@id='ctl00_ContentPlaceHolder1_Notes1_MessageBox1_MessagePanel']/div/center/div/input",
      "Value": "Ok"
    },
    {
      "Command": "pause",
      "Target": "2000",
      "Value": ""
    },
    {
      "Command": "refresh",
      "Target": "",
      "Value": ""
    },
    {
      "Command": "verifyElementPresent",
      "Target": "xpath=//*[@id=\"ctl00_ContentPlaceHolder1_Notes1_gridNotes\"]/table/tbody/tr[3]/td[2]/span",
      "Value": "Publish_Notes_Port_Data_Viewer_page"
    },
    {
      "Command": "click",
      "Target": "xpath=//td[5]/input",
      "Value": "Edit"
    },
    {
      "Command": "pause",
      "Target": "5000",
      "Value": ""
    },
    {
      "Command": "click",
      "Target": "id=ctl00_ContentPlaceHolder1_Notes1_editnote_1_CorePubEdit_ddlSubscriber",
      "Value": ""
    },
    {
      "Command": "select",
      "Target": "id=ctl00_ContentPlaceHolder1_Notes1_editnote_1_CorePubEdit_ddlSubscriber",
      "Value": "label=Analysts"
    },
    {
      "Command": "pause",
      "Target": "2000",
      "Value": ""
    },
    {
      "Command": "click",
      "Target": "id=ctl00_ContentPlaceHolder1_Notes1_editnote_1_CorePubEdit_imgAdd",
      "Value": "Add"
    },
    {
      "Command": "pause",
      "Target": "2000",
      "Value": ""
    },
    {
      "Command": "click",
      "Target": "id=ctl00_ContentPlaceHolder1_Notes1_editnote_1_CorePubEdit_radioSubscriberType_1",
      "Value": "User"
    },
    {
      "Command": "pause",
      "Target": "2000",
      "Value": ""
    },
    {
      "Command": "select",
      "Target": "id=ctl00_ContentPlaceHolder1_Notes1_editnote_1_CorePubEdit_ddlSubscriber",
      "Value": "label=QA_11_ Full_Name_1"
    },
    {
      "Command": "pause",
      "Target": "1000",
      "Value": ""
    },
    {
      "Command": "click",
      "Target": "id=ctl00_ContentPlaceHolder1_Notes1_editnote_1_CorePubEdit_checkEditRights",
      "Value": "Edit"
    },
    {
      "Command": "pause",
      "Target": "1000",
      "Value": ""
    },
    {
      "Command": "click",
      "Target": "id=ctl00_ContentPlaceHolder1_Notes1_editnote_1_CorePubEdit_imgAdd",
      "Value": "Add"
    },
    {
      "Command": "pause",
      "Target": "2000",
      "Value": ""
    },
    {
      "Command": "click",
      "Target": "id=ctl00_ContentPlaceHolder1_Notes1_editnote_1_btnEdit",
      "Value": "Save"
    },
    {
      "Command": "pause",
      "Target": "6000",
      "Value": ""
    },
    {
      "Command": "click",
      "Target": "//a",
      "Value": ""
    },
    {
      "Command": "pause",
      "Target": "3000",
      "Value": ""
    },
    {
      "Command": "refresh",
      "Target": "",
      "Value": ""
    },
    {
      "Command": "pause",
      "Target": "1000",
      "Value": ""
    },
    {
      "Command": "open",
      "Target": "https://10.200.225.14/VSSQA/DataViewers/PortDataDetails.aspx?portid=13340&A_Src=_Port_Data_Viewer",
      "Value": ""
    },
    {
      "Command": "pause",
      "Target": "1000",
      "Value": ""
    },
    {
      "Command": "type",
      "Target": "//td[2]/input",
      "Value": "qa_16"
    },
    {
      "Command": "type",
      "Target": "//tr[2]/td[2]/input",
      "Value": ".vss@2020"
    },
    {
      "Command": "click",
      "Target": "//tr[4]/td/input",
      "Value": "Log In"
    },
    {
      "Command": "pause",
      "Target": "9000",
      "Value": ""
    },
    {
      "Command": "verifyText",
      "Target": "id=ctl00_ContentPlaceHolder1_lblPortName",
      "Value": "Corpus Christi "
    },
    {
      "Command": "verifyText",
      "Target": "xpath=//*[@id=\"ctl00_ContentPlaceHolder1_Notes1_gridNotes\"]/table/tbody/tr[3]/td[2]/span",
      "Value": "Publish_Notes_Port_Data_Viewer_page"
    },
    {
      "Command": "click",
      "Target": "//a",
      "Value": ""
    },
    {
      "Command": "pause",
      "Target": "3000",
      "Value": ""
    },
    {
      "Command": "refresh",
      "Target": "",
      "Value": ""
    },
    {
      "Command": "pause",
      "Target": "2000",
      "Value": ""
    },
    {
      "Command": "open",
      "Target": "https://10.200.225.14/VSSQA/DataViewers/PortDataDetails.aspx?portid=13340&A_Src=_Port_Data_Viewer",
      "Value": ""
    },
    {
      "Command": "pause",
      "Target": "1000",
      "Value": ""
    },
    {
      "Command": "type",
      "Target": "//td[2]/input",
      "Value": "qa_11"
    },
    {
      "Command": "type",
      "Target": "//tr[2]/td[2]/input",
      "Value": ".vss@2019"
    },
    {
      "Command": "click",
      "Target": "//tr[4]/td/input",
      "Value": "Log In"
    },
    {
      "Command": "pause",
      "Target": "9000",
      "Value": ""
    },
    {
      "Command": "verifyText",
      "Target": "id=ctl00_ContentPlaceHolder1_lblPortName",
      "Value": "Corpus Christi "
    },
    {
      "Command": "verifyText",
      "Target": "xpath=//*[@id=\"ctl00_ContentPlaceHolder1_Notes1_gridNotes\"]/table/tbody/tr[3]/td[2]/span",
      "Value": "Publish_Notes_Port_Data_Viewer_page"
    },
    {
      "Command": "click",
      "Target": "xpath=//td[5]/input",
      "Value": "Edit"
    },
    {
      "Command": "pause",
      "Target": "2000",
      "Value": ""
    },
    {
      "Command": "type",
      "Target": "xpath=//textarea",
      "Value": "Publish_Notes_Port_Data_Viewer_page_updated"
    },
    {
      "Command": "click",
      "Target": "xpath=//td[2]/div/table/tbody/tr/td/input",
      "Value": "Save"
    },
    {
      "Command": "pause",
      "Target": "7000",
      "Value": ""
    },
    {
      "Command": "click",
      "Target": "xpath=//td[4]/input",
      "Value": "Reply"
    },
    {
      "Command": "pause",
      "Target": "2000",
      "Value": ""
    },
    {
      "Command": "type",
      "Target": "xpath=//textarea",
      "Value": "Publish_Notes_Port_Data_Viewer_page_updatedand_Replying"
    },
    {
      "Command": "pause",
      "Target": "2000",
      "Value": ""
    },
    {
      "Command": "click",
      "Target": "id=ctl00_ContentPlaceHolder1_Notes1_replynote_1_btnReply",
      "Value": "Save"
    },
    {
      "Command": "pause",
      "Target": "8000",
      "Value": ""
    },
    {
      "Command": "verifyText",
      "Target": "id=ctl00_ContentPlaceHolder1_Notes1_MessageBox1_lblMessage",
      "Value": "This Note has been applied."
    },
    {
      "Command": "click",
      "Target": "//div[@id='ctl00_ContentPlaceHolder1_Notes1_MessageBox1_MessagePanel']/div/center/div/input",
      "Value": "Ok"
    },
    {
      "Command": "pause",
      "Target": "4000",
      "Value": ""
    },
    {
      "Command": "click",
      "Target": "//a",
      "Value": ""
    },
    {
      "Command": "pause",
      "Target": "4000",
      "Value": ""
    },
    {
      "Command": "refresh",
      "Target": "",
      "Value": ""
    },
    {
      "Command": "pause",
      "Target": "1000",
      "Value": ""
    },
    {
      "Command": "open",
      "Target": "https://10.200.225.14/VSSQA/DataViewers/PortDataDetails.aspx?portid=13340&A_Src=_Port_Data_Viewer",
      "Value": ""
    },
    {
      "Command": "pause",
      "Target": "1000",
      "Value": ""
    },
    {
      "Command": "type",
      "Target": "//td[2]/input",
      "Value": "qa10@पीएई.कॉम"
    },
    {
      "Command": "type",
      "Target": "//tr[2]/td[2]/input",
      "Value": "planet.ten@gmail.com10"
    },
    {
      "Command": "click",
      "Target": "//tr[4]/td/input",
      "Value": "Log In"
    },
    {
      "Command": "pause",
      "Target": "11000",
      "Value": ""
    },
    {
      "Command": "verifyText",
      "Target": "id=ctl00_ContentPlaceHolder1_lblPortName",
      "Value": "Corpus Christi "
    },
    {
      "Command": "verifyText",
      "Target": "xpath=//*[@id=\"ctl00_ContentPlaceHolder1_Notes1_gridNotes\"]/table/tbody/tr[3]/td[2]/span",
      "Value": "Publish_Notes_Port_Data_Viewer_page_updated"
    },
    {
      "Command": "verifyText",
      "Target": "xpath=//*[@id=\"ctl00_ContentPlaceHolder1_Notes1_gridNotes\"]/table/tbody/tr[5]/td[2]/table/tbody/tr/td[1]/div/table/tbody/tr[3]/td[2]/span",
      "Value": "Publish_Notes_Port_Data_Viewer_page_updatedand_Replying"
    },
    {
      "Command": "click",
      "Target": "xpath=//td[6]/input",
      "Value": "Delete"
    },
    {
      "Command": "pause",
      "Target": "4000",
      "Value": ""
    },
    {
      "Command": "verifyText",
      "Target": "id=ctl00_ContentPlaceHolder1_Notes1_DialogBox_Delete_lblMessage",
      "Value": "This Note and its Reply threads will be deleted. Are you sure you want to proceed?"
    },
    {
      "Command": "click",
      "Target": "id=ctl00_ContentPlaceHolder1_Notes1_DialogBox_Delete_MessageOK",
      "Value": "Yes"
    },
    {
      "Command": "pause",
      "Target": "4000",
      "Value": ""
    },
    {
      "Command": "click",
      "Target": "//a",
      "Value": ""
    },
    {
      "Command": "pause",
      "Target": "3000",
      "Value": ""
    },
    {
      "Command": "refresh",
      "Target": "",
      "Value": ""
    },
    {
      "Command": "pause",
      "Target": "1000",
      "Value": ""
    },
    {
      "Command": "open",
      "Target": "https://10.200.225.14/VSSQA/DataViewers/PortDataDetails.aspx?portid=13340&A_Src=_Port_Data_Viewer",
      "Value": ""
    },
    {
      "Command": "pause",
      "Target": "1000",
      "Value": ""
    },
    {
      "Command": "type",
      "Target": "//td[2]/input",
      "Value": "qa_16"
    },
    {
      "Command": "type",
      "Target": "//tr[2]/td[2]/input",
      "Value": ".vss@2020"
    },
    {
      "Command": "click",
      "Target": "//tr[4]/td/input",
      "Value": "Log In"
    },
    {
      "Command": "pause",
      "Target": "9000",
      "Value": ""
    },
    {
      "Command": "verifyElementNotPresent",
      "Target": "xpath=//*[@id=\"ctl00_ContentPlaceHolder1_Notes1_gridNotes\"]/table/tbody/tr[3]/td[2]/span",
      "Value": "Publish_Notes_Port_Data_Viewer_page"
    },
    {
      "Command": "click",
      "Target": "//a",
      "Value": ""
    },
    {
      "Command": "pause",
      "Target": "3000",
      "Value": ""
    },
    {
      "Command": "refresh",
      "Target": "",
      "Value": ""
    },
    {
      "Command": "pause",
      "Target": "2000",
      "Value": ""
    },
    {
      "Command": "open",
      "Target": "https://10.200.225.14/VSSQA/DataViewers/PortDataDetails.aspx?portid=13340&A_Src=_Port_Data_Viewer",
      "Value": ""
    },
    {
      "Command": "pause",
      "Target": "1000",
      "Value": ""
    },
    {
      "Command": "type",
      "Target": "//td[2]/input",
      "Value": "qa_11"
    },
    {
      "Command": "type",
      "Target": "//tr[2]/td[2]/input",
      "Value": ".vss@2019"
    },
    {
      "Command": "click",
      "Target": "//tr[4]/td/input",
      "Value": "Log In"
    },
    {
      "Command": "pause",
      "Target": "9000",
      "Value": ""
    },
    {
      "Command": "verifyElementNotPresent",
      "Target": "xpath=//*[@id=\"ctl00_ContentPlaceHolder1_Notes1_gridNotes\"]/table/tbody/tr[3]/td[2]/span",
      "Value": "Publish_Notes_Port_Data_Viewer_page"
    },
    {
      "Command": "click",
      "Target": "//a",
      "Value": ""
    },
    {
      "Command": "pause",
      "Target": "4000",
      "Value": ""
    },
    {
      "Command": "refresh",
      "Target": "",
      "Value": ""
    }
  ]
}