{
  "Name": "_vqa_UL_07_Complete UL",
  "CreationDate": "2020-4-21",
  "Commands": [
    {
      "Command": "open",
      "Target": "https://10.200.225.14/VSSQA",
      "Value": ""
    },
    {
      "Command": "pause",
      "Target": "1000",
      "Value": ""
    },
    {
      "Command": "type",
      "Target": "//td[2]/input",
      "Value": "QA_11"
    },
    {
      "Command": "type",
      "Target": "//tr[2]/td[2]/input",
      "Value": ".vss@2019"
    },
    {
      "Command": "click",
      "Target": "//tr[4]/td/input",
      "Value": "Log In"
    },
    {
      "Command": "pause",
      "Target": "6000",
      "Value": ""
    },
    {
      "Command": "mouseOver",
      "Target": "//div[@id='menubar']/ul/li[6]/a",
      "Value": "Tools"
    },
    {
      "Command": "click",
      "Target": "link=User Lists",
      "Value": "User Lists"
    },
    {
      "Command": "pause",
      "Target": "9000",
      "Value": ""
    },
    {
      "Command": "selectWindow",
      "Target": "tab=1",
      "Value": ""
    },
    {
      "Command": "verifyText",
      "Target": "//div/div/label",
      "Value": "User Lists"
    },
    {
      "Command": "click",
      "Target": "css=img.HeaderImage",
      "Value": ""
    },
    {
      "Command": "click",
      "Target": "xpath=//tr[2]/td[2]/input",
      "Value": ""
    },
    {
      "Command": "type",
      "Target": "xpath=//tr[2]/td[2]/input",
      "Value": "List values description"
    },
    {
      "Command": "type",
      "Target": "//tr[2]/td/input",
      "Value": "List values1"
    },
    {
      "Command": "pause",
      "Target": "1000",
      "Value": ""
    },
    {
      "Command": "comment",
      "Target": "//fieldset[@id='fieldset_body_detail']/table/tbody/tr/td/table/tbody/tr[2]/td[2]/textarea",
      "Value": ""
    },
    {
      "Command": "click",
      "Target": "//fieldset[@id='fieldset_body_detail']/table/tbody/tr/td/table/tbody/tr[2]/td[2]/textarea",
      "Value": ""
    },
    {
      "Command": "type",
      "Target": "//fieldset[@id='fieldset_body_detail']/table/tbody/tr/td/table/tbody/tr[2]/td[2]/textarea",
      "Value": "Description_text_test123"
    },
    {
      "Command": "type",
      "Target": "//fieldset[@id='fieldset_body_detail']/table/tbody/tr/td/table/tbody/tr/td[2]/input",
      "Value": "1UL_Title_complete"
    },
    {
      "Command": "click",
      "Target": "xpath=//img[@title='Save']",
      "Value": "save"
    },
    {
      "Command": "pause",
      "Target": "2000",
      "Value": ""
    },
    {
      "Command": "verifyText",
      "Target": "//div[@id='MessagePanel']/div/center/table/tbody/tr/td[2]/div/span",
      "Value": "Save Successful!"
    },
    {
      "Command": "click",
      "Target": "//div[2]/div/div/center/div/input",
      "Value": "Ok"
    },
    {
      "Command": "pause",
      "Target": "2000",
      "Value": ""
    },
    {
      "Command": "refresh",
      "Target": "",
      "Value": ""
    },
    {
      "Command": "pause",
      "Target": "1000",
      "Value": ""
    },
    {
      "Command": "click",
      "Target": "//div[@id='DivTitle']/table/tbody/tr/td[2]/input",
      "Value": ""
    },
    {
      "Command": "type",
      "Target": "//div[@id='DivTitle']/table/tbody/tr/td[2]/input",
      "Value": "1UL_Title_complete"
    },
    {
      "Command": "pause",
      "Target": "1000",
      "Value": ""
    },
    {
      "Command": "verifyText",
      "Target": "//*[text()[contains(.,'1UL_Title_complete')]]",
      "Value": "1UL_Title_complete"
    },
    {
      "Command": "click",
      "Target": "//*[text()[contains(.,'1UL_Title_complete')]]",
      "Value": "1UL_Title_complete"
    },
    {
      "Command": "pause",
      "Target": "1000",
      "Value": ""
    },
    {
      "Command": "verifyElementPresent",
      "Target": "//fieldset[@id='fieldset_body_detail']/table/tbody/tr/td/table/tbody/tr/td[2]/input",
      "Value": "1UL_Title_complete"
    },
    {
      "Command": "click",
      "Target": "//fieldset[@id='fieldset_body_detail']/legend/div/table/tbody/tr/td[2]/img",
      "Value": "Save As"
    },
    {
      "Command": "pause",
      "Target": "4000",
      "Value": ""
    },
    {
      "Command": "verifyText",
      "Target": "//div[@id='MessagePanel']/div/center/table/tbody/tr/td[2]/div/span",
      "Value": "Save Successful!"
    },
    {
      "Command": "click",
      "Target": "//div[2]/div/div/center/div/input",
      "Value": "Ok"
    },
    {
      "Command": "pause",
      "Target": "1000",
      "Value": ""
    },
    {
      "Command": "refresh",
      "Target": "",
      "Value": ""
    },
    {
      "Command": "pause",
      "Target": "1000",
      "Value": ""
    },
    {
      "Command": "type",
      "Target": "//div[@id='DivTitle']/table/tbody/tr/td[2]/input",
      "Value": "UL_Title_complete (1)"
    },
    {
      "Command": "pause",
      "Target": "1000",
      "Value": ""
    },
    {
      "Command": "verifyText",
      "Target": "//*[text()[contains(.,'1UL_Title_complete (1)')]]",
      "Value": "1UL_Title_complete (1)"
    },
    {
      "Command": "click",
      "Target": "//*[text()[contains(.,'1UL_Title_complete (1)')]]",
      "Value": "1UL_Title_complete (1)"
    },
    {
      "Command": "pause",
      "Target": "1000",
      "Value": ""
    },
    {
      "Command": "verifyElementPresent",
      "Target": "//fieldset[@id='fieldset_body_detail']/table/tbody/tr/td/table/tbody/tr/td[2]/input",
      "Value": "1UL_Title_complete (1)"
    },
    {
      "Command": "click",
      "Target": "//fieldset[@id='fieldset_body_detail']/legend/div/table/tbody/tr/td[4]/img",
      "Value": "Delete"
    },
    {
      "Command": "pause",
      "Target": "2000",
      "Value": ""
    },
    {
      "Command": "verifyText",
      "Target": "//div[@id='MessagePanel']/div/center/table/tbody/tr/td[2]/div",
      "Value": "Are you sure you want to delete?"
    },
    {
      "Command": "click",
      "Target": "//div[2]/div/div/center/div/input",
      "Value": "Yes"
    },
    {
      "Command": "pause",
      "Target": "2000",
      "Value": ""
    },
    {
      "Command": "verifyText",
      "Target": "//div[@id='MessagePanel']/div/center/table/tbody/tr/td[2]/div/span",
      "Value": "Delete Successful!"
    },
    {
      "Command": "click",
      "Target": "//div[2]/div/div/center/div/input",
      "Value": "Ok"
    },
    {
      "Command": "pause",
      "Target": "1000",
      "Value": ""
    },
    {
      "Command": "refresh",
      "Target": "",
      "Value": ""
    },
    {
      "Command": "pause",
      "Target": "1000",
      "Value": ""
    },
    {
      "Command": "type",
      "Target": "//div[@id='DivTitle']/table/tbody/tr/td[2]/input",
      "Value": "1UL_Title_complete"
    },
    {
      "Command": "pause",
      "Target": "1000",
      "Value": ""
    },
    {
      "Command": "verifyText",
      "Target": "//*[text()[contains(.,'1UL_Title_complete')]]",
      "Value": "1UL_Title_complete"
    },
    {
      "Command": "click",
      "Target": "//*[text()[contains(.,'1UL_Title_complete')]]",
      "Value": "1UL_Title_complete"
    },
    {
      "Command": "pause",
      "Target": "2000",
      "Value": ""
    },
    {
      "Command": "verifyElementPresent",
      "Target": "//fieldset[@id='fieldset_body_detail']/table/tbody/tr/td/table/tbody/tr/td[2]/input",
      "Value": "1UL_Title_complete"
    },
    {
      "Command": "type",
      "Target": "//tr[3]/td/input",
      "Value": "List values2"
    },
    {
      "Command": "click",
      "Target": "//fieldset[@id='fieldset_body_detail']/table/tbody/tr/td/table/tbody/tr/td[2]/input",
      "Value": ""
    },
    {
      "Command": "type",
      "Target": "//fieldset[@id='fieldset_body_detail']/table/tbody/tr/td/table/tbody/tr/td[2]/input",
      "Value": "1UL_Title_complete_updated"
    },
    {
      "Command": "type",
      "Target": "//fieldset[@id='fieldset_body_detail']/table/tbody/tr/td/table/tbody/tr[2]/td[2]/textarea",
      "Value": "Description_text_test123_updated"
    },
    {
      "Command": "click",
      "Target": "//fieldset[@id='fieldset_body_detail']/legend/div/table/tbody/tr/td/img",
      "Value": "Save"
    },
    {
      "Command": "pause",
      "Target": "2000",
      "Value": ""
    },
    {
      "Command": "verifyText",
      "Target": "//div[@id='MessagePanel']/div/center/table/tbody/tr/td[2]/div/span",
      "Value": "Save Successful!"
    },
    {
      "Command": "click",
      "Target": "//div[2]/div/div/center/div/input",
      "Value": "Ok"
    },
    {
      "Command": "refresh",
      "Target": "",
      "Value": ""
    },
    {
      "Command": "pause",
      "Target": "1000",
      "Value": ""
    },
    {
      "Command": "type",
      "Target": "//div[@id='DivTitle']/table/tbody/tr/td[2]/input",
      "Value": "1UL_Title_complete_updated"
    },
    {
      "Command": "pause",
      "Target": "1000",
      "Value": ""
    },
    {
      "Command": "verifyText",
      "Target": "//*[text()[contains(.,'1UL_Title_complete_updated')]]",
      "Value": "1UL_Title_complete_updated"
    },
    {
      "Command": "click",
      "Target": "//*[text()[contains(.,'1UL_Title_complete_updated')]]",
      "Value": "1UL_Title_complete_updated"
    },
    {
      "Command": "pause",
      "Target": "1000",
      "Value": ""
    },
    {
      "Command": "verifyElementPresent",
      "Target": "//fieldset[@id='fieldset_body_detail']/table/tbody/tr/td/table/tbody/tr/td[2]/input",
      "Value": "1UL_Title_complete_updated"
    },
    {
      "Command": "click",
      "Target": "//fieldset[@id='fieldset_body_detail']/legend/div/table/tbody/tr/td[4]/img",
      "Value": "Delete"
    },
    {
      "Command": "pause",
      "Target": "2000",
      "Value": ""
    },
    {
      "Command": "verifyText",
      "Target": "//div[@id='MessagePanel']/div/center/table/tbody/tr/td[2]/div",
      "Value": "Are you sure you want to delete?"
    },
    {
      "Command": "click",
      "Target": "//div[2]/div/div/center/div/input",
      "Value": "Yes"
    },
    {
      "Command": "pause",
      "Target": "1000",
      "Value": ""
    },
    {
      "Command": "verifyText",
      "Target": "//div[@id='MessagePanel']/div/center/table/tbody/tr/td[2]/div/span",
      "Value": "Delete Successful!"
    },
    {
      "Command": "click",
      "Target": "//div[2]/div/div/center/div/input",
      "Value": "Ok"
    },
    {
      "Command": "pause",
      "Target": "1000",
      "Value": ""
    },
    {
      "Command": "click",
      "Target": "//a[contains(text(),'Logout')]",
      "Value": ""
    },
    {
      "Command": "pause",
      "Target": "4000",
      "Value": ""
    },
    {
      "Command": "selectWindow",
      "Target": "TAB=CLOSEALLOTHER",
      "Value": ""
    },
    {
      "Command": "refresh",
      "Target": "",
      "Value": ""
    }
  ]
}