{
  "Name": "_vqa_VD_42_OH_Vessel Timeline",
  "CreationDate": "2020-4-21",
  "Commands": [
    {
      "Command": "open",
      "Target": "https://10.200.225.14/VSSQA/Vessels/VesselDetails.aspx?imo=1000124&A_Src=_Vessel_Data_Viewer",
      "Value": ""
    },
    {
      "Command": "pause",
      "Target": "1000",
      "Value": ""
    },
    {
      "Command": "type",
      "Target": "//td[2]/input",
      "Value": "QA_11"
    },
    {
      "Command": "type",
      "Target": "//tr[2]/td[2]/input",
      "Value": ".vss@2019"
    },
    {
      "Command": "click",
      "Target": "//tr[4]/td/input",
      "Value": "Log In"
    },
    {
      "Command": "pause",
      "Target": "9000",
      "Value": ""
    },
    {
      "Command": "comment",
      "Target": "id=ctl00_ContentPlaceHolder1_OtherHistory1__Other_History",
      "Value": "Other History"
    },
    {
      "Command": "comment",
      "Target": "//tr[6]/td/fieldset/div/div/span/span/span/a/span",
      "Value": "Vessel Timeline"
    },
    {
      "Command": "comment",
      "Target": "//tr[6]/td/fieldset/div/div/span/span/span/a/span",
      "Value": "Vessel Timeline"
    },
    {
      "Command": "pause",
      "Target": "3000",
      "Value": ""
    },
    {
      "Command": "comment",
      "Target": "id=ctl00_ContentPlaceHolder1_OtherHistory1_TabContainer1_tpVesselTimeline_Timeline_Label16",
      "Value": "Vessel Timeline Filter"
    },
    {
      "Command": "comment",
      "Target": "xpath=//*[@id=\"ctl00_ContentPlaceHolder1_OtherHistory1_TabContainer1_tpVesselTimeline_Timeline_EventHistoryPanel\"]/fieldset[1]/legend",
      "Value": "Time Period"
    },
    {
      "Command": "comment",
      "Target": "xpath=//*[@id=\"ctl00_ContentPlaceHolder1_OtherHistory1_TabContainer1_tpVesselTimeline_Timeline_rblTimePeriod\"]/tbody/tr/td[1]/label",
      "Value": "All"
    },
    {
      "Command": "comment",
      "Target": "xpath=//*[@id=\"ctl00_ContentPlaceHolder1_OtherHistory1_TabContainer1_tpVesselTimeline_Timeline_rblTimePeriod\"]/tbody/tr/td[2]/label",
      "Value": "Relative"
    },
    {
      "Command": "comment",
      "Target": "xpath=//*[@id=\"ctl00_ContentPlaceHolder1_OtherHistory1_TabContainer1_tpVesselTimeline_Timeline_rblTimePeriod\"]/tbody/tr/td[3]",
      "Value": "Date Range"
    },
    {
      "Command": "comment",
      "Target": "xpath=//*[@id=\"ctl00_ContentPlaceHolder1_OtherHistory1_TabContainer1_tpVesselTimeline_Timeline_EventHistoryPanel\"]/fieldset[2]/legend",
      "Value": "Activity Type"
    },
    {
      "Command": "comment",
      "Target": "link=Administrative",
      "Value": "Administrative"
    },
    {
      "Command": "comment",
      "Target": "xpath=//*[@id=\"ctl00_ContentPlaceHolder1_OtherHistory1_TabContainer1_tpVesselTimeline_Timeline_treeTimeLineTypen0\"]/img",
      "Value": "Administrative"
    },
    {
      "Command": "comment",
      "Target": "xpath=//*[@id=\"ctl00_ContentPlaceHolder1_OtherHistory1_TabContainer1_tpVesselTimeline_Timeline_treeTimeLineTypet1\"]",
      "Value": "Construction"
    },
    {
      "Command": "comment",
      "Target": "link=Entity Changes",
      "Value": "Entity Changes"
    },
    {
      "Command": "comment",
      "Target": "link=Sales",
      "Value": "Sales"
    },
    {
      "Command": "comment",
      "Target": "link=Vessel Status",
      "Value": "Vessel Status"
    },
    {
      "Command": "comment",
      "Target": "link=Vessel Type",
      "Value": "Vessel Type"
    },
    {
      "Command": "comment",
      "Target": "link=Classification Society",
      "Value": "Classification Society"
    },
    {
      "Command": "comment",
      "Target": "link=Flag Changes",
      "Value": "Flag Changes"
    },
    {
      "Command": "comment",
      "Target": "link=Identifier Changes",
      "Value": "Identifier Changes"
    },
    {
      "Command": "comment",
      "Target": "link=Vessel Movements",
      "Value": "Vessel Movements"
    },
    {
      "Command": "comment",
      "Target": "xpath=//*[@id=\"ctl00_ContentPlaceHolder1_OtherHistory1_TabContainer1_tpVesselTimeline_Timeline_treeTimeLineTypen9\"]/img",
      "Value": ""
    },
    {
      "Command": "comment",
      "Target": "link=In Port",
      "Value": "In Port"
    },
    {
      "Command": "comment",
      "Target": "link=Port",
      "Value": "Port"
    },
    {
      "Command": "comment",
      "Target": "link=Transit Strait/Canal",
      "Value": "Transit Strait/Canal"
    },
    {
      "Command": "comment",
      "Target": "link=Exclusive Economic Zone",
      "Value": "Exclusive Economic Zone"
    },
    {
      "Command": "comment",
      "Target": "link=Vessel Activity and Inspections",
      "Value": "Vessel Activity and Inspections"
    },
    {
      "Command": "comment",
      "Target": "xpath=//*[@id=\"ctl00_ContentPlaceHolder1_OtherHistory1_TabContainer1_tpVesselTimeline_Timeline_treeTimeLineTypen14\"]/img",
      "Value": ""
    },
    {
      "Command": "comment",
      "Target": "link=Dark Activity@POS=2",
      "Value": "Dark Activity"
    },
    {
      "Command": "comment",
      "Target": "link=Casualties",
      "Value": "Casualties"
    },
    {
      "Command": "comment",
      "Target": "link=Port Inspections@POS=2",
      "Value": "Port Inspections"
    },
    {
      "Command": "comment",
      "Target": "link=Vessel Events",
      "Value": "Vessel Events"
    },
    {
      "Command": "comment",
      "Target": "link=Anomalies@POS=2",
      "Value": "Anomalies"
    },
    {
      "Command": "comment",
      "Target": "xpath=//*[@id=\"ctl00_ContentPlaceHolder1_OtherHistory1_TabContainer1_tpVesselTimeline_Timeline_treeTimeLineTypen19\"]/img",
      "Value": ""
    },
    {
      "Command": "comment",
      "Target": "link=Unexplained High Speed",
      "Value": "Unexplained High Speed"
    },
    {
      "Command": "comment",
      "Target": "link=Unexplained Low Speed",
      "Value": "Unexplained Low Speed"
    },
    {
      "Command": "comment",
      "Target": "link=Loitering",
      "Value": "Loitering"
    },
    {
      "Command": "comment",
      "Target": "link=Outside Shipping Lane",
      "Value": "Outside Shipping Lane"
    },
    {
      "Command": "comment",
      "Target": "link=Rendezvous",
      "Value": "Rendezvous"
    },
    {
      "Command": "comment",
      "Target": "link=Infringing on a Closed Zone",
      "Value": "Infringing on a Closed Zone"
    },
    {
      "Command": "comment",
      "Target": "link=Spoofing",
      "Value": "Spoofing"
    },
    {
      "Command": "comment",
      "Target": "link=Significant Change of State",
      "Value": "Significant Change of State"
    },
    {
      "Command": "comment",
      "Target": "link=Not Heading to Port",
      "Value": "Not Heading to Port"
    },
    {
      "Command": "comment",
      "Target": "link=Zone Mismatch to Activity",
      "Value": "Zone Mismatch to Activity"
    },
    {
      "Command": "comment",
      "Target": "link=Track Ends",
      "Value": "Track Ends"
    },
    {
      "Command": "comment",
      "Target": "link=Irregular Track Summary",
      "Value": "Irregular Track Summary"
    },
    {
      "Command": "comment",
      "Target": "link=Doppelganger Detection",
      "Value": "Doppelganger Detection"
    },
    {
      "Command": "comment",
      "Target": "link=Infringing on a Coast Line",
      "Value": "Infringing on a Coast Line"
    },
    {
      "Command": "comment",
      "Target": "link=AIS OFF",
      "Value": "AIS OFF"
    },
    {
      "Command": "comment",
      "Target": "link=Analytical Events",
      "Value": "Analytical Events"
    },
    {
      "Command": "comment",
      "Target": "xpath=//*[@id=\"ctl00_ContentPlaceHolder1_OtherHistory1_TabContainer1_tpVesselTimeline_Timeline_treeTimeLineTypen35\"]/img",
      "Value": ""
    },
    {
      "Command": "comment",
      "Target": "xpath=//*[@id=\"ctl00_ContentPlaceHolder1_OtherHistory1_TabContainer1_tpVesselTimeline_Timeline_treeTimeLineTypen35Nodes\"]/table[1]/tbody/tr/td[3]",
      "Value": "Alert History"
    },
    {
      "Command": "comment",
      "Target": "link=Risk History",
      "Value": "Risk History"
    },
    {
      "Command": "comment",
      "Target": "link=Workflow History",
      "Value": "Workflow History"
    },
    {
      "Command": "comment",
      "Target": "link=Notes",
      "Value": "Notes"
    },
    {
      "Command": "comment",
      "Target": "link=Documents and Images",
      "Value": "Documents and Images"
    },
    {
      "Command": "comment",
      "Target": "id=ctl00_ContentPlaceHolder1_OtherHistory1_TabContainer1_tpVesselTimeline_Timeline_btnClearMovermentFilters",
      "Value": "Reset"
    },
    {
      "Command": "comment",
      "Target": "id=ctl00_ContentPlaceHolder1_OtherHistory1_TabContainer1_tpVesselTimeline_Timeline_btnApplyMovermentFilters",
      "Value": "Apply"
    },
    {
      "Command": "comment",
      "Target": "xpath=//*[@id=\"ctl00_ContentPlaceHolder1_OtherHistory1_TabContainer1_tpVesselTimeline_Timeline_rblTimePeriod\"]/tbody/tr/td[2]/label",
      "Value": "Relative"
    },
    {
      "Command": "comment",
      "Target": "id=ctl00_ContentPlaceHolder1_OtherHistory1_TabContainer1_tpVesselTimeline_Timeline__Last",
      "Value": "Last"
    },
    {
      "Command": "comment",
      "Target": "id=ctl00_ContentPlaceHolder1_OtherHistory1_TabContainer1_tpVesselTimeline_Timeline_dropDownListOffsetUnits",
      "Value": "label=Years"
    },
    {
      "Command": "comment",
      "Target": "id=ctl00_ContentPlaceHolder1_OtherHistory1_TabContainer1_tpVesselTimeline_Timeline_txtLast",
      "Value": "2"
    },
    {
      "Command": "comment",
      "Target": "id=ctl00_ContentPlaceHolder1_OtherHistory1_TabContainer1_tpVesselTimeline_Timeline_btnApplyMovermentFilters",
      "Value": "Apply"
    },
    {
      "Command": "pause",
      "Target": "9000",
      "Value": ""
    },
    {
      "Command": "comment",
      "Target": "link=Date",
      "Value": "Date"
    },
    {
      "Command": "comment",
      "Target": "xpath=//*[@id=\"ctl00_ContentPlaceHolder1_OtherHistory1_TabContainer1_tpVesselTimeline_Timeline_grid\"]/tbody/tr[2]/td[1]",
      "Value": "08/03/2019"
    },
    {
      "Command": "comment",
      "Target": "link=Event",
      "Value": "\tEvent"
    },
    {
      "Command": "comment",
      "Target": "xpath=//*[@id=\"ctl00_ContentPlaceHolder1_OtherHistory1_TabContainer1_tpVesselTimeline_Timeline_grid\"]/tbody/tr[2]/td[2]",
      "Value": "Port"
    },
    {
      "Command": "comment",
      "Target": "link=Description",
      "Value": "\tDescription"
    },
    {
      "Command": "comment",
      "Target": "xpath=//*[@id=\"ctl00_ContentPlaceHolder1_OtherHistory1_TabContainer1_tpVesselTimeline_Timeline_grid\"]/tbody/tr[2]/td[3]",
      "Value": "Exited port from Mykonos in Greece."
    },
    {
      "Command": "comment",
      "Target": "xpath=//*[@id=\"ctl00_ContentPlaceHolder1_OtherHistory1_TabContainer1_tpVesselTimeline_Timeline_grid\"]/tbody/tr[17]/td/table/tbody/tr/td[2]",
      "Value": "Displaying Records 1 - 15  Of  21"
    },
    {
      "Command": "click",
      "Target": "//a[contains(text(),'Logout')]",
      "Value": ""
    },
    {
      "Command": "pause",
      "Target": "3000",
      "Value": ""
    },
    {
      "Command": "refresh",
      "Target": "",
      "Value": ""
    }
  ]
}