{
  "Name": "_vqa_MISC04_TUS_User Settings",
  "CreationDate": "2020-4-21",
  "Commands": [
    {
      "Command": "open",
      "Target": "https://10.200.225.14/VSSQA",
      "Value": ""
    },
    {
      "Command": "pause",
      "Target": "1000",
      "Value": ""
    },
    {
      "Command": "type",
      "Target": "//td[2]/input",
      "Value": "QA_11"
    },
    {
      "Command": "type",
      "Target": "//tr[2]/td[2]/input",
      "Value": ".vss@2019"
    },
    {
      "Command": "click",
      "Target": "//tr[4]/td/input",
      "Value": "Log In"
    },
    {
      "Command": "pause",
      "Target": "12000",
      "Value": ""
    },
    {
      "Command": "mouseOver",
      "Target": "//li[6]/a",
      "Value": "Tools"
    },
    {
      "Command": "verifyText",
      "Target": "xpath=//a[contains(text(),'User Settings')]",
      "Value": "User Settings"
    },
    {
      "Command": "click",
      "Target": "xpath=//a[contains(text(),'User Settings')]",
      "Value": "User Settings"
    },
    {
      "Command": "pause",
      "Target": "3000",
      "Value": ""
    },
    {
      "Command": "selectWindow",
      "Target": "tab=1",
      "Value": ""
    },
    {
      "Command": "verifyTitle",
      "Target": "User Settings",
      "Value": ""
    },
    {
      "Command": "verifyText",
      "Target": "id=ctl00_ContentPlaceHolder1_UserNameLabel",
      "Value": "QA_11"
    },
    {
      "Command": "verifyText",
      "Target": "//tr[2]/td/fieldset/legend/label",
      "Value": "Change Localization"
    },
    {
      "Command": "verifyText",
      "Target": "//tr[3]/td/fieldset/legend/label",
      "Value": "Change Default Team"
    },
    {
      "Command": "verifyText",
      "Target": "//td[2]/table/tbody/tr/td/fieldset/legend/label",
      "Value": "Change Password"
    },
    {
      "Command": "verifyText",
      "Target": "//td[2]/table/tbody/tr[2]/td/fieldset/legend/label",
      "Value": "Default Start Page"
    },
    {
      "Command": "verifyText",
      "Target": "//td[2]/table/tbody/tr[3]/td/fieldset/legend/label",
      "Value": "Dashboard Options"
    },
    {
      "Command": "verifyText",
      "Target": "xpath=//*[@id=\"ctl00_ContentPlaceHolder1_trDashboardOptions\"]/td/fieldset/table/tbody/tr[1]/td[1]",
      "Value": "Overview Panel Refresh Frequency (Minutes):\t"
    },
    {
      "Command": "verifyElementPresent",
      "Target": "xpath=//*[@id=\"ctl00_ContentPlaceHolder1_txtAutoRefresh\"]",
      "Value": "30"
    },
    {
      "Command": "comment",
      "Target": "xpath=//*[@id=\"ctl00_ContentPlaceHolder1_trDashboardSession\"]/td[1]",
      "Value": "Keep Dashboard Session Alive:\t"
    },
    {
      "Command": "verifyText",
      "Target": "id=ctl00_ContentPlaceHolder1_Label1",
      "Value": "Map Settings"
    },
    {
      "Command": "verifyText",
      "Target": "//td[2]/a",
      "Value": "Manage My Maps"
    },
    {
      "Command": "verifyText",
      "Target": "id=ctl00_ContentPlaceHolder1_lbl_Roles",
      "Value": "Roles"
    },
    {
      "Command": "verifyText",
      "Target": "//*[@id=\"ctl00_ContentPlaceHolder1_tableRoles\"]/tbody/tr[1]/td/span",
      "Value": "Administrator"
    },
    {
      "Command": "verifyText",
      "Target": "id=ctl00_ContentPlaceHolder1_lbl_Notifications",
      "Value": "Published Asset Notifications"
    },
    {
      "Command": "verifyText",
      "Target": "//*[@id=\"ctl00_ContentPlaceHolder1_gridNotifications\"]/tbody/tr[1]/th[2]",
      "Value": "Published Asset Notification"
    },
    {
      "Command": "verifyText",
      "Target": "//div/table/tbody/tr/th[3]",
      "Value": "Inbox"
    },
    {
      "Command": "verifyText",
      "Target": "//th[4]",
      "Value": "E-mail"
    },
    {
      "Command": "verifyText",
      "Target": "//div/fieldset/legend/span",
      "Value": "Register for Product Bulletins"
    },
    {
      "Command": "verifyText",
      "Target": "//th/span",
      "Value": "Name"
    },
    {
      "Command": "verifyText",
      "Target": "//th[2]/span",
      "Value": "E-mail Address"
    },
    {
      "Command": "select",
      "Target": "id=ctl00_ContentPlaceHolder1_UrlList",
      "Value": "label=Vessels Data Viewer"
    },
    {
      "Command": "clickAndWait",
      "Target": "id=btnSave",
      "Value": ""
    },
    {
      "Command": "verifyText",
      "Target": "id=ctl00_ContentPlaceHolder1_MessageBox1_lblMessage",
      "Value": "Save Successful!"
    },
    {
      "Command": "click",
      "Target": "id=ctl00_ContentPlaceHolder1_MessageBox1_MessageOK",
      "Value": "Ok"
    },
    {
      "Command": "click",
      "Target": "//a",
      "Value": ""
    },
    {
      "Command": "pause",
      "Target": "2000",
      "Value": ""
    },
    {
      "Command": "selectWindow",
      "Target": "TAB=CLOSEALLOTHER",
      "Value": ""
    },
    {
      "Command": "refresh",
      "Target": "",
      "Value": ""
    }
  ]
}