{
  "Name": "_vqa_VD_08_D_E_V_MI_Company_Documents_PublishDataDeleteAndTryToSee",
  "CreationDate": "2020-4-21",
  "Commands": [
    {
      "Command": "open",
      "Target": "https://10.200.225.14/VSSQA/Vessels/MoreInfo.aspx?id=4252057&type=s&A_Src=_Vessel_Details",
      "Value": ""
    },
    {
      "Command": "pause",
      "Target": "1000",
      "Value": ""
    },
    {
      "Command": "type",
      "Target": "//td[2]/input",
      "Value": "qa10@पीएई.कॉम"
    },
    {
      "Command": "type",
      "Target": "//tr[2]/td[2]/input",
      "Value": "planet.ten@gmail.com10"
    },
    {
      "Command": "click",
      "Target": "//tr[4]/td/input",
      "Value": "Log In"
    },
    {
      "Command": "pause",
      "Target": "14000",
      "Value": ""
    },
    {
      "Command": "verifyText",
      "Target": "linkText=Manage Documents",
      "Value": "Manage Documents"
    },
    {
      "Command": "click",
      "Target": "linkText=Manage Documents",
      "Value": "Manage Documents"
    },
    {
      "Command": "pause",
      "Target": "5000",
      "Value": ""
    },
    {
      "Command": "selectWindow",
      "Target": "TAB=1",
      "Value": ""
    },
    {
      "Command": "verifyText",
      "Target": "id=Title",
      "Value": "Company Document Manager: DORIS MCPY"
    },
    {
      "Command": "verifyText",
      "Target": "//*[text()[contains(.,'New_DM_for_Publish_Description_updated')]]",
      "Value": "New_DM_for_Publish_Description_updated"
    },
    {
      "Command": "click",
      "Target": "//*[text()[contains(.,'New_DM_for_Publish_Description')]]",
      "Value": "New_DM_for_Publish_Description"
    },
    {
      "Command": "pause",
      "Target": "3000",
      "Value": ""
    },
    {
      "Command": "verifyElementPresent",
      "Target": "//div[@id='ctl00_ContentPlaceHolder1_ctl00_panelControls']/table/tbody/tr[2]/td[3]/textarea",
      "Value": "New_DM_for_Publish_Description"
    },
    {
      "Command": "click",
      "Target": "id=ctl00_ContentPlaceHolder1_ctl00_actionMenu_btnDelete",
      "Value": "Delete"
    },
    {
      "Command": "pause",
      "Target": "4000",
      "Value": ""
    },
    {
      "Command": "verifyText",
      "Target": "xpath=//center/table/tbody/tr/td[2]/span",
      "Value": "Are you sure you want to delete?\\n[*NewCompany_DM_for_Publish]"
    },
    {
      "Command": "click",
      "Target": "id=ctl00_ContentPlaceHolder1_ctl00_DialogBoxDelete_MessageOK",
      "Value": "Yes"
    },
    {
      "Command": "pause",
      "Target": "4000",
      "Value": ""
    },
    {
      "Command": "verifyText",
      "Target": "//div[@id='ctl00_ContentPlaceHolder1_ctl00_MessageBox1_MessageAllignment']/span",
      "Value": "Delete Successful!"
    },
    {
      "Command": "click",
      "Target": "//div[@id='ctl00_ContentPlaceHolder1_ctl00_MessageBox1_MessagePanel']/div/center/div/input",
      "Value": "Ok"
    },
    {
      "Command": "pause",
      "Target": "2000",
      "Value": ""
    },
    {
      "Command": "click",
      "Target": "//a",
      "Value": ""
    },
    {
      "Command": "pause",
      "Target": "3000",
      "Value": ""
    },
    {
      "Command": "selectWindow",
      "Target": "TAB=CLOSEALLOTHER",
      "Value": ""
    },
    {
      "Command": "refresh",
      "Target": "",
      "Value": ""
    },
    {
      "Command": "pause",
      "Target": "1000",
      "Value": ""
    },
    {
      "Command": "open",
      "Target": "https://10.200.225.14/VSSQA/Vessels/MoreInfo.aspx?id=4252057&type=s&A_Src=_Vessel_Details",
      "Value": ""
    },
    {
      "Command": "pause",
      "Target": "1000",
      "Value": ""
    },
    {
      "Command": "type",
      "Target": "//td[2]/input",
      "Value": "qa_16"
    },
    {
      "Command": "type",
      "Target": "//tr[2]/td[2]/input",
      "Value": ".vss@2020"
    },
    {
      "Command": "click",
      "Target": "//tr[4]/td/input",
      "Value": "Log In"
    },
    {
      "Command": "pause",
      "Target": "9000",
      "Value": ""
    },
    {
      "Command": "verifyElementNotPresent",
      "Target": "xpath=(//label[text()='New_DM_for_Publish_Description'])",
      "Value": "New_DM_for_Publish_Description"
    },
    {
      "Command": "click",
      "Target": "//a",
      "Value": ""
    },
    {
      "Command": "pause",
      "Target": "3000",
      "Value": ""
    },
    {
      "Command": "refresh",
      "Target": "",
      "Value": ""
    },
    {
      "Command": "pause",
      "Target": "1000",
      "Value": ""
    },
    {
      "Command": "open",
      "Target": "https://10.200.225.14/VSSQA/Vessels/MoreInfo.aspx?id=4252057&type=s&A_Src=_Vessel_Details",
      "Value": ""
    },
    {
      "Command": "pause",
      "Target": "1000",
      "Value": ""
    },
    {
      "Command": "type",
      "Target": "//td[2]/input",
      "Value": "qa_11"
    },
    {
      "Command": "type",
      "Target": "//tr[2]/td[2]/input",
      "Value": ".vss@2019"
    },
    {
      "Command": "click",
      "Target": "//tr[4]/td/input",
      "Value": "Log In"
    },
    {
      "Command": "pause",
      "Target": "9000",
      "Value": ""
    },
    {
      "Command": "verifyElementNotPresent",
      "Target": "xpath=(//label[text()='New_DM_for_Publish_Description'])",
      "Value": "New_DM_for_Publish_Description"
    },
    {
      "Command": "click",
      "Target": "//a",
      "Value": ""
    },
    {
      "Command": "pause",
      "Target": "3000",
      "Value": ""
    },
    {
      "Command": "refresh",
      "Target": "",
      "Value": ""
    }
  ]
}