{
  "Name": "_vqa_TC_2_create new contact",
  "CreationDate": "2020-4-21",
  "Commands": [
    {
      "Command": "open",
      "Target": "https://10.200.225.14/VSSQA",
      "Value": ""
    },
    {
      "Command": "pause",
      "Target": "1000",
      "Value": ""
    },
    {
      "Command": "type",
      "Target": "//td[2]/input",
      "Value": "QA_11"
    },
    {
      "Command": "type",
      "Target": "//tr[2]/td[2]/input",
      "Value": ".vss@2019"
    },
    {
      "Command": "click",
      "Target": "//tr[4]/td/input",
      "Value": "Log In"
    },
    {
      "Command": "pause",
      "Target": "5000",
      "Value": ""
    },
    {
      "Command": "mouseOver",
      "Target": "//div[@id='menubar']/ul/li[6]/a",
      "Value": "Tools"
    },
    {
      "Command": "click",
      "Target": "//a[contains(text(),'Contacts')]",
      "Value": "Contacts"
    },
    {
      "Command": "pause",
      "Target": "3000",
      "Value": ""
    },
    {
      "Command": "selectWindow",
      "Target": "tab=1",
      "Value": ""
    },
    {
      "Command": "click",
      "Target": "//div[@id='ctl00_ContentPlaceHolder1_UpdatePanel1']/table/tbody/tr/td/table/tbody/tr/td[2]/input",
      "Value": "Add New Contact"
    },
    {
      "Command": "pause",
      "Target": "1000",
      "Value": ""
    },
    {
      "Command": "type",
      "Target": "//div[@id='ctl00_ContentPlaceHolder1_UpdatePanel1']/table/tbody/tr[2]/td/fieldset/table/tbody/tr/td[2]/input",
      "Value": "script add contact"
    },
    {
      "Command": "type",
      "Target": "//div[@id='ctl00_ContentPlaceHolder1_UpdatePanel1']/table/tbody/tr[2]/td/fieldset/table/tbody/tr[2]/td[2]/input",
      "Value": "planet.ten@gmail.com"
    },
    {
      "Command": "click",
      "Target": "//div[@id='ctl00_ContentPlaceHolder1_UpdatePanel1']/table/tbody/tr/td/div/table/tbody/tr/td/input",
      "Value": "Save"
    },
    {
      "Command": "pause",
      "Target": "4000",
      "Value": ""
    },
    {
      "Command": "verifyText",
      "Target": "//a[contains(text(),'script add contact')]",
      "Value": "script add contact"
    },
    {
      "Command": "verifyText",
      "Target": "xpath=(//td[text()[contains(.,'planet.ten@gmail.com')]])",
      "Value": "planet.ten@gmail.com"
    },
    {
      "Command": "click",
      "Target": "//a[contains(text(),'Logout')]",
      "Value": ""
    },
    {
      "Command": "pause",
      "Target": "2000",
      "Value": ""
    },
    {
      "Command": "selectWindow",
      "Target": "TAB=CLOSEALLOTHER",
      "Value": ""
    },
    {
      "Command": "refresh",
      "Target": "",
      "Value": ""
    }
  ]
}