{
  "Name": "_vqa_MR_06_Create Custom Rule",
  "CreationDate": "2020-4-21",
  "Commands": [
    {
      "Command": "open",
      "Target": "https://10.200.225.14/VSSQA",
      "Value": ""
    },
    {
      "Command": "pause",
      "Target": "1000",
      "Value": ""
    },
    {
      "Command": "type",
      "Target": "//td[2]/input",
      "Value": "QA_11"
    },
    {
      "Command": "type",
      "Target": "//tr[2]/td[2]/input",
      "Value": ".vss@2019"
    },
    {
      "Command": "click",
      "Target": "//tr[4]/td/input",
      "Value": "Log In"
    },
    {
      "Command": "pause",
      "Target": "6000",
      "Value": ""
    },
    {
      "Command": "mouseOver",
      "Target": "xpath=//*[@id=\"menubar\"]/ul/li[4]/a",
      "Value": "Risk Assessment"
    },
    {
      "Command": "click",
      "Target": "link=Manage Rules",
      "Value": ""
    },
    {
      "Command": "pause",
      "Target": "12000",
      "Value": ""
    },
    {
      "Command": "selectWindow",
      "Target": "tab=1",
      "Value": ""
    },
    {
      "Command": "click",
      "Target": "//div/div/img",
      "Value": "New"
    },
    {
      "Command": "pause",
      "Target": "6000",
      "Value": ""
    },
    {
      "Command": "select",
      "Target": "//fieldset[2]/table/tbody/tr/td/div/div/select",
      "Value": "label=Custom"
    },
    {
      "Command": "select",
      "Target": "//select[2]",
      "Value": "label=Element Has Value"
    },
    {
      "Command": "select",
      "Target": "//td[2]/select",
      "Value": "label=VesselCountryVisitMetrics"
    },
    {
      "Command": "select",
      "Target": "//td[4]/div/div/select",
      "Value": "label=CountryName"
    },
    {
      "Command": "click",
      "Target": "//td/div/img",
      "Value": "New"
    },
    {
      "Command": "pause",
      "Target": "1000",
      "Value": ""
    },
    {
      "Command": "select",
      "Target": "//tr[2]/td/fieldset/div/div/table/tbody/tr/td/select",
      "Value": "label=AND"
    },
    {
      "Command": "select",
      "Target": "//select[3]",
      "Value": "label=Element Value"
    },
    {
      "Command": "select",
      "Target": "//tr[2]/td/fieldset/div/div[2]/table/tbody/tr/td[2]/select",
      "Value": "label=VesselCrew"
    },
    {
      "Command": "select",
      "Target": "//tr[2]/td/fieldset/div/div[2]/table/tbody/tr/td[4]/div/div/select",
      "Value": "label=Nationality"
    },
    {
      "Command": "select",
      "Target": "//div[3]/table/tbody/tr/td/select",
      "Value": "label=Equal To"
    },
    {
      "Command": "type",
      "Target": "//td[4]/input",
      "Value": "Japan"
    },
    {
      "Command": "type",
      "Target": "//td[2]/div/input",
      "Value": "_MR_Custom_Title_"
    },
    {
      "Command": "type",
      "Target": "//textarea",
      "Value": "_MR_Custom_Desc_"
    },
    {
      "Command": "type",
      "Target": "//tr[3]/td[2]/textarea",
      "Value": "_MR_Custom_Ration_"
    },
    {
      "Command": "click",
      "Target": "//div/table/tbody/tr/td/img",
      "Value": "Save"
    },
    {
      "Command": "pause",
      "Target": "2000",
      "Value": ""
    },
    {
      "Command": "verifyText",
      "Target": "//div[2]/div/div/center/table/tbody/tr/td[2]/div/span",
      "Value": "Save Successful!"
    },
    {
      "Command": "click",
      "Target": "//div[2]/div/div/center/div/input[2]",
      "Value": "Ok"
    },
    {
      "Command": "pause",
      "Target": "2000",
      "Value": ""
    },
    {
      "Command": "click",
      "Target": "//a",
      "Value": ""
    },
    {
      "Command": "pause",
      "Target": "2000",
      "Value": ""
    },
    {
      "Command": "selectWindow",
      "Target": "TAB=CLOSEALLOTHER",
      "Value": ""
    },
    {
      "Command": "refresh",
      "Target": "",
      "Value": ""
    }
  ]
}