{
  "Name": "_vqa_VD_04_details_Entities",
  "CreationDate": "2020-4-21",
  "Commands": [
    {
      "Command": "open",
      "Target": "https://10.200.225.14/VSSQA/Vessels/VesselDetails.aspx?imo=1000124&A_Src=_Vessel_Data_Viewer",
      "Value": ""
    },
    {
      "Command": "pause",
      "Target": "1000",
      "Value": ""
    },
    {
      "Command": "type",
      "Target": "//td[2]/input",
      "Value": "QA_11"
    },
    {
      "Command": "type",
      "Target": "//tr[2]/td[2]/input",
      "Value": ".vss@2019"
    },
    {
      "Command": "click",
      "Target": "//tr[4]/td/input",
      "Value": "Log In"
    },
    {
      "Command": "pause",
      "Target": "9000",
      "Value": ""
    },
    {
      "Command": "verifyText",
      "Target": "//span[4]/span/span/a/span",
      "Value": "Entities"
    },
    {
      "Command": "click",
      "Target": "//span[4]/span/span/a/span",
      "Value": "Entities"
    },
    {
      "Command": "pause",
      "Target": "6000",
      "Value": ""
    },
    {
      "Command": "verifyText",
      "Target": "//th",
      "Value": "IMO Company Number"
    },
    {
      "Command": "verifyText",
      "Target": "//div/table/tbody/tr/td/div/table/tbody/tr[2]/td",
      "Value": "9991001"
    },
    {
      "Command": "verifyText",
      "Target": "//th[2]",
      "Value": "Entity Type"
    },
    {
      "Command": "verifyText",
      "Target": "//td/div/table/tbody/tr[2]/td[2]",
      "Value": "Group Beneficial Owner"
    },
    {
      "Command": "verifyElementPresent",
      "Target": "xpath=//*[@id=\"ctl00_ContentPlaceHolder1_Details1_TabContainer1_tpEntities_Parties1_grid\"]/tbody/tr[1]/th[2]/table/tbody/tr/td[2]/input",
      "Value": "Help"
    },
    {
      "Command": "click",
      "Target": "xpath=//*[@id=\"ctl00_ContentPlaceHolder1_Details1_TabContainer1_tpEntities_Parties1_grid\"]/tbody/tr[1]/th[2]/table/tbody/tr/td[2]/input",
      "Value": "Help"
    },
    {
      "Command": "pause",
      "Target": "11000",
      "Value": ""
    },
    {
      "Command": "selectWindow",
      "Target": "tab=1",
      "Value": ""
    },
    {
      "Command": "verifyText",
      "Target": "xpath=//*[@id=\"contentBody\"]/div/h2",
      "Value": "Entity Definitions"
    },
    {
      "Command": "selectWindow",
      "Target": "TAB=0",
      "Value": ""
    },
    {
      "Command": "verifyText",
      "Target": "//th[3]",
      "Value": "Name"
    },
    {
      "Command": "verifyText",
      "Target": "id=ctl00_ContentPlaceHolder1_Details1_TabContainer1_tpEntities_Parties1_grid_ctl02_lblUnknown",
      "Value": "Unknown"
    },
    {
      "Command": "verifyText",
      "Target": "linkText=Doris MCPY",
      "Value": "Doris MCPY"
    },
    {
      "Command": "click",
      "Target": "linkText=Doris MCPY",
      "Value": "Doris MCPY"
    },
    {
      "Command": "pause",
      "Target": "8000",
      "Value": ""
    },
    {
      "Command": "selectWindow",
      "Target": "tab=1",
      "Value": ""
    },
    {
      "Command": "verifyText",
      "Target": "xpath=//*[@id=\"ctl00_ContentPlaceHolder1_panelVParty\"]/table/tbody/tr[1]/td/fieldset/table/tbody/tr[2]/td[2]",
      "Value": "Doris MCPY"
    },
    {
      "Command": "selectWindow",
      "Target": "tab=0",
      "Value": ""
    },
    {
      "Command": "verifyText",
      "Target": "//th[4]",
      "Value": "Country of Domicile"
    },
    {
      "Command": "verifyText",
      "Target": "//div/table/tbody/tr[2]/td[4]",
      "Value": ""
    },
    {
      "Command": "verifyText",
      "Target": "//th[5]",
      "Value": "Country of Registration"
    },
    {
      "Command": "verifyText",
      "Target": "//div/table/tbody/tr[2]/td[5]",
      "Value": ""
    },
    {
      "Command": "verifyText",
      "Target": "//th[6]",
      "Value": "Country of Control"
    },
    {
      "Command": "verifyText",
      "Target": "//div/table/tbody/tr[2]/td[6]",
      "Value": ""
    },
    {
      "Command": "click",
      "Target": "//a[contains(text(),'Logout')]",
      "Value": ""
    },
    {
      "Command": "pause",
      "Target": "2000",
      "Value": ""
    },
    {
      "Command": "selectWindow",
      "Target": "TAB=CLOSEALLOTHER",
      "Value": ""
    },
    {
      "Command": "refresh",
      "Target": "",
      "Value": ""
    }
  ]
}