{
  "Name": "_vqa_DV_C_05_C_DM_publishDataViewedUpdate",
  "CreationDate": "2020-4-21",
  "Commands": [
    {
      "Command": "open",
      "Target": "https://10.200.225.14/VSSQA/Common/Controls/Components/Documents/DocumentManager.aspx?ID=0801566&Q=Company&N=DELTA%20QUEEN%20STEAMBOAT%20CO%20INC",
      "Value": ""
    },
    {
      "Command": "pause",
      "Target": "1000",
      "Value": ""
    },
    {
      "Command": "type",
      "Target": "//td[2]/input",
      "Value": "qa_16"
    },
    {
      "Command": "type",
      "Target": "//tr[2]/td[2]/input",
      "Value": ".vss@2020"
    },
    {
      "Command": "click",
      "Target": "//tr[4]/td/input",
      "Value": "Log In"
    },
    {
      "Command": "pause",
      "Target": "6000",
      "Value": ""
    },
    {
      "Command": "verifyText",
      "Target": "id=Title",
      "Value": "Company Document Manager: DELTA QUEEN STEAMBOAT CO INC"
    },
    {
      "Command": "verifyText",
      "Target": "//*[text()[contains(.,'New_DM_for_Publish_Description')]]",
      "Value": "New_DM_for_Publish_Description"
    },
    {
      "Command": "click",
      "Target": "//*[text()[contains(.,'New_DM_for_Publish_Description')]]",
      "Value": "New_DM_for_Publish_Description"
    },
    {
      "Command": "pause",
      "Target": "2000",
      "Value": ""
    },
    {
      "Command": "verifyElementPresent",
      "Target": "//div[@id='ctl00_ContentPlaceHolder1_ctl00_panelControls']/table/tbody/tr[2]/td[3]/textarea",
      "Value": "New_DM_for_Publish_Description"
    },
    {
      "Command": "click",
      "Target": "//a",
      "Value": ""
    },
    {
      "Command": "pause",
      "Target": "3000",
      "Value": ""
    },
    {
      "Command": "refresh",
      "Target": "",
      "Value": ""
    },
    {
      "Command": "pause",
      "Target": "1000",
      "Value": ""
    },
    {
      "Command": "open",
      "Target": "https://10.200.225.14/VSSQA/Common/Controls/Components/Documents/DocumentManager.aspx?ID=0801566&Q=Company&N=DELTA%20QUEEN%20STEAMBOAT%20CO%20INC",
      "Value": ""
    },
    {
      "Command": "pause",
      "Target": "1000",
      "Value": ""
    },
    {
      "Command": "type",
      "Target": "//td[2]/input",
      "Value": "qa_11"
    },
    {
      "Command": "type",
      "Target": "//tr[2]/td[2]/input",
      "Value": ".vss@2019"
    },
    {
      "Command": "click",
      "Target": "//tr[4]/td/input",
      "Value": "Log In"
    },
    {
      "Command": "pause",
      "Target": "6000",
      "Value": ""
    },
    {
      "Command": "verifyText",
      "Target": "//*[text()[contains(.,'New_DM_for_Publish_Description')]]",
      "Value": "New_DM_for_Publish_Description"
    },
    {
      "Command": "click",
      "Target": "//*[text()[contains(.,'New_DM_for_Publish_Description')]]",
      "Value": "New_DM_for_Publish_Description"
    },
    {
      "Command": "pause",
      "Target": "2000",
      "Value": ""
    },
    {
      "Command": "verifyElementPresent",
      "Target": "//div[@id='ctl00_ContentPlaceHolder1_ctl00_panelControls']/table/tbody/tr[2]/td[3]/textarea",
      "Value": "New_DM_for_Publish_Description"
    },
    {
      "Command": "click",
      "Target": "//div[@id='ctl00_ContentPlaceHolder1_ctl00_actionMenu_divToolbar']/table/tbody/tr/td[2]/input",
      "Value": "Edit"
    },
    {
      "Command": "pause",
      "Target": "4000",
      "Value": ""
    },
    {
      "Command": "type",
      "Target": "id=ctl00_ContentPlaceHolder1_ctl00_txtDescription",
      "Value": "New_DM_for_Publish_Description_updated"
    },
    {
      "Command": "click",
      "Target": "id=ctl00_ContentPlaceHolder1_ctl00_actionMenu_btnSave",
      "Value": "Save"
    },
    {
      "Command": "pause",
      "Target": "2000",
      "Value": ""
    },
    {
      "Command": "verifyText",
      "Target": "//div[@id='ctl00_ContentPlaceHolder1_ctl00_MessageBox1_MessageAllignment']/span",
      "Value": "Save Successful!"
    },
    {
      "Command": "click",
      "Target": "//div[@id='ctl00_ContentPlaceHolder1_ctl00_MessageBox1_MessagePanel']/div/center/div/input",
      "Value": "Ok"
    },
    {
      "Command": "pause",
      "Target": "2000",
      "Value": ""
    },
    {
      "Command": "click",
      "Target": "//a",
      "Value": ""
    }
  ]
}