{
  "Name": "_vqa_V_AORM_01_open",
  "CreationDate": "2020-4-21",
  "Commands": [
    {
      "Command": "open",
      "Target": "https://10.200.225.14/VSSQA",
      "Value": ""
    },
    {
      "Command": "pause",
      "Target": "1000",
      "Value": ""
    },
    {
      "Command": "type",
      "Target": "//td[2]/input",
      "Value": "QA_11"
    },
    {
      "Command": "type",
      "Target": "//tr[2]/td[2]/input",
      "Value": ".vss@2019"
    },
    {
      "Command": "click",
      "Target": "//tr[4]/td/input",
      "Value": "Log In"
    },
    {
      "Command": "pause",
      "Target": "6000",
      "Value": ""
    },
    {
      "Command": "mouseOver",
      "Target": "//div/ul/li[3]/a",
      "Value": "Views »"
    },
    {
      "Command": "verifyText",
      "Target": "//li[3]/ul/li[3]/a",
      "Value": "AOR Manager"
    },
    {
      "Command": "click",
      "Target": "//li[3]/ul/li[3]/a",
      "Value": ""
    },
    {
      "Command": "pause",
      "Target": "9000",
      "Value": ""
    },
    {
      "Command": "selectWindow",
      "Target": "tab=1",
      "Value": ""
    },
    {
      "Command": "verifyText",
      "Target": "//div/label",
      "Value": "AOR Manager"
    },
    {
      "Command": "verifyText",
      "Target": "//span/label",
      "Value": "Title"
    },
    {
      "Command": "verifyText",
      "Target": "//span[2]/label",
      "Value": "Description"
    },
    {
      "Command": "verifyText",
      "Target": "//span[3]/label",
      "Value": "Owner"
    },
    {
      "Command": "verifyText",
      "Target": "//span[4]/label",
      "Value": "Date"
    },
    {
      "Command": "verifyText",
      "Target": "//span[5]/label",
      "Value": "Hidden"
    },
    {
      "Command": "verifyElementPresent",
      "Target": "//span[6]/img",
      "Value": ""
    },
    {
      "Command": "click",
      "Target": "xpath=//*[@id=\"tabContainer1_body\"]/table/tbody/tr/td[1]/img",
      "Value": ""
    },
    {
      "Command": "pause",
      "Target": "1000",
      "Value": ""
    },
    {
      "Command": "verifyElementPresent",
      "Target": "//div/table/tbody/tr/td/img",
      "Value": ""
    },
    {
      "Command": "verifyElementPresent",
      "Target": "//td[3]/img",
      "Value": ""
    },
    {
      "Command": "verifyText",
      "Target": "//td/table/tbody/tr/td",
      "Value": "Title"
    },
    {
      "Command": "verifyText",
      "Target": "//td/table/tbody/tr[2]/td",
      "Value": "Description"
    },
    {
      "Command": "verifyElementPresent",
      "Target": "//td/table/tbody/tr/td[2]/input",
      "Value": ""
    },
    {
      "Command": "verifyElementPresent",
      "Target": "//textarea",
      "Value": ""
    },
    {
      "Command": "verifyValue",
      "Target": "//tr[3]/td/table/tbody/tr/td/input",
      "Value": "AOR Values"
    },
    {
      "Command": "verifyValue",
      "Target": "//tr[3]/td/table/tbody/tr/td[2]/input",
      "Value": "Export"
    },
    {
      "Command": "verifyValue",
      "Target": "//td[3]/input",
      "Value": "View Status"
    },
    {
      "Command": "verifyValue",
      "Target": "//td[4]/input",
      "Value": "Publish"
    },
    {
      "Command": "verifyText",
      "Target": "//td[2]/fieldset/legend",
      "Value": "Boundary"
    },
    {
      "Command": "verifyText",
      "Target": "//td[3]/fieldset/legend",
      "Value": "Time Period"
    },
    {
      "Command": "verifyText",
      "Target": "//div/table/tbody/tr/td[2]/label",
      "Value": "Relative"
    },
    {
      "Command": "verifyText",
      "Target": "//td[3]/label",
      "Value": "Relative Offset"
    },
    {
      "Command": "verifyText",
      "Target": "//td[4]/label",
      "Value": "Date Range"
    },
    {
      "Command": "verifyElementPresent",
      "Target": "//td[5]/a/img",
      "Value": ""
    },
    {
      "Command": "verifyElementPresent",
      "Target": "//div/a/img",
      "Value": ""
    },
    {
      "Command": "click",
      "Target": "//a",
      "Value": ""
    },
    {
      "Command": "pause",
      "Target": "4000",
      "Value": ""
    },
    {
      "Command": "selectWindow",
      "Target": "TAB=CLOSEALLOTHER",
      "Value": ""
    }
  ]
}