{
  "Name": "_vqa_DV_P_12_PMD_N_HoverCheck_U_HoverCheck_SA_D",
  "CreationDate": "2020-4-21",
  "Commands": [
    {
      "Command": "open",
      "Target": "https://10.200.225.14/VSSQA/DataViewers/PortDataDetails.aspx?portid=13340&A_Src=_Port_Data_Viewer",
      "Value": ""
    },
    {
      "Command": "pause",
      "Target": "1000",
      "Value": ""
    },
    {
      "Command": "type",
      "Target": "//td[2]/input",
      "Value": "QA_11"
    },
    {
      "Command": "type",
      "Target": "//tr[2]/td[2]/input",
      "Value": ".vss@2019"
    },
    {
      "Command": "click",
      "Target": "//tr[4]/td/input",
      "Value": "Log In"
    },
    {
      "Command": "pause",
      "Target": "6000",
      "Value": ""
    },
    {
      "Command": "verifyText",
      "Target": "xpath=//*[@id=\"portDiv\"]/table/tbody/tr/td/fieldset[10]/legend",
      "Value": "Port Documents"
    },
    {
      "Command": "verifyText",
      "Target": "xpath=(//a[contains(text(),'Manage Documents')])",
      "Value": "Manage Documents"
    },
    {
      "Command": "click",
      "Target": "xpath=(//a[contains(text(),'Manage Documents')])",
      "Value": "Manage Documents"
    },
    {
      "Command": "pause",
      "Target": "6000",
      "Value": ""
    },
    {
      "Command": "selectWindow",
      "Target": "TAB=1",
      "Value": ""
    },
    {
      "Command": "verifyText",
      "Target": "id=Title",
      "Value": "Port Document Manager: Corpus Christi"
    },
    {
      "Command": "type",
      "Target": "//div[@id='ctl00_ContentPlaceHolder1_ctl00_panelControls']/table/tbody/tr/td[3]/input",
      "Value": "*_Port_Document_CorpusChristi"
    },
    {
      "Command": "type",
      "Target": "//div[@id='ctl00_ContentPlaceHolder1_ctl00_panelControls']/table/tbody/tr[2]/td[3]/textarea",
      "Value": "_Description_Port_Document_CorpusChristi"
    },
    {
      "Command": "type",
      "Target": "id=ctl00_ContentPlaceHolder1_ctl00_DocumentUpload",
      "Value": "F:\\bugs\\222.214\\DATA_SHIP\\docfile.DOCX"
    },
    {
      "Command": "pause",
      "Target": "2000",
      "Value": ""
    },
    {
      "Command": "click",
      "Target": "//tr[@id='ctl00_ContentPlaceHolder1_ctl00_tr_DocumentUpload']/td[3]/table/tbody/tr/td[2]/input",
      "Value": "Upload"
    },
    {
      "Command": "pause",
      "Target": "5000",
      "Value": ""
    },
    {
      "Command": "click",
      "Target": "//div[@id='ctl00_ContentPlaceHolder1_ctl00_actionMenu_divToolbar']/table/tbody/tr/td[3]/input",
      "Value": "Save"
    },
    {
      "Command": "pause",
      "Target": "8000",
      "Value": ""
    },
    {
      "Command": "verifyText",
      "Target": "//div[@id='ctl00_ContentPlaceHolder1_ctl00_MessageBox1_MessageAllignment']/span",
      "Value": "Save Successful!"
    },
    {
      "Command": "click",
      "Target": "//div[@id='ctl00_ContentPlaceHolder1_ctl00_MessageBox1_MessagePanel']/div/center/div/input",
      "Value": "Ok"
    },
    {
      "Command": "pause",
      "Target": "2000",
      "Value": ""
    },
    {
      "Command": "selectWindow",
      "Target": "TAB=CLOSE",
      "Value": ""
    },
    {
      "Command": "refresh",
      "Target": "",
      "Value": ""
    },
    {
      "Command": "pause",
      "Target": "2000",
      "Value": ""
    },
    {
      "Command": "verifyText",
      "Target": "xpath=//*[@id=\"ctl00_ContentPlaceHolder1_ctl02_ctl00_grid\"]/tbody/tr/td[3]",
      "Value": "*_Port_Document_CorpusChristi\t"
    },
    {
      "Command": "verifyText",
      "Target": "xpath=//*[@id=\"ctl00_ContentPlaceHolder1_ctl02_ctl00_grid\"]/tbody/tr/td[4]",
      "Value": "_Description_Port_Document_CorpusChristi\t"
    },
    {
      "Command": "verifyText",
      "Target": "linkText=docfile.DOCX",
      "Value": "docfile.DOCX"
    },
    {
      "Command": "click",
      "Target": "linkText=docfile.DOCX",
      "Value": "docfile.DOCX"
    },
    {
      "Command": "pause",
      "Target": "3000",
      "Value": ""
    },
    {
      "Command": "verifyText",
      "Target": "xpath=//*[@id=\"ctl00_ContentPlaceHolder1_ctl02_ctl00_grid_ctl02_lblCreatedModified\"]/b[1]",
      "Value": "QA_11_ Full_Name_1"
    },
    {
      "Command": "refresh",
      "Target": "",
      "Value": ""
    },
    {
      "Command": "pause",
      "Target": "1000",
      "Value": ""
    },
    {
      "Command": "click",
      "Target": "xpath=(//a[contains(text(),'Manage Documents')])",
      "Value": "Manage Documents"
    },
    {
      "Command": "pause",
      "Target": "6000",
      "Value": ""
    },
    {
      "Command": "selectWindow",
      "Target": "TAB=1",
      "Value": ""
    },
    {
      "Command": "verifyText",
      "Target": "//*[text()[contains(.,'_Description_Port_Document_CorpusChristi')]]",
      "Value": "_Description_Port_Document_CorpusChristi"
    },
    {
      "Command": "click",
      "Target": "//*[text()[contains(.,'_Description_Port_Document_CorpusChristi')]]",
      "Value": "_Description_Port_Document_CorpusChristi"
    },
    {
      "Command": "pause",
      "Target": "4000",
      "Value": ""
    },
    {
      "Command": "verifyElementPresent",
      "Target": "id=ctl00_ContentPlaceHolder1_ctl00_txtDescription",
      "Value": "_Description_Port_Document_CorpusChristi"
    },
    {
      "Command": "click",
      "Target": "id=ctl00_ContentPlaceHolder1_ctl00_actionMenu_btnSaveAs",
      "Value": ""
    },
    {
      "Command": "pause",
      "Target": "5000",
      "Value": ""
    },
    {
      "Command": "verifyText",
      "Target": "id=ctl00_ContentPlaceHolder1_ctl00_MessageBox1_lblMessage",
      "Value": "Save Successful!"
    },
    {
      "Command": "click",
      "Target": "id=ctl00_ContentPlaceHolder1_ctl00_MessageBox1_MessageOK",
      "Value": "Ok"
    },
    {
      "Command": "refresh",
      "Target": "",
      "Value": ""
    },
    {
      "Command": "pause",
      "Target": "2000",
      "Value": ""
    },
    {
      "Command": "verifyText",
      "Target": "xpath=(//td[text()[contains(.,'_Description_Port_Document_CorpusChristi')]])[2]",
      "Value": "_Description_Port_Document_CorpusChristi"
    },
    {
      "Command": "click",
      "Target": "xpath=(//td[text()[contains(.,'_Description_Port_Document_CorpusChristi')]])[2]",
      "Value": "_Description_Port_Document_CorpusChristi"
    },
    {
      "Command": "pause",
      "Target": "8000",
      "Value": ""
    },
    {
      "Command": "verifyElementPresent",
      "Target": "id=ctl00_ContentPlaceHolder1_ctl00_txtTitle",
      "Value": "*_Port_Document_CorpusChristi (1)"
    },
    {
      "Command": "click",
      "Target": "id=ctl00_ContentPlaceHolder1_ctl00_actionMenu_btnDelete",
      "Value": "delete"
    },
    {
      "Command": "pause",
      "Target": "6000",
      "Value": ""
    },
    {
      "Command": "verifyText",
      "Target": "xpath=//center/table/tbody/tr/td[2]/span",
      "Value": "Are you sure you want to delete?\\n[*_Port_Document_CorpusChristi (1)]"
    },
    {
      "Command": "click",
      "Target": "id=ctl00_ContentPlaceHolder1_ctl00_DialogBoxDelete_MessageOK",
      "Value": "Yes"
    },
    {
      "Command": "pause",
      "Target": "4000",
      "Value": ""
    },
    {
      "Command": "verifyText",
      "Target": "id=ctl00_ContentPlaceHolder1_ctl00_MessageBox1_lblMessage",
      "Value": "Delete Successful!"
    },
    {
      "Command": "click",
      "Target": "id=ctl00_ContentPlaceHolder1_ctl00_MessageBox1_MessageOK",
      "Value": "Ok"
    },
    {
      "Command": "refresh",
      "Target": "",
      "Value": ""
    },
    {
      "Command": "pause",
      "Target": "1000",
      "Value": ""
    },
    {
      "Command": "verifyText",
      "Target": "xpath=(//td[text()[contains(.,'_Description_Port_Document_CorpusChristi')]])",
      "Value": "_Description_Port_Document_CorpusChristi"
    },
    {
      "Command": "click",
      "Target": "xpath=(//td[text()[contains(.,'_Description_Port_Document_CorpusChristi')]])",
      "Value": "_Description_Port_Document_CorpusChristi"
    },
    {
      "Command": "pause",
      "Target": "4000",
      "Value": ""
    },
    {
      "Command": "verifyElementPresent",
      "Target": "id=ctl00_ContentPlaceHolder1_ctl00_txtDescription",
      "Value": "_Description_Port_Document_CorpusChristi"
    },
    {
      "Command": "click",
      "Target": "xpath=//td[2]/input",
      "Value": ""
    },
    {
      "Command": "pause",
      "Target": "4000",
      "Value": ""
    },
    {
      "Command": "type",
      "Target": "id=ctl00_ContentPlaceHolder1_ctl00_txtTitle",
      "Value": "*_Port_Document_CorpusChristi_updated"
    },
    {
      "Command": "type",
      "Target": "id=ctl00_ContentPlaceHolder1_ctl00_txtDescription",
      "Value": "_Description_Port_Document_CorpusChristi_updated"
    },
    {
      "Command": "click",
      "Target": "id=ctl00_ContentPlaceHolder1_ctl00_actionMenu_btnSave",
      "Value": ""
    },
    {
      "Command": "pause",
      "Target": "3000",
      "Value": ""
    },
    {
      "Command": "verifyText",
      "Target": "id=ctl00_ContentPlaceHolder1_ctl00_MessageBox1_lblMessage",
      "Value": "Save Successful!"
    },
    {
      "Command": "click",
      "Target": "id=ctl00_ContentPlaceHolder1_ctl00_MessageBox1_MessageOK",
      "Value": "Ok"
    },
    {
      "Command": "pause",
      "Target": "1000",
      "Value": ""
    },
    {
      "Command": "selectWindow",
      "Target": "TAB=CLOSE",
      "Value": ""
    },
    {
      "Command": "refresh",
      "Target": "",
      "Value": ""
    },
    {
      "Command": "pause",
      "Target": "1000",
      "Value": ""
    },
    {
      "Command": "verifyText",
      "Target": "xpath=//*[@id=\"ctl00_ContentPlaceHolder1_ctl02_ctl00_grid\"]/tbody/tr/td[3]",
      "Value": "*_Port_Document_CorpusChristi_updated"
    },
    {
      "Command": "verifyText",
      "Target": "xpath=//*[@id=\"ctl00_ContentPlaceHolder1_ctl02_ctl00_grid\"]/tbody/tr/td[4]",
      "Value": "_Description_Port_Document_CorpusChristi_updated"
    },
    {
      "Command": "verifyText",
      "Target": "linkText=docfile.DOCX",
      "Value": "docfile.DOCX"
    },
    {
      "Command": "click",
      "Target": "linkText=docfile.DOCX",
      "Value": "docfile.DOCX"
    },
    {
      "Command": "pause",
      "Target": "3000",
      "Value": ""
    },
    {
      "Command": "verifyText",
      "Target": "xpath=//*[@id=\"ctl00_ContentPlaceHolder1_ctl02_ctl00_grid_ctl02_lblCreatedModified\"]/b[1]",
      "Value": "QA_11_ Full_Name_1"
    },
    {
      "Command": "pause",
      "Target": "1000",
      "Value": ""
    },
    {
      "Command": "click",
      "Target": "xpath=(//a[contains(text(),'Manage Documents')])",
      "Value": "Manage Documents"
    },
    {
      "Command": "pause",
      "Target": "5000",
      "Value": ""
    },
    {
      "Command": "selectWindow",
      "Target": "TAB=1",
      "Value": ""
    },
    {
      "Command": "verifyText",
      "Target": "xpath=(//td[text()[contains(.,'_Description_Port_Document_CorpusChristi_updated')]])",
      "Value": "_Description_Port_Document_CorpusChristi_updated"
    },
    {
      "Command": "click",
      "Target": "xpath=(//td[text()[contains(.,'_Description_Port_Document_CorpusChristi_updated')]])",
      "Value": "_Description_Port_Document_CorpusChristi_updated"
    },
    {
      "Command": "pause",
      "Target": "2000",
      "Value": ""
    },
    {
      "Command": "verifyElementPresent",
      "Target": "id=ctl00_ContentPlaceHolder1_ctl00_txtTitle",
      "Value": "*_Port_Document_CorpusChristi (1)"
    },
    {
      "Command": "click",
      "Target": "id=ctl00_ContentPlaceHolder1_ctl00_actionMenu_btnDelete",
      "Value": "delete"
    },
    {
      "Command": "pause",
      "Target": "2000",
      "Value": ""
    },
    {
      "Command": "verifyText",
      "Target": "xpath=//center/table/tbody/tr/td[2]/span",
      "Value": "Are you sure you want to delete?\\n[*_Port_Document_CorpusChristi_updated]"
    },
    {
      "Command": "click",
      "Target": "id=ctl00_ContentPlaceHolder1_ctl00_DialogBoxDelete_MessageOK",
      "Value": "Yes"
    },
    {
      "Command": "pause",
      "Target": "4000",
      "Value": ""
    },
    {
      "Command": "verifyText",
      "Target": "id=ctl00_ContentPlaceHolder1_ctl00_MessageBox1_lblMessage",
      "Value": "Delete Successful!"
    },
    {
      "Command": "click",
      "Target": "id=ctl00_ContentPlaceHolder1_ctl00_MessageBox1_MessageOK",
      "Value": "Ok"
    },
    {
      "Command": "selectWindow",
      "Target": "TAB=0",
      "Value": ""
    },
    {
      "Command": "refresh",
      "Target": "",
      "Value": ""
    },
    {
      "Command": "pause",
      "Target": "2000",
      "Value": ""
    },
    {
      "Command": "verifyElementNotPresent",
      "Target": "xpath=//img[@alt='*_Port_Document_CorpusChristi']",
      "Value": ""
    },
    {
      "Command": "click",
      "Target": "//a",
      "Value": ""
    },
    {
      "Command": "pause",
      "Target": "5000",
      "Value": ""
    },
    {
      "Command": "selectWindow",
      "Target": "TAB=CLOSEALLOTHER",
      "Value": ""
    },
    {
      "Command": "refresh",
      "Target": "",
      "Value": ""
    }
  ]
}