{
  "Name": "_vqa_MISC09B_RiskA_Update",
  "CreationDate": "2020-4-21",
  "Commands": [
    {
      "Command": "open",
      "Target": "https://10.200.225.14/VSSQA",
      "Value": ""
    },
    {
      "Command": "pause",
      "Target": "1000",
      "Value": ""
    },
    {
      "Command": "type",
      "Target": "//td[2]/input",
      "Value": "QA_11"
    },
    {
      "Command": "type",
      "Target": "//tr[2]/td[2]/input",
      "Value": ".vss@2019"
    },
    {
      "Command": "click",
      "Target": "//tr[4]/td/input",
      "Value": "Log In"
    },
    {
      "Command": "pause",
      "Target": "4000",
      "Value": ""
    },
    {
      "Command": "mouseOver",
      "Target": "//div/ul/li[5]/a",
      "Value": "Administration"
    },
    {
      "Command": "mouseOver",
      "Target": "//li[5]/ul/li/a",
      "Value": "Security"
    },
    {
      "Command": "verifyText",
      "Target": "//li[5]/ul/li/ul/li/a",
      "Value": "Administrator Settings"
    },
    {
      "Command": "click",
      "Target": "//li[5]/ul/li/ul/li/a",
      "Value": ""
    },
    {
      "Command": "pause",
      "Target": "2000",
      "Value": ""
    },
    {
      "Command": "selectWindow",
      "Target": "tab=1",
      "Value": ""
    },
    {
      "Command": "verifyText",
      "Target": "xpath=//*[@id=\"__tab_ctl00_ContentPlaceHolder1_tc_tabRiskAlerts\"]/span",
      "Value": "Risk Alerts"
    },
    {
      "Command": "click",
      "Target": "xpath=//*[@id=\"__tab_ctl00_ContentPlaceHolder1_tc_tabRiskAlerts\"]/span",
      "Value": ""
    },
    {
      "Command": "verifyText",
      "Target": "//div/b/span",
      "Value": "Risk Alerts"
    },
    {
      "Command": "type",
      "Target": "id=ctl00_ContentPlaceHolder1_tc_tabRiskAlerts_RiskAlerts1_txtFilter",
      "Value": "RA_Title (1)"
    },
    {
      "Command": "pause",
      "Target": "2000",
      "Value": ""
    },
    {
      "Command": "verifyText",
      "Target": "xpath=//span[contains(.,'RA_Title (1) (QA_11)')]",
      "Value": "RA_Title (1) (QA_11)"
    },
    {
      "Command": "click",
      "Target": "xpath=//span[contains(.,'RA_Title (1) (QA_11)')]",
      "Value": "RA_Title (1) (QA_11)"
    },
    {
      "Command": "pause",
      "Target": "3000",
      "Value": ""
    },
    {
      "Command": "click",
      "Target": "//td/div/table/tbody/tr/td[2]/input",
      "Value": "Edit"
    },
    {
      "Command": "pause",
      "Target": "3000",
      "Value": ""
    },
    {
      "Command": "type",
      "Target": "//div/fieldset/div/table/tbody/tr/td[2]/input",
      "Value": "RA_Title_updated"
    },
    {
      "Command": "type",
      "Target": "//textarea",
      "Value": "RA_Description_updated"
    },
    {
      "Command": "click",
      "Target": "//td/div/table/tbody/tr/td[3]/input",
      "Value": "Save"
    },
    {
      "Command": "pause",
      "Target": "8000",
      "Value": ""
    },
    {
      "Command": "verifyText",
      "Target": "xpath=//*[@id=\"ctl00_ContentPlaceHolder1_tc_tabRiskAlerts_RiskAlerts1_MessageBox1_MessagePanel\"]/div/center/table",
      "Value": "Save Successful!"
    },
    {
      "Command": "click",
      "Target": "id=ctl00_ContentPlaceHolder1_tc_tabRiskAlerts_RiskAlerts1_MessageBox1_MessageOK",
      "Value": "Ok"
    },
    {
      "Command": "click",
      "Target": "//a",
      "Value": ""
    },
    {
      "Command": "pause",
      "Target": "2000",
      "Value": ""
    },
    {
      "Command": "selectWindow",
      "Target": "TAB=CLOSEALLOTHER",
      "Value": ""
    },
    {
      "Command": "refresh",
      "Target": "",
      "Value": ""
    }
  ]
}