{
  "Name": "_vqa_A_MU_13_change role admin to Analyst",
  "CreationDate": "2020-4-21",
  "Commands": [
    {
      "Command": "open",
      "Target": "https://10.200.225.14/VSSQA",
      "Value": ""
    },
    {
      "Command": "pause",
      "Target": "2000",
      "Value": ""
    },
    {
      "Command": "type",
      "Target": "//td[2]/input",
      "Value": "QA_11"
    },
    {
      "Command": "type",
      "Target": "//tr[2]/td[2]/input",
      "Value": ".vss@2019"
    },
    {
      "Command": "click",
      "Target": "//tr[4]/td/input",
      "Value": "Log In"
    },
    {
      "Command": "pause",
      "Target": "4000",
      "Value": ""
    },
    {
      "Command": "mouseOver",
      "Target": "xpath=(//a[contains(@href, '#a')])[5]",
      "Value": "Administration"
    },
    {
      "Command": "mouseOver",
      "Target": "//a[contains(@href, 'javascript:void(0)')]",
      "Value": "Security"
    },
    {
      "Command": "click",
      "Target": "//a[contains(text(),'Manage Users')]",
      "Value": "Manage Users"
    },
    {
      "Command": "pause",
      "Target": "3000",
      "Value": ""
    },
    {
      "Command": "selectWindow",
      "Target": "TAB=1",
      "Value": ""
    },
    {
      "Command": "verifyText",
      "Target": "//table[@id='ctl00_ContentPlaceHolder1_Users']/tbody/tr[2]/td[3]",
      "Value": "00_Script_User_ Full_Name_1_Updated"
    },
    {
      "Command": "click",
      "Target": "//a[contains(text(),'00_Script_User_B')]",
      "Value": "00_Script_User_B"
    },
    {
      "Command": "pause",
      "Target": "3000",
      "Value": ""
    },
    {
      "Command": "selectWindow",
      "Target": "TAB=2",
      "Value": ""
    },
    {
      "Command": "click",
      "Target": "//td[@id='ctl00_ContentPlaceHolder1_tdEdit']/input",
      "Value": "Edit"
    },
    {
      "Command": "pause",
      "Target": "1000",
      "Value": ""
    },
    {
      "Command": "click",
      "Target": "xpath=(//label[text()='Administrator'])",
      "Value": "Administrator"
    },
    {
      "Command": "click",
      "Target": "xpath=(//label[text()='Analyst'])",
      "Value": "Analyst"
    },
    {
      "Command": "click",
      "Target": "//td[@id='ctl00_ContentPlaceHolder1_tdUpdate']/input",
      "Value": "Save"
    },
    {
      "Command": "pause",
      "Target": "1000",
      "Value": ""
    },
    {
      "Command": "verifyText",
      "Target": "//div[@id='ctl00_ContentPlaceHolder1_MessageBox1_MessageAllignment']/span",
      "Value": "Save Successful!"
    },
    {
      "Command": "click",
      "Target": "//div[@id='ctl00_ContentPlaceHolder1_MessageBox1_MessagePanel']/div/center/div/input",
      "Value": "Ok"
    },
    {
      "Command": "click",
      "Target": "//a",
      "Value": ""
    },
    {
      "Command": "pause",
      "Target": "2000",
      "Value": ""
    },
    {
      "Command": "selectWindow",
      "Target": "TAB=CLOSEALLOTHER",
      "Value": ""
    },
    {
      "Command": "open",
      "Target": "https://10.200.225.14/VSSQA/Tools/UserSettings.aspx",
      "Value": ""
    },
    {
      "Command": "pause",
      "Target": "2000",
      "Value": ""
    },
    {
      "Command": "type",
      "Target": "//div[@id='loginbox']/div/table/tbody/tr/td[2]/input",
      "Value": "00_Script_User_B"
    },
    {
      "Command": "type",
      "Target": "//div[@id='loginbox']/div/table/tbody/tr[2]/td[2]/input",
      "Value": ".vss@2019"
    },
    {
      "Command": "click",
      "Target": "//tr[4]/td/input",
      "Value": "Log In"
    },
    {
      "Command": "pause",
      "Target": "9000",
      "Value": ""
    },
    {
      "Command": "verifyElementPresent",
      "Target": "xpath=//span[contains(.,'Analyst')]",
      "Value": "Analyst"
    },
    {
      "Command": "click",
      "Target": "//a[contains(text(),'Logout')]",
      "Value": ""
    },
    {
      "Command": "pause",
      "Target": "2000",
      "Value": ""
    },
    {
      "Command": "selectWindow",
      "Target": "TAB=CLOSEALLOTHER",
      "Value": ""
    },
    {
      "Command": "refresh",
      "Target": "",
      "Value": ""
    }
  ]
}