{
  "Name": "_vqa_VD_32_OH_ClassSociety",
  "CreationDate": "2020-4-21",
  "Commands": [
    {
      "Command": "open",
      "Target": "https://10.200.225.14/VSSQA/Vessels/VesselDetails.aspx?imo=1000124&A_Src=_Vessel_Data_Viewer",
      "Value": ""
    },
    {
      "Command": "pause",
      "Target": "1000",
      "Value": ""
    },
    {
      "Command": "type",
      "Target": "//td[2]/input",
      "Value": "QA_11"
    },
    {
      "Command": "type",
      "Target": "//tr[2]/td[2]/input",
      "Value": ".vss@2019"
    },
    {
      "Command": "click",
      "Target": "//tr[4]/td/input",
      "Value": "Log In"
    },
    {
      "Command": "pause",
      "Target": "6000",
      "Value": ""
    },
    {
      "Command": "verifyText",
      "Target": "xpath=//*[@id=\"__tab_ctl00_ContentPlaceHolder1_OtherHistory1_TabContainer1_tpClass\"]/span",
      "Value": "Class Society"
    },
    {
      "Command": "click",
      "Target": "id=__tab_ctl00_ContentPlaceHolder1_OtherHistory1_TabContainer1_tpClass",
      "Value": "Class Society"
    },
    {
      "Command": "pause",
      "Target": "2000",
      "Value": ""
    },
    {
      "Command": "verifyText",
      "Target": "xpath=//*[@id=\"ctl00_ContentPlaceHolder1_OtherHistory1_TabContainer1_tpClass_ClassHistory1_grid\"]/tbody/tr[1]/th[1]",
      "Value": "Class Society"
    },
    {
      "Command": "verifyText",
      "Target": "xpath=//*[@id=\"ctl00_ContentPlaceHolder1_OtherHistory1_TabContainer1_tpClass_ClassHistory1_grid\"]/tbody/tr[2]/td[1]",
      "Value": "Registro Italiano Navale"
    },
    {
      "Command": "verifyText",
      "Target": "xpath=//*[@id=\"ctl00_ContentPlaceHolder1_OtherHistory1_TabContainer1_tpClass_ClassHistory1_grid\"]/tbody/tr[1]/th[2]",
      "Value": "Class Indicator"
    },
    {
      "Command": "verifyText",
      "Target": "xpath=//*[@id=\"ctl00_ContentPlaceHolder1_OtherHistory1_TabContainer1_tpClass_ClassHistory1_grid\"]/tbody/tr[2]/td[2]",
      "Value": "Classed"
    },
    {
      "Command": "verifyText",
      "Target": "xpath=//*[@id=\"ctl00_ContentPlaceHolder1_OtherHistory1_TabContainer1_tpClass_ClassHistory1_grid\"]/tbody/tr[1]/th[3]",
      "Value": "Class Code"
    },
    {
      "Command": "verifyText",
      "Target": "xpath=//*[@id=\"ctl00_ContentPlaceHolder1_OtherHistory1_TabContainer1_tpClass_ClassHistory1_grid\"]/tbody/tr[2]/td[3]",
      "Value": "RI"
    },
    {
      "Command": "verifyText",
      "Target": "xpath=//*[@id=\"ctl00_ContentPlaceHolder1_OtherHistory1_TabContainer1_tpClass_ClassHistory1_grid\"]/tbody/tr[1]/th[4]",
      "Value": "Class ID"
    },
    {
      "Command": "verifyText",
      "Target": "xpath=//*[@id=\"ctl00_ContentPlaceHolder1_OtherHistory1_TabContainer1_tpClass_ClassHistory1_grid\"]/tbody/tr[2]/td[4]",
      "Value": "76200"
    },
    {
      "Command": "verifyText",
      "Target": "xpath=//*[@id=\"ctl00_ContentPlaceHolder1_OtherHistory1_TabContainer1_tpClass_ClassHistory1_grid\"]/tbody/tr[1]/th[5]",
      "Value": "Current Indicator"
    },
    {
      "Command": "verifyText",
      "Target": "xpath=//*[@id=\"ctl00_ContentPlaceHolder1_OtherHistory1_TabContainer1_tpClass_ClassHistory1_grid\"]/tbody/tr[2]/td[5]",
      "Value": "Current"
    },
    {
      "Command": "verifyText",
      "Target": "xpath=//*[@id=\"ctl00_ContentPlaceHolder1_OtherHistory1_TabContainer1_tpClass_ClassHistory1_grid\"]/tbody/tr[1]/th[6]",
      "Value": "Effective Date"
    },
    {
      "Command": "verifyText",
      "Target": "xpath=//*[@id=\"ctl00_ContentPlaceHolder1_OtherHistory1_TabContainer1_tpClass_ClassHistory1_grid\"]/tbody/tr[2]/td[6]",
      "Value": "01/01/2010"
    },
    {
      "Command": "click",
      "Target": "//a[contains(text(),'Logout')]",
      "Value": ""
    },
    {
      "Command": "pause",
      "Target": "2000",
      "Value": ""
    },
    {
      "Command": "refresh",
      "Target": "",
      "Value": ""
    }
  ]
}