{
  "Name": "_vqa_LP_6_delete user",
  "CreationDate": "2020-4-21",
  "Commands": [
    {
      "Command": "open",
      "Target": "https://10.200.225.14/VSSQA",
      "Value": ""
    },
    {
      "Command": "pause",
      "Target": "1000",
      "Value": ""
    },
    {
      "Command": "type",
      "Target": "//td[2]/input",
      "Value": "sgupta"
    },
    {
      "Command": "type",
      "Target": "//tr[2]/td[2]/input",
      "Value": "Welcome1!"
    },
    {
      "Command": "comment",
      "Target": "//tr[2]/td[2]/input",
      "Value": "password1!"
    },
    {
      "Command": "click",
      "Target": "//tr[4]/td/input",
      "Value": "Log In"
    },
    {
      "Command": "pause",
      "Target": "18000",
      "Value": ""
    },
    {
      "Command": "mouseOver",
      "Target": "xpath=(//a[contains(@href, '#a')])[5]",
      "Value": "Administration"
    },
    {
      "Command": "mouseOver",
      "Target": "//a[contains(@href, 'javascript:void(0)')]",
      "Value": "Security"
    },
    {
      "Command": "click",
      "Target": "//a[contains(text(),'Manage Users')]",
      "Value": "Manage Users"
    },
    {
      "Command": "pause",
      "Target": "4000",
      "Value": ""
    },
    {
      "Command": "selectWindow",
      "Target": "TAB=1",
      "Value": ""
    },
    {
      "Command": "click",
      "Target": "//a[contains(text(),'00_Script_User_C')]",
      "Value": "00_Script_User_C"
    },
    {
      "Command": "pause",
      "Target": "4000",
      "Value": ""
    },
    {
      "Command": "selectWindow",
      "Target": "TAB=2",
      "Value": ""
    },
    {
      "Command": "click",
      "Target": "//div[@id='ctl00_ContentPlaceHolder1_divToolbar']/table/tbody/tr/td[3]/input",
      "Value": "Delete"
    },
    {
      "Command": "pause",
      "Target": "2000",
      "Value": ""
    },
    {
      "Command": "verifyText",
      "Target": "//div[@id='ctl00_ContentPlaceHolder1_QuestionBox1_MessagePanel']/div/center/table/tbody/tr/td[2]/span",
      "Value": "Are you sure you want to delete?"
    },
    {
      "Command": "click",
      "Target": "//div[@id='ctl00_ContentPlaceHolder1_QuestionBox1_MessagePanel']/div/center/div/input",
      "Value": "Yes"
    },
    {
      "Command": "pause",
      "Target": "12000",
      "Value": ""
    },
    {
      "Command": "click",
      "Target": "//a",
      "Value": ""
    },
    {
      "Command": "pause",
      "Target": "2000",
      "Value": ""
    },
    {
      "Command": "selectWindow",
      "Target": "TAB=CLOSEALLOTHER",
      "Value": ""
    }
  ]
}