{
  "Name": "_vqa_RM_5 delete just save as rm",
  "CreationDate": "2020-4-21",
  "Commands": [
    {
      "Command": "open",
      "Target": "https://10.200.225.14/VSSQA/Login.aspx",
      "Value": ""
    },
    {
      "Command": "pause",
      "Target": "1000",
      "Value": ""
    },
    {
      "Command": "type",
      "Target": "//td[2]/input",
      "Value": "QA_11"
    },
    {
      "Command": "type",
      "Target": "//tr[2]/td[2]/input",
      "Value": ".vss@2019"
    },
    {
      "Command": "click",
      "Target": "id=ctl00_ContentPlaceHolder1_loginBtn",
      "Value": "Log In"
    },
    {
      "Command": "pause",
      "Target": "9000",
      "Value": ""
    },
    {
      "Command": "mouseOver",
      "Target": "xpath=//*[@id=\"menubar\"]/ul/li[5]/a",
      "Value": "Administration"
    },
    {
      "Command": "mouseOver",
      "Target": "xpath=//*[@id=\"menubar\"]/ul/li[5]/ul/li[1]/a",
      "Value": "Security"
    },
    {
      "Command": "click",
      "Target": "link=Manage Roles",
      "Value": ""
    },
    {
      "Command": "pause",
      "Target": "5000",
      "Value": ""
    },
    {
      "Command": "selectWindow",
      "Target": "tab=1",
      "Value": ""
    },
    {
      "Command": "verifyText",
      "Target": "xpath=(//td[text()[contains(.,'_all_not_allowed_updated (1)')]])",
      "Value": "z_all_not_allowed_updated (1)"
    },
    {
      "Command": "click",
      "Target": "xpath=(//td[text()[contains(.,'_all_not_allowed_updated (1)')]])",
      "Value": "z_all_not_allowed_updated (1)"
    },
    {
      "Command": "pause",
      "Target": "5000",
      "Value": ""
    },
    {
      "Command": "click",
      "Target": "id=ctl00_ContentPlaceHolder1_actionMenu_btnDelete",
      "Value": "Delete"
    },
    {
      "Command": "pause",
      "Target": "9000",
      "Value": ""
    },
    {
      "Command": "verifyElementPresent",
      "Target": "//div[@id='ctl00_ContentPlaceHolder1_DialogBox1_MessagePanel']/div/center/table/tbody/tr/td[2]/span",
      "Value": "Are you sure you want to delete?[_all_not_allowed_updated (1)]"
    },
    {
      "Command": "click",
      "Target": "id=ctl00_ContentPlaceHolder1_DialogBox1_MessageOK",
      "Value": "Yes"
    },
    {
      "Command": "pause",
      "Target": "2000",
      "Value": ""
    },
    {
      "Command": "verifyText",
      "Target": "id=ctl00_ContentPlaceHolder1_MessageBox1_lblMessage",
      "Value": "Delete Successful!"
    },
    {
      "Command": "click",
      "Target": "id=ctl00_ContentPlaceHolder1_MessageBox1_MessageOK",
      "Value": "Ok"
    },
    {
      "Command": "click",
      "Target": "link=Logout",
      "Value": ""
    },
    {
      "Command": "pause",
      "Target": "2000",
      "Value": ""
    },
    {
      "Command": "selectWindow",
      "Target": "TAB=CLOSEALLOTHER",
      "Value": ""
    },
    {
      "Command": "refresh",
      "Target": "",
      "Value": ""
    }
  ]
}