{
  "Name": "_vqa_DV_C_08_edit notes on company details page",
  "CreationDate": "2020-4-21",
  "Commands": [
    {
      "Command": "open",
      "Target": "https://10.200.225.14/VSSQA",
      "Value": ""
    },
    {
      "Command": "pause",
      "Target": "1000",
      "Value": ""
    },
    {
      "Command": "type",
      "Target": "//td[2]/input",
      "Value": "QA_11"
    },
    {
      "Command": "type",
      "Target": "//tr[2]/td[2]/input",
      "Value": ".vss@2019"
    },
    {
      "Command": "click",
      "Target": "//tr[4]/td/input",
      "Value": "Log In"
    },
    {
      "Command": "pause",
      "Target": "6000",
      "Value": ""
    },
    {
      "Command": "mouseOver",
      "Target": "xpath=//*[@id=\"menubar\"]/ul/li[2]/a",
      "Value": "Data Viewers"
    },
    {
      "Command": "click",
      "Target": "link=Companies",
      "Value": "Companies"
    },
    {
      "Command": "pause",
      "Target": "4000",
      "Value": ""
    },
    {
      "Command": "selectWindow",
      "Target": "TAB=1",
      "Value": ""
    },
    {
      "Command": "verifyText",
      "Target": "//div[@id='Title']/span",
      "Value": "Company Data Viewer"
    },
    {
      "Command": "type",
      "Target": "//div[@id='ctl00_ContentPlaceHolder1_UpdatePanel2']/input",
      "Value": "DELTA QUEEN STEAMBOAT CO INC"
    },
    {
      "Command": "pause",
      "Target": "2000",
      "Value": ""
    },
    {
      "Command": "verifyText",
      "Target": "//a[contains(@href, '../Vessels/MoreInfo.aspx?id=0801566&type=s&A_Src=_Company_Data_Viewer')]",
      "Value": "DELTA QUEEN STEAMBOAT CO INC"
    },
    {
      "Command": "click",
      "Target": "//a[contains(@href, '../Vessels/MoreInfo.aspx?id=0801566&type=s&A_Src=_Company_Data_Viewer')]",
      "Value": "DELTA QUEEN STEAMBOAT CO INC"
    },
    {
      "Command": "pause",
      "Target": "4000",
      "Value": ""
    },
    {
      "Command": "selectWindow",
      "Target": "TAB=2",
      "Value": ""
    },
    {
      "Command": "verifyText",
      "Target": "//div[@id='ctl00_ContentPlaceHolder1_panelVParty']/table/tbody/tr/td/fieldset/legend/span[2]",
      "Value": "DELTA QUEEN STEAMBOAT CO INC"
    },
    {
      "Command": "verifyText",
      "Target": "//div[@id='ctl00_ContentPlaceHolder1_Notes1_panelAddNote']/div/span",
      "Value": "Add Note"
    },
    {
      "Command": "verifyText",
      "Target": "//div[@id='ctl00_ContentPlaceHolder1_Notes1_gridNotes']/table/tbody/tr[3]/td[2]/span",
      "Value": "notes on company details page"
    },
    {
      "Command": "click",
      "Target": "//div[@id='ctl00_ContentPlaceHolder1_Notes1_gridNotes']/table/tbody/tr/td[5]/input",
      "Value": "Edit"
    },
    {
      "Command": "pause",
      "Target": "2000",
      "Value": ""
    },
    {
      "Command": "type",
      "Target": "//div[@id='ctl00_ContentPlaceHolder1_Notes1_editnote_1_divEdit']/div/table/tbody/tr/td[2]/textarea",
      "Value": "edit and update notes on company details page"
    },
    {
      "Command": "click",
      "Target": "//div[@id='ctl00_ContentPlaceHolder1_Notes1_editnote_1_divEdit']/div/table/tbody/tr[3]/td[2]/div/table/tbody/tr/td/input",
      "Value": "Save"
    },
    {
      "Command": "pause",
      "Target": "4000",
      "Value": ""
    },
    {
      "Command": "click",
      "Target": "//a",
      "Value": ""
    },
    {
      "Command": "pause",
      "Target": "4000",
      "Value": ""
    },
    {
      "Command": "selectWindow",
      "Target": "TAB=CLOSEALLOTHER",
      "Value": ""
    }
  ]
}