{
  "Name": "_vqa_UL_03_save as UL",
  "CreationDate": "2020-4-21",
  "Commands": [
    {
      "Command": "open",
      "Target": "https://10.200.225.14/VSSQA",
      "Value": ""
    },
    {
      "Command": "pause",
      "Target": "1000",
      "Value": ""
    },
    {
      "Command": "type",
      "Target": "//td[2]/input",
      "Value": "QA_11"
    },
    {
      "Command": "type",
      "Target": "//tr[2]/td[2]/input",
      "Value": ".vss@2019"
    },
    {
      "Command": "click",
      "Target": "//tr[4]/td/input",
      "Value": "Log In"
    },
    {
      "Command": "pause",
      "Target": "6000",
      "Value": ""
    },
    {
      "Command": "mouseOver",
      "Target": "//div[@id='menubar']/ul/li[6]/a",
      "Value": "Tools"
    },
    {
      "Command": "click",
      "Target": "link=User Lists",
      "Value": "User Lists"
    },
    {
      "Command": "pause",
      "Target": "8000",
      "Value": ""
    },
    {
      "Command": "selectWindow",
      "Target": "tab=1",
      "Value": ""
    },
    {
      "Command": "verifyText",
      "Target": "//div/div/label",
      "Value": "User Lists"
    },
    {
      "Command": "type",
      "Target": "//div[@id='DivTitle']/table/tbody/tr/td[2]/input",
      "Value": "UL_Title"
    },
    {
      "Command": "pause",
      "Target": "1000",
      "Value": ""
    },
    {
      "Command": "verifyText",
      "Target": "//*[text()[contains(.,'UL_Title')]]",
      "Value": "UL_Title"
    },
    {
      "Command": "click",
      "Target": "//*[text()[contains(.,'UL_Title')]]",
      "Value": "UL_Title"
    },
    {
      "Command": "pause",
      "Target": "1000",
      "Value": ""
    },
    {
      "Command": "verifyElementPresent",
      "Target": "//fieldset[@id='fieldset_body_detail']/table/tbody/tr/td/table/tbody/tr/td[2]/input",
      "Value": " UL_Title"
    },
    {
      "Command": "click",
      "Target": "//fieldset[@id='fieldset_body_detail']/legend/div/table/tbody/tr/td[2]/img",
      "Value": "Save as"
    },
    {
      "Command": "pause",
      "Target": "2000",
      "Value": ""
    },
    {
      "Command": "verifyText",
      "Target": "//div[@id='MessagePanel']/div/center/table/tbody/tr/td[2]/div/span",
      "Value": "Save Successful!"
    },
    {
      "Command": "click",
      "Target": "//div[2]/div/div/center/div/input",
      "Value": "Ok"
    },
    {
      "Command": "pause",
      "Target": "2000",
      "Value": ""
    },
    {
      "Command": "click",
      "Target": "//a[contains(text(),'Logout')]",
      "Value": ""
    },
    {
      "Command": "pause",
      "Target": "2000",
      "Value": ""
    },
    {
      "Command": "selectWindow",
      "Target": "TAB=CLOSEALLOTHER",
      "Value": ""
    }
  ]
}