{
  "Name": "_vqa_ES_06_delete save as extract",
  "CreationDate": "2020-4-21",
  "Commands": [
    {
      "Command": "open",
      "Target": "https://10.200.225.14/VSSQA/",
      "Value": ""
    },
    {
      "Command": "type",
      "Target": "//td[2]/input",
      "Value": "QA_11"
    },
    {
      "Command": "type",
      "Target": "//tr[2]/td[2]/input",
      "Value": ".vss@2019"
    },
    {
      "Command": "click",
      "Target": "//tr[4]/td/input",
      "Value": "Log In"
    },
    {
      "Command": "pause",
      "Target": "6000",
      "Value": ""
    },
    {
      "Command": "mouseOver",
      "Target": "//div/ul/li[6]/a",
      "Value": "Tools"
    },
    {
      "Command": "click",
      "Target": "link=Extract Settings",
      "Value": "Extract Settings"
    },
    {
      "Command": "pause",
      "Target": "4000",
      "Value": ""
    },
    {
      "Command": "selectWindow",
      "Target": "TAB=1",
      "Value": ""
    },
    {
      "Command": "verifyText",
      "Target": "//*[text()[contains(.,'*New_shipment_csv (1)')]]",
      "Value": "*New_shipment_csv (1)"
    },
    {
      "Command": "click",
      "Target": "//*[text()[contains(.,'*New_shipment_csv (1)')]]",
      "Value": "*New_shipment_csv (1)"
    },
    {
      "Command": "pause",
      "Target": "2000",
      "Value": ""
    },
    {
      "Command": "verifyElementPresent",
      "Target": "id=ctl00_ContentPlaceHolder1_tc_tabDetails_txtExtractName",
      "Value": "*New_shipment_csv (1)"
    },
    {
      "Command": "click",
      "Target": "//td[6]/input",
      "Value": ""
    },
    {
      "Command": "pause",
      "Target": "2000",
      "Value": ""
    },
    {
      "Command": "verifyText",
      "Target": "//td[2]/span/span",
      "Value": "Are you sure you want to delete?"
    },
    {
      "Command": "click",
      "Target": "//div[4]/div[2]/div/center/div/input",
      "Value": "Yes"
    },
    {
      "Command": "pause",
      "Target": "3000",
      "Value": ""
    },
    {
      "Command": "verifyText",
      "Target": "//div[4]/div/div/center/table/tbody/tr/td[2]/div/span",
      "Value": "Delete Successful!"
    },
    {
      "Command": "click",
      "Target": "//div[4]/div/div/center/div/input",
      "Value": "Ok"
    },
    {
      "Command": "click",
      "Target": "//a",
      "Value": ""
    },
    {
      "Command": "pause",
      "Target": "6000",
      "Value": ""
    },
    {
      "Command": "selectWindow",
      "Target": "TAB=CLOSEALLOTHER",
      "Value": ""
    },
    {
      "Command": "refresh",
      "Target": "",
      "Value": ""
    }
  ]
}