{
  "Name": "_vqa_LP_4_forgot Pass",
  "CreationDate": "2020-4-21",
  "Commands": [
    {
      "Command": "open",
      "Target": "https://10.200.225.14/VSSQA",
      "Value": ""
    },
    {
      "Command": "pause",
      "Target": "1000",
      "Value": ""
    },
    {
      "Command": "click",
      "Target": "id=ctl00_ContentPlaceHolder1_Label6",
      "Value": "Password"
    },
    {
      "Command": "click",
      "Target": "id=ctl00_ContentPlaceHolder1_SendPWBtn",
      "Value": "Ok"
    },
    {
      "Command": "pause",
      "Target": "1000",
      "Value": ""
    },
    {
      "Command": "verifyText",
      "Target": "id=ctl00_ContentPlaceHolder1_ForgotPWWizard_ForgotPWErrorLabel",
      "Value": "No user name was entered."
    },
    {
      "Command": "click",
      "Target": "id=ctl00_ContentPlaceHolder1_CancelPassBtn",
      "Value": ""
    },
    {
      "Command": "pause",
      "Target": "2000",
      "Value": ""
    },
    {
      "Command": "click",
      "Target": "id=ctl00_ContentPlaceHolder1_Label6",
      "Value": "Password"
    },
    {
      "Command": "type",
      "Target": "id=ctl00_ContentPlaceHolder1_ForgotPWWizard_ForgotPWBox",
      "Value": "123"
    },
    {
      "Command": "click",
      "Target": "id=ctl00_ContentPlaceHolder1_SendPWBtn",
      "Value": "Ok"
    },
    {
      "Command": "pause",
      "Target": "1000",
      "Value": ""
    },
    {
      "Command": "verifyText",
      "Target": "id=ctl00_ContentPlaceHolder1_ForgotPWWizard_ForgotPWConfirmLabel",
      "Value": "A new password has been sent to the registered e-mail address."
    },
    {
      "Command": "click",
      "Target": "id=ctl00_ContentPlaceHolder1_SendPWBtn",
      "Value": "Ok"
    },
    {
      "Command": "pause",
      "Target": "1000",
      "Value": ""
    },
    {
      "Command": "click",
      "Target": "id=ctl00_ContentPlaceHolder1_Label6",
      "Value": "Password"
    },
    {
      "Command": "type",
      "Target": "id=ctl00_ContentPlaceHolder1_ForgotPWWizard_ForgotPWBox",
      "Value": "00_Script_User_C"
    },
    {
      "Command": "click",
      "Target": "id=ctl00_ContentPlaceHolder1_SendPWBtn",
      "Value": "Ok"
    },
    {
      "Command": "pause",
      "Target": "1000",
      "Value": ""
    },
    {
      "Command": "verifyText",
      "Target": "id=ctl00_ContentPlaceHolder1_ForgotPWWizard_ForgotPWConfirmLabel",
      "Value": "A new password has been sent to the registered e-mail address."
    },
    {
      "Command": "click",
      "Target": "id=ctl00_ContentPlaceHolder1_SendPWBtn",
      "Value": "Ok"
    },
    {
      "Command": "pause",
      "Target": "1000",
      "Value": ""
    }
  ]
}