{
  "Name": "_vqa_UMS_20_LC_OverlayLayerKml_selectionBoxes",
  "CreationDate": "2020-4-21",
  "Commands": [
    {
      "Command": "open",
      "Target": "https://10.200.225.14/VSSQA/Tools/UMS.aspx",
      "Value": ""
    },
    {
      "Command": "pause",
      "Target": "1000",
      "Value": ""
    },
    {
      "Command": "type",
      "Target": "//td[2]/input",
      "Value": "qa10@पीएई.कॉम"
    },
    {
      "Command": "type",
      "Target": "//tr[2]/td[2]/input",
      "Value": "planet.ten@gmail.com10"
    },
    {
      "Command": "click",
      "Target": "//tr[4]/td/input",
      "Value": "Log In"
    },
    {
      "Command": "pause",
      "Target": "15000",
      "Value": ""
    },
    {
      "Command": "verifyText",
      "Target": "id=ctl00_ContentPlaceHolder1__User_Map_Settings",
      "Value": "User Map Settings"
    },
    {
      "Command": "verifyText",
      "Target": "//a[@id='__tab_ctl00_ContentPlaceHolder1_tc_tabConfiguration']/span",
      "Value": "Layer Configuration"
    },
    {
      "Command": "click",
      "Target": "//a[@id='__tab_ctl00_ContentPlaceHolder1_tc_tabConfiguration']/span",
      "Value": "Layer Configuration"
    },
    {
      "Command": "pause",
      "Target": "1000",
      "Value": ""
    },
    {
      "Command": "click",
      "Target": "//div[@id='ctl00_ContentPlaceHolder1_tc_tabConfiguration_actionMenu_divToolbar']/table/tbody/tr/td/input",
      "Value": "New"
    },
    {
      "Command": "pause",
      "Target": "4000",
      "Value": ""
    },
    {
      "Command": "type",
      "Target": "id=ctl00_ContentPlaceHolder1_tc_tabConfiguration_txtTitle",
      "Value": "*QA_test"
    },
    {
      "Command": "pause",
      "Target": "2000",
      "Value": ""
    },
    {
      "Command": "type",
      "Target": "id=ctl00_ContentPlaceHolder1_tc_tabConfiguration_txtDescription",
      "Value": "_QA test description of LayerConfiguration_OverlayLayerKml"
    },
    {
      "Command": "pause",
      "Target": "2000",
      "Value": ""
    },
    {
      "Command": "select",
      "Target": "id=ctl00_ContentPlaceHolder1_tc_tabConfiguration_ddlOverlayType",
      "Value": "label=Overlay Layer (KML Import)"
    },
    {
      "Command": "pause",
      "Target": "2000",
      "Value": ""
    },
    {
      "Command": "type",
      "Target": "xpath=//*[@id=\"ctl00_ContentPlaceHolder1_tc_tabConfiguration_KMLUpload\"]",
      "Value": "F:\\bugs\\222.214\\DATA_SHIP\\37162-USGS_Stream_Gages.kml"
    },
    {
      "Command": "pause",
      "Target": "4000",
      "Value": ""
    },
    {
      "Command": "click",
      "Target": "xpath=//*[@id=\"ctl00_ContentPlaceHolder1_tc_tabConfiguration_btnVerify\"]",
      "Value": "Upload"
    },
    {
      "Command": "pause",
      "Target": "15000",
      "Value": ""
    },
    {
      "Command": "click",
      "Target": "id=ctl00_ContentPlaceHolder1_tc_tabConfiguration_actionMenu_btnSave",
      "Value": "Save"
    },
    {
      "Command": "pause",
      "Target": "5000",
      "Value": ""
    },
    {
      "Command": "verifyText",
      "Target": "//div[@id='ctl00_ContentPlaceHolder1_MessageBox1_MessageAllignment']/span",
      "Value": "Layer added"
    },
    {
      "Command": "click",
      "Target": "id=ctl00_ContentPlaceHolder1_MessageBox1_MessageOK",
      "Value": "Ok"
    },
    {
      "Command": "pause",
      "Target": "2000",
      "Value": ""
    },
    {
      "Command": "refresh",
      "Target": "",
      "Value": ""
    },
    {
      "Command": "pause",
      "Target": "1000",
      "Value": ""
    },
    {
      "Command": "click",
      "Target": "//div[@id='ctl00_ContentPlaceHolder1_tc_tabConfiguration_actionMenu_divToolbar']/table/tbody/tr/td/input",
      "Value": "New"
    },
    {
      "Command": "pause",
      "Target": "4000",
      "Value": ""
    },
    {
      "Command": "click",
      "Target": "//div[@id='ctl00_ContentPlaceHolder1_tc_tabConfiguration_actionMenu_divToolbar']/table/tbody/tr/td/input",
      "Value": "New"
    },
    {
      "Command": "pause",
      "Target": "4000",
      "Value": ""
    },
    {
      "Command": "verifyText",
      "Target": "id=ctl00_ContentPlaceHolder1__User_Map_Settings",
      "Value": "User Map Settings"
    },
    {
      "Command": "click",
      "Target": "//a[@id='__tab_ctl00_ContentPlaceHolder1_tc_tabConfiguration']/span",
      "Value": "Layer Configuration"
    },
    {
      "Command": "verifyText",
      "Target": "xpath=(//td[text()[contains(.,'*QA_test')]])[1]",
      "Value": "*QA_test"
    },
    {
      "Command": "click",
      "Target": "xpath=(//td[text()[contains(.,'*QA_test')]])[1]",
      "Value": "*QA_test"
    },
    {
      "Command": "pause",
      "Target": "3000",
      "Value": ""
    },
    {
      "Command": "verifyElementPresent",
      "Target": "xpath=//*[@id=\"ctl00_ContentPlaceHolder1_tc_tabConfiguration_txtTitle\"]",
      "Value": "*QA_test"
    },
    {
      "Command": "click",
      "Target": "xpath=//*[@id=\"ctl00_ContentPlaceHolder1_tc_tabConfiguration_actionMenu_btnEdit\"]",
      "Value": "Edit"
    },
    {
      "Command": "pause",
      "Target": "3000",
      "Value": ""
    },
    {
      "Command": "type",
      "Target": "id=ctl00_ContentPlaceHolder1_tc_tabConfiguration_txtOpacity",
      "Value": "30"
    },
    {
      "Command": "pause",
      "Target": "4000",
      "Value": ""
    },
    {
      "Command": "click",
      "Target": "id=ctl00_ContentPlaceHolder1_tc_tabConfiguration_txtRefresh",
      "Value": ""
    },
    {
      "Command": "type",
      "Target": "id=ctl00_ContentPlaceHolder1_tc_tabConfiguration_txtRefresh",
      "Value": "10"
    },
    {
      "Command": "pause",
      "Target": "4000",
      "Value": ""
    },
    {
      "Command": "click",
      "Target": "id=ctl00_ContentPlaceHolder1_tc_tabConfiguration_CorePub_radioSubscriberType_0",
      "Value": "Team"
    },
    {
      "Command": "pause",
      "Target": "2000",
      "Value": ""
    },
    {
      "Command": "click",
      "Target": "id=ddlSubscriber",
      "Value": ""
    },
    {
      "Command": "pause",
      "Target": "2000",
      "Value": ""
    },
    {
      "Command": "select",
      "Target": "id=ddlSubscriber",
      "Value": "label=Analysts"
    },
    {
      "Command": "pause",
      "Target": "2000",
      "Value": ""
    },
    {
      "Command": "click",
      "Target": "id=ctl00_ContentPlaceHolder1_tc_tabConfiguration_CorePub_imgAdd",
      "Value": "Add"
    },
    {
      "Command": "pause",
      "Target": "4000",
      "Value": ""
    },
    {
      "Command": "click",
      "Target": "id=ctl00_ContentPlaceHolder1_tc_tabConfiguration_CorePub_radioSubscriberType_1",
      "Value": "User"
    },
    {
      "Command": "pause",
      "Target": "2000",
      "Value": ""
    },
    {
      "Command": "select",
      "Target": "id=ddlSubscriber",
      "Value": "label=QA_11_ Full_Name_1"
    },
    {
      "Command": "pause",
      "Target": "1000",
      "Value": ""
    },
    {
      "Command": "click",
      "Target": "id=checkEditRights",
      "Value": "Edit"
    },
    {
      "Command": "pause",
      "Target": "1000",
      "Value": ""
    },
    {
      "Command": "click",
      "Target": "id=ctl00_ContentPlaceHolder1_tc_tabConfiguration_CorePub_imgAdd",
      "Value": "Add"
    },
    {
      "Command": "pause",
      "Target": "4000",
      "Value": ""
    },
    {
      "Command": "click",
      "Target": "id=ctl00_ContentPlaceHolder1_tc_tabConfiguration_actionMenu_btnSave",
      "Value": "Save"
    },
    {
      "Command": "pause",
      "Target": "4000",
      "Value": ""
    },
    {
      "Command": "verifyText",
      "Target": "//div[@id='ctl00_ContentPlaceHolder1_MessageBox1_MessageAllignment']/span",
      "Value": "Layer updated"
    },
    {
      "Command": "click",
      "Target": "id=ctl00_ContentPlaceHolder1_MessageBox1_MessageOK",
      "Value": "Ok"
    },
    {
      "Command": "pause",
      "Target": "2000",
      "Value": ""
    },
    {
      "Command": "click",
      "Target": "//a",
      "Value": ""
    },
    {
      "Command": "pause",
      "Target": "2000",
      "Value": ""
    }
  ]
}