{
  "Name": "_vqa_UMS_17_LC_ExcludeFromML_to_system layer",
  "CreationDate": "2020-4-21",
  "Commands": [
    {
      "Command": "open",
      "Target": "https://10.200.225.14/VSSQA/Tools/UMS.aspx",
      "Value": ""
    },
    {
      "Command": "pause",
      "Target": "1000",
      "Value": ""
    },
    {
      "Command": "type",
      "Target": "//td[2]/input",
      "Value": "qa10@पीएई.कॉम"
    },
    {
      "Command": "type",
      "Target": "//tr[2]/td[2]/input",
      "Value": "planet.ten@gmail.com10"
    },
    {
      "Command": "click",
      "Target": "//tr[4]/td/input",
      "Value": "Log In"
    },
    {
      "Command": "pause",
      "Target": "9000",
      "Value": ""
    },
    {
      "Command": "verifyText",
      "Target": "id=ctl00_ContentPlaceHolder1__User_Map_Settings",
      "Value": "User Map Settings"
    },
    {
      "Command": "verifyText",
      "Target": "//a[@id='__tab_ctl00_ContentPlaceHolder1_tc_tabConfiguration']/span",
      "Value": "Layer Configuration"
    },
    {
      "Command": "click",
      "Target": "//a[@id='__tab_ctl00_ContentPlaceHolder1_tc_tabConfiguration']/span",
      "Value": "Layer Configuration"
    },
    {
      "Command": "click",
      "Target": "xpath=(//td[text()[contains(.,'*QA_test')]])[1]",
      "Value": "*QA_test"
    },
    {
      "Command": "pause",
      "Target": "4000",
      "Value": ""
    },
    {
      "Command": "verifyElementPresent",
      "Target": "xpath=//*[@id=\"ctl00_ContentPlaceHolder1_tc_tabConfiguration_txtTitle\"]",
      "Value": "*QA_test"
    },
    {
      "Command": "verifyElementPresent",
      "Target": "xpath=//*[@id=\"ctl00_ContentPlaceHolder1_tc_tabConfiguration_txtDescription\"]",
      "Value": "_QA test description"
    },
    {
      "Command": "click",
      "Target": "xpath=//*[@id=\"ctl00_ContentPlaceHolder1_tc_tabConfiguration_actionMenu_btnEdit\"]",
      "Value": "Edit"
    },
    {
      "Command": "pause",
      "Target": "4000",
      "Value": ""
    },
    {
      "Command": "verifyElementPresent",
      "Target": "xpath=//td[3]/table/tbody/tr/td",
      "Value": ""
    },
    {
      "Command": "click",
      "Target": "id=ctl00_ContentPlaceHolder1_tc_tabConfiguration_checkIncludeInMyLayers",
      "Value": ""
    },
    {
      "Command": "pause",
      "Target": "2000",
      "Value": ""
    },
    {
      "Command": "click",
      "Target": "id=ctl00_ContentPlaceHolder1_tc_tabConfiguration_checkSystemLayer",
      "Value": ""
    },
    {
      "Command": "pause",
      "Target": "2000",
      "Value": ""
    },
    {
      "Command": "click",
      "Target": "xpath=//td[3]/input",
      "Value": "Save"
    },
    {
      "Command": "pause",
      "Target": "3000",
      "Value": ""
    },
    {
      "Command": "verifyText",
      "Target": "//div[@id='ctl00_ContentPlaceHolder1_MessageBox1_MessageAllignment']/span",
      "Value": "Layer updated"
    },
    {
      "Command": "click",
      "Target": "id=ctl00_ContentPlaceHolder1_MessageBox1_MessageOK",
      "Value": "Ok"
    },
    {
      "Command": "pause",
      "Target": "3000",
      "Value": ""
    },
    {
      "Command": "click",
      "Target": "//a[contains(text(),'Logout')]",
      "Value": ""
    },
    {
      "Command": "pause",
      "Target": "3000",
      "Value": ""
    },
    {
      "Command": "refresh",
      "Target": "",
      "Value": ""
    }
  ]
}