{
  "Name": "_vqa_DV_C_16_searchByTextBoxPaginationHeader.jason",
  "CreationDate": "2020-4-21",
  "Commands": [
    {
      "Command": "open",
      "Target": "https://10.200.225.14/VSSQA",
      "Value": ""
    },
    {
      "Command": "pause",
      "Target": "1000",
      "Value": ""
    },
    {
      "Command": "type",
      "Target": "//td[2]/input",
      "Value": "QA_11"
    },
    {
      "Command": "type",
      "Target": "//tr[2]/td[2]/input",
      "Value": ".vss@2019"
    },
    {
      "Command": "click",
      "Target": "//tr[4]/td/input",
      "Value": "Log In"
    },
    {
      "Command": "pause",
      "Target": "6000",
      "Value": ""
    },
    {
      "Command": "mouseOver",
      "Target": "xpath=//*[@id=\"menubar\"]/ul/li[2]/a",
      "Value": "Data Viewers"
    },
    {
      "Command": "click",
      "Target": "link=Companies",
      "Value": "Companies"
    },
    {
      "Command": "pause",
      "Target": "4000",
      "Value": ""
    },
    {
      "Command": "selectWindow",
      "Target": "TAB=1",
      "Value": ""
    },
    {
      "Command": "verifyText",
      "Target": "//div[@id='Title']/span",
      "Value": "Company Data Viewer"
    },
    {
      "Command": "type",
      "Target": "//div[@id='ctl00_ContentPlaceHolder1_UpdatePanel2']/input",
      "Value": "Volga Shipyard"
    },
    {
      "Command": "pause",
      "Target": "2000",
      "Value": ""
    },
    {
      "Command": "verifyText",
      "Target": "linkText=Volga Shipyard",
      "Value": "Volga Shipyard"
    },
    {
      "Command": "click",
      "Target": "linkText=Volga Shipyard",
      "Value": "Volga Shipyard"
    },
    {
      "Command": "pause",
      "Target": "6000",
      "Value": ""
    },
    {
      "Command": "selectWindow",
      "Target": "TAB=2",
      "Value": ""
    },
    {
      "Command": "verifyText",
      "Target": "//div[@id='ctl00_ContentPlaceHolder1_panelVParty']/table/tbody/tr/td/fieldset/legend/span[2]",
      "Value": "Volga Shipyard"
    },
    {
      "Command": "pause",
      "Target": "1000",
      "Value": ""
    },
    {
      "Command": "selectWindow",
      "Target": "TAB=1",
      "Value": ""
    },
    {
      "Command": "click",
      "Target": "linkText=Clear",
      "Value": ""
    },
    {
      "Command": "pause",
      "Target": "2000",
      "Value": ""
    },
    {
      "Command": "type",
      "Target": "id=ctl00_ContentPlaceHolder1_txtCompanyCode",
      "Value": "RUS103050"
    },
    {
      "Command": "pause",
      "Target": "2000",
      "Value": ""
    },
    {
      "Command": "verifyText",
      "Target": "xpath=//*[@id=\"ctl00_ContentPlaceHolder1_CompanyData\"]/tbody/tr[2]/td[2]",
      "Value": "RUS103050"
    },
    {
      "Command": "click",
      "Target": "linkText=Clear",
      "Value": ""
    },
    {
      "Command": "pause",
      "Target": "2000",
      "Value": ""
    },
    {
      "Command": "type",
      "Target": "id=ctl00_ContentPlaceHolder1_txtPhoneNumber",
      "Value": "7 831 273 0823"
    },
    {
      "Command": "pause",
      "Target": "2000",
      "Value": ""
    },
    {
      "Command": "verifyText",
      "Target": "xpath=//*[@id=\"ctl00_ContentPlaceHolder1_CompanyData\"]/tbody/tr[2]/td[3]",
      "Value": "7 831 273 0823"
    },
    {
      "Command": "click",
      "Target": "linkText=Clear",
      "Value": ""
    },
    {
      "Command": "pause",
      "Target": "2000",
      "Value": ""
    },
    {
      "Command": "type",
      "Target": "id=ctl00_ContentPlaceHolder1_txtAddress",
      "Value": "ul Zavodskoy Park 37, 603950 Nizhny Novgorod"
    },
    {
      "Command": "pause",
      "Target": "2000",
      "Value": ""
    },
    {
      "Command": "verifyText",
      "Target": "xpath=//*[@id=\"ctl00_ContentPlaceHolder1_CompanyData\"]/tbody/tr[2]/td[4]",
      "Value": "ul Zavodskoy Park 37, 603950 Nizhny Novgorod"
    },
    {
      "Command": "click",
      "Target": "linkText=Clear",
      "Value": ""
    },
    {
      "Command": "pause",
      "Target": "1000",
      "Value": ""
    },
    {
      "Command": "type",
      "Target": "id=ctl00_ContentPlaceHolder1_txtCountry",
      "Value": "Russia"
    },
    {
      "Command": "pause",
      "Target": "2000",
      "Value": ""
    },
    {
      "Command": "verifyText",
      "Target": "xpath=//*[@id=\"ctl00_ContentPlaceHolder1_CompanyData\"]/tbody/tr[2]/td[5]",
      "Value": "Russia"
    },
    {
      "Command": "type",
      "Target": "id=ctl00_ContentPlaceHolder1_txtStatus",
      "Value": "Current"
    },
    {
      "Command": "pause",
      "Target": "2000",
      "Value": ""
    },
    {
      "Command": "verifyText",
      "Target": "xpath=//*[@id=\"ctl00_ContentPlaceHolder1_CompanyData\"]/tbody/tr[2]/td[6]",
      "Value": "Current"
    },
    {
      "Command": "click",
      "Target": "id=ctl00_ContentPlaceHolder1_CompanyData_ctl18__Next",
      "Value": ""
    },
    {
      "Command": "pause",
      "Target": "2000",
      "Value": ""
    },
    {
      "Command": "click",
      "Target": "linkText=Last >>",
      "Value": ""
    },
    {
      "Command": "pause",
      "Target": "2000",
      "Value": ""
    },
    {
      "Command": "click",
      "Target": "id=ctl00_ContentPlaceHolder1_CompanyData_ctl18__Prev",
      "Value": ""
    },
    {
      "Command": "pause",
      "Target": "2000",
      "Value": ""
    },
    {
      "Command": "click",
      "Target": "id=ctl00_ContentPlaceHolder1_CompanyData_ctl18__First",
      "Value": ""
    },
    {
      "Command": "pause",
      "Target": "2000",
      "Value": ""
    },
    {
      "Command": "click",
      "Target": "linkText=Name",
      "Value": ""
    },
    {
      "Command": "pause",
      "Target": "2000",
      "Value": ""
    },
    {
      "Command": "click",
      "Target": "linkText=Company Code",
      "Value": ""
    },
    {
      "Command": "pause",
      "Target": "2000",
      "Value": ""
    },
    {
      "Command": "click",
      "Target": "linkText=Phone Number",
      "Value": ""
    },
    {
      "Command": "pause",
      "Target": "2000",
      "Value": ""
    },
    {
      "Command": "click",
      "Target": "linkText=Address",
      "Value": ""
    },
    {
      "Command": "pause",
      "Target": "2000",
      "Value": ""
    },
    {
      "Command": "click",
      "Target": "linkText=Country",
      "Value": ""
    },
    {
      "Command": "pause",
      "Target": "2000",
      "Value": ""
    },
    {
      "Command": "click",
      "Target": "linkText=Status",
      "Value": ""
    },
    {
      "Command": "pause",
      "Target": "2000",
      "Value": ""
    },
    {
      "Command": "click",
      "Target": "//a",
      "Value": ""
    },
    {
      "Command": "pause",
      "Target": "3000",
      "Value": ""
    },
    {
      "Command": "selectWindow",
      "Target": "TAB=CLOSEALLOTHER",
      "Value": ""
    }
  ]
}