{
  "Name": "_vqa_RA_RAM_11  edit and update Manage Risk Categories in RAM",
  "CreationDate": "2020-4-21",
  "Commands": [
    {
      "Command": "open",
      "Target": "https://10.200.225.14/VSSQA",
      "Value": ""
    },
    {
      "Command": "pause",
      "Target": "1000",
      "Value": ""
    },
    {
      "Command": "type",
      "Target": "//td[2]/input",
      "Value": "QA_11"
    },
    {
      "Command": "type",
      "Target": "//tr[2]/td[2]/input",
      "Value": ".vss@2019"
    },
    {
      "Command": "click",
      "Target": "//tr[4]/td/input",
      "Value": "Log In"
    },
    {
      "Command": "pause",
      "Target": "5000",
      "Value": ""
    },
    {
      "Command": "mouseOver",
      "Target": "//div/ul/li[4]/a",
      "Value": "Risk Assessment"
    },
    {
      "Command": "click",
      "Target": "//li[4]/ul/li/a",
      "Value": "Manage Risk Assessment Models"
    },
    {
      "Command": "pause",
      "Target": "6000",
      "Value": ""
    },
    {
      "Command": "selectWindow",
      "Target": "TAB=1",
      "Value": ""
    },
    {
      "Command": "click",
      "Target": "//td/input",
      "Value": ""
    },
    {
      "Command": "type",
      "Target": "//td/input",
      "Value": "z_RAM_title"
    },
    {
      "Command": "pause",
      "Target": "2000",
      "Value": ""
    },
    {
      "Command": "verifyText",
      "Target": "xpath=(//td[text()[contains(.,'z_RAM_title')]])",
      "Value": "z_RAM_title"
    },
    {
      "Command": "click",
      "Target": "xpath=(//td[text()[contains(.,'z_RAM_title')]])",
      "Value": "z_RAM_title"
    },
    {
      "Command": "pause",
      "Target": "1000",
      "Value": ""
    },
    {
      "Command": "verifyText",
      "Target": "//li/div/span",
      "Value": "Manage Risk Categories"
    },
    {
      "Command": "click",
      "Target": "//li/div/span",
      "Value": ""
    },
    {
      "Command": "pause",
      "Target": "3000",
      "Value": ""
    },
    {
      "Command": "selectFrame",
      "Target": "id=frm",
      "Value": ""
    },
    {
      "Command": "verifyText",
      "Target": "//span",
      "Value": "Manage Risk Categories"
    },
    {
      "Command": "verifyText",
      "Target": "xpath=(//td[text()[contains(.,'f_TITLE_ Manage Risk Categories')]])",
      "Value": "f_TITLE_ Manage Risk Categories"
    },
    {
      "Command": "verifyText",
      "Target": "xpath=(//td[text()[contains(.,'f_DESCRIPTION_Manage Risk Categories')]])",
      "Value": "f_DESCRIPTION_Manage Risk Categories"
    },
    {
      "Command": "click",
      "Target": "xpath=(//td[text()[contains(.,'f_TITLE_ Manage Risk Categories')]])",
      "Value": "f_TITLE_ Manage Risk Categories"
    },
    {
      "Command": "pause",
      "Target": "1000",
      "Value": ""
    },
    {
      "Command": "click",
      "Target": "//td[2]/input",
      "Value": "Edit"
    },
    {
      "Command": "type",
      "Target": "//fieldset/div/table/tbody/tr/td[2]/input",
      "Value": "f_TITLE_ Manage Risk Categories_update"
    },
    {
      "Command": "type",
      "Target": "//textarea",
      "Value": "f_DESCRIPTION_Manage Risk Categories_update"
    },
    {
      "Command": "click",
      "Target": "//td[3]/input",
      "Value": "save"
    },
    {
      "Command": "pause",
      "Target": "2000",
      "Value": ""
    },
    {
      "Command": "verifyText",
      "Target": "//div/div/div/center/table/tbody/tr/td[2]/div/span",
      "Value": "Save Successful!"
    },
    {
      "Command": "click",
      "Target": "//fieldset/div/div/div/center/div/input",
      "Value": "Ok"
    },
    {
      "Command": "pause",
      "Target": "1000",
      "Value": ""
    },
    {
      "Command": "click",
      "Target": "//div[3]/div/center/table/tbody/tr/td/input",
      "Value": "Close"
    },
    {
      "Command": "selectFrame",
      "Target": "relative=top",
      "Value": ""
    },
    {
      "Command": "click",
      "Target": "//a",
      "Value": ""
    },
    {
      "Command": "pause",
      "Target": "2000",
      "Value": ""
    },
    {
      "Command": "selectWindow",
      "Target": "TAB=CLOSEALLOTHER",
      "Value": ""
    },
    {
      "Command": "refresh",
      "Target": "",
      "Value": ""
    }
  ]
}