{
  "Name": "_vqa_MISC011A_Auditing",
  "CreationDate": "2020-4-21",
  "Commands": [
    {
      "Command": "open",
      "Target": "https://10.200.225.14/VSSQA",
      "Value": ""
    },
    {
      "Command": "pause",
      "Target": "1000",
      "Value": ""
    },
    {
      "Command": "type",
      "Target": "//td[2]/input",
      "Value": "QA_11"
    },
    {
      "Command": "type",
      "Target": "//tr[2]/td[2]/input",
      "Value": ".vss@2019"
    },
    {
      "Command": "click",
      "Target": "//tr[4]/td/input",
      "Value": "Log In"
    },
    {
      "Command": "pause",
      "Target": "4000",
      "Value": ""
    },
    {
      "Command": "mouseOver",
      "Target": "//div/ul/li[5]/a",
      "Value": "Administration"
    },
    {
      "Command": "mouseOver",
      "Target": "//li[5]/ul/li/a",
      "Value": "Security"
    },
    {
      "Command": "verifyText",
      "Target": "//li[5]/ul/li/ul/li/a",
      "Value": "Administrator Settings"
    },
    {
      "Command": "click",
      "Target": "//li[5]/ul/li/ul/li/a",
      "Value": ""
    },
    {
      "Command": "pause",
      "Target": "2000",
      "Value": ""
    },
    {
      "Command": "selectWindow",
      "Target": "tab=1",
      "Value": ""
    },
    {
      "Command": "verifyText",
      "Target": "//div[3]/div/span",
      "Value": "Administrator Settings"
    },
    {
      "Command": "verifyText",
      "Target": "linkText=Auditing",
      "Value": "Auditing"
    },
    {
      "Command": "click",
      "Target": "linkText=Auditing",
      "Value": "Auditing"
    },
    {
      "Command": "pause",
      "Target": "2000",
      "Value": ""
    },
    {
      "Command": "verifyText",
      "Target": "xpath=//td[contains(.,'Audit Admin Settings')]",
      "Value": "Audit Admin Settings"
    },
    {
      "Command": "verifyValue",
      "Target": "xpath=//div[5]/table/tbody/tr/td[2]/span/input",
      "Value": "on"
    },
    {
      "Command": "verifyText",
      "Target": "xpath=//td[contains(.,'Audit AOR Manager')]",
      "Value": "Audit AOR Manager"
    },
    {
      "Command": "verifyValue",
      "Target": "//div[5]/table/tbody/tr[2]/td[2]/span/input",
      "Value": "on"
    },
    {
      "Command": "verifyText",
      "Target": "xpath=//td[contains(.,'Audit Contact List')]",
      "Value": "Audit Contact List"
    },
    {
      "Command": "verifyValue",
      "Target": "//div[5]/table/tbody/tr[3]/td[2]/span/input",
      "Value": "on"
    },
    {
      "Command": "verifyText",
      "Target": "xpath=//td[contains(.,'Audit Documents')]",
      "Value": "Audit Documents"
    },
    {
      "Command": "verifyValue",
      "Target": "//div[5]/table/tbody/tr[4]/td[2]/span/input",
      "Value": "on"
    },
    {
      "Command": "verifyText",
      "Target": "xpath=//td[contains(.,'Audit Extracts')]",
      "Value": "Audit Extracts"
    },
    {
      "Command": "verifyValue",
      "Target": "//div[5]/table/tbody/tr[5]/td[2]/span/input",
      "Value": "on"
    },
    {
      "Command": "verifyText",
      "Target": "xpath=//td[contains(.,'Audit Images')]",
      "Value": "Audit Images"
    },
    {
      "Command": "verifyValue",
      "Target": "//div[5]/table/tbody/tr[6]/td[2]/span/input",
      "Value": "on"
    },
    {
      "Command": "verifyText",
      "Target": "xpath=//td[contains(.,'Audit Notes')]",
      "Value": "Audit Notes"
    },
    {
      "Command": "verifyValue",
      "Target": "//div[5]/table/tbody/tr[7]/td[2]/span/input",
      "Value": "on"
    },
    {
      "Command": "verifyText",
      "Target": "xpath=//td[contains(.,'Audit Object Access')]",
      "Value": "Audit Object Access"
    },
    {
      "Command": "verifyValue",
      "Target": "//div[5]/table/tbody/tr[8]/td[2]/span/input",
      "Value": "on"
    },
    {
      "Command": "verifyText",
      "Target": "xpath=//td[contains(.,'Audit Page Level Activity')]",
      "Value": "Audit Page Level Activity"
    },
    {
      "Command": "verifyValue",
      "Target": "//div[5]/table/tbody/tr[9]/td[2]/span/input",
      "Value": "on"
    },
    {
      "Command": "verifyText",
      "Target": "xpath=//td[contains(.,'Audit RAM')]",
      "Value": "Audit RAM"
    },
    {
      "Command": "verifyValue",
      "Target": "//div[5]/table/tbody/tr[10]/td[2]/span/input",
      "Value": "on"
    },
    {
      "Command": "verifyText",
      "Target": "xpath=//td[contains(.,'Audit Reference Table')]",
      "Value": "Audit Reference Table"
    },
    {
      "Command": "verifyValue",
      "Target": "//div[5]/table/tbody/tr[11]/td[2]/span/input",
      "Value": "on"
    },
    {
      "Command": "verifyText",
      "Target": "xpath=//td[contains(.,'Audit Reports')]",
      "Value": "Audit Reports"
    },
    {
      "Command": "verifyValue",
      "Target": "//div[5]/table/tbody/tr[12]/td[2]/span/input",
      "Value": "on"
    },
    {
      "Command": "verifyText",
      "Target": "xpath=//td[contains(.,'Audit Risk Alerts')]",
      "Value": "Audit Risk Alerts"
    },
    {
      "Command": "verifyValue",
      "Target": "//div[5]/table/tbody/tr[13]/td[2]/span/input",
      "Value": "on"
    },
    {
      "Command": "verifyText",
      "Target": "xpath=//td[contains(.,'Audit Risk Reference List')]",
      "Value": "Audit Risk Reference List"
    },
    {
      "Command": "verifyValue",
      "Target": "//div[5]/table/tbody/tr[14]/td[2]/span/input",
      "Value": "on"
    },
    {
      "Command": "verifyText",
      "Target": "xpath=//td[contains(.,'Audit Role')]",
      "Value": "Audit Role"
    },
    {
      "Command": "verifyValue",
      "Target": "//div[5]/table/tbody/tr[15]/td[2]/span/input",
      "Value": "on"
    },
    {
      "Command": "verifyText",
      "Target": "xpath=//td[contains(.,'Audit Team')]",
      "Value": "Audit Team"
    },
    {
      "Command": "verifyValue",
      "Target": "//div[5]/table/tbody/tr[16]/td[2]/span/input",
      "Value": "on"
    },
    {
      "Command": "verifyText",
      "Target": "xpath=//td[contains(.,'Audit User')]",
      "Value": "Audit User"
    },
    {
      "Command": "verifyValue",
      "Target": "//div[5]/table/tbody/tr[17]/td[2]/span/input",
      "Value": "on"
    },
    {
      "Command": "verifyText",
      "Target": "xpath=//td[contains(.,'Audit User List')]",
      "Value": "Audit User List"
    },
    {
      "Command": "verifyValue",
      "Target": "//tr[18]/td[2]/span/input",
      "Value": "on"
    },
    {
      "Command": "verifyText",
      "Target": "xpath=//td[contains(.,'Audit View Manager')]",
      "Value": "Audit View Manager"
    },
    {
      "Command": "verifyValue",
      "Target": "//tr[19]/td[2]/span/input",
      "Value": "on"
    },
    {
      "Command": "verifyText",
      "Target": "xpath=//td[contains(.,'Audit Workflow')]",
      "Value": "Audit Workflow"
    },
    {
      "Command": "verifyValue",
      "Target": "//tr[20]/td[2]/span/input",
      "Value": "on"
    },
    {
      "Command": "click",
      "Target": "//a",
      "Value": ""
    },
    {
      "Command": "pause",
      "Target": "2000",
      "Value": ""
    },
    {
      "Command": "selectWindow",
      "Target": "TAB=CLOSEALLOTHER",
      "Value": ""
    }
  ]
}