{
  "Name": "_vqa_A_MU_11_verify last login time",
  "CreationDate": "2020-4-21",
  "Commands": [
    {
      "Command": "open",
      "Target": "https://10.200.225.14/VSSQA",
      "Value": ""
    },
    {
      "Command": "pause",
      "Target": "1000",
      "Value": ""
    },
    {
      "Command": "type",
      "Target": "//div[@id='loginbox']/div/table/tbody/tr/td[2]/input",
      "Value": "00_Script_User_B"
    },
    {
      "Command": "type",
      "Target": "//div[@id='loginbox']/div/table/tbody/tr[2]/td[2]/input",
      "Value": ".vss@2019"
    },
    {
      "Command": "click",
      "Target": "//tr[4]/td/input",
      "Value": "Log In"
    },
    {
      "Command": "pause",
      "Target": "4000",
      "Value": ""
    },
    {
      "Command": "mouseOver",
      "Target": "xpath=(//a[contains(@href, '#a')])[5]",
      "Value": "Administration"
    },
    {
      "Command": "click",
      "Target": "//a[contains(text(),'Manage Users')]",
      "Value": "Manage Users"
    },
    {
      "Command": "pause",
      "Target": "4000",
      "Value": ""
    },
    {
      "Command": "selectWindow",
      "Target": "TAB=1",
      "Value": ""
    },
    {
      "Command": "click",
      "Target": "//a[contains(text(),'00_Script_User_B')]",
      "Value": "00_Script_User_B"
    },
    {
      "Command": "pause",
      "Target": "2000",
      "Value": ""
    },
    {
      "Command": "selectWindow",
      "Target": "TAB=2",
      "Value": ""
    },
    {
      "Command": "storeText",
      "Target": "id=ctl00_ContentPlaceHolder1_UserInfo_lblLastlogin",
      "Value": "v1"
    },
    {
      "Command": "storeText",
      "Target": "/html/body/form/div[3]/div[1]/div[3]/div[2]/table/tbody/tr/td/div[1]/div[2]/span[6]",
      "Value": "v2"
    },
    {
      "Command": "echo",
      "Target": ": ${v1}",
      "Value": ""
    },
    {
      "Command": "echo",
      "Target": "${v2}",
      "Value": ""
    },
    {
      "Command": "if",
      "Target": "!(': '+storedVars['v1']==storedVars['v2'])",
      "Value": ""
    },
    {
      "Command": "throwError",
      "Target": "\"Do not match\"",
      "Value": ""
    },
    {
      "Command": "endif",
      "Target": "",
      "Value": ""
    },
    {
      "Command": "click",
      "Target": "//a",
      "Value": ""
    },
    {
      "Command": "pause",
      "Target": "2000",
      "Value": ""
    },
    {
      "Command": "selectWindow",
      "Target": "TAB=CLOSEALLOTHER",
      "Value": ""
    },
    {
      "Command": "refresh",
      "Target": "",
      "Value": ""
    }
  ]
}