{
  "Name": "file open form csv",
  "CreationDate": "2020-4-21",
  "Commands": [
    {
      "Command": "csvRead",
      "Target": "url_500.csv",
      "Value": ""
    },
    {
      "Command": "open",
      "Target": "${!COL1}",
      "Value": ""
    },
    {
      "Command": "pause",
      "Target": "2000",
      "Value": ""
    }
  ]
}