http://000webhost.com,http://huffingtonpost.com,http://t.co
http://4shared.com,http://huffpost.com,http://t.me
http://a8.net,http://hugedomains.com,http://tabelog.com
http://abc.es,http://ibm.com,http://target.com
http://abc.net.au,http://id.wikipedia.org,http://teamviewer.com
http://abcnews.go.com,http://ieee.org,http://techcrunch.com
http://about.com,http://ietf.org,http://ted.com
http://about.me,http://ig.com.br,http://telegram.me
http://aboutads.info,http://ign.com,http://telegraph.co.uk
http://abril.com.br,http://ikea.com,http://terra.com.br
http://academia.edu,http://imageshack.us,http://thedailybeast.com
http://accounts.google.com,http://imdb.com,http://thefreedictionary.com
http://addthis.com,http://imgur.com,http://theglobeandmail.com
http://addtoany.com,http://independent.co.uk,http://theguardian.com
http://adobe.com,http://indiatimes.com,http://themeforest.net
http://adssettings.google.com,http://indiegogo.com,http://thenextweb.com
http://adweek.com,http://instagram.com,http://thestar.com
http://airbnb.com,http://instructables.com,http://thesun.co.uk
http://akamaihd.net,http://intel.com,http://thetimes.co.uk
http://alibaba.com,http://interia.pl,http://theverge.com
http://aliexpress.com,http://ipv4.google.com,http://thoughtco.com
http://aljazeera.com,http://issuu.com,http://time.com
http://allaboutcookies.org,http://istockphoto.com,http://tinyurl.com
http://allrecipes.com,http://it.wikipedia.org,http://tmz.com
http://amazon.ca,http://iubenda.com,http://tools.google.com
http://amazon.co.jp,http://ja.wikipedia.org,http://translate.google.com
http://amazon.co.uk,http://jquery.com,http://tripadvisor.com
http://amazon.com,http://kickstarter.com,http://twitch.tv
http://amazon.de,http://latimes.com,http://twitter.com
http://amazon.es,http://launchpad.net,http://ucoz.ru
http://amazon.fr,http://lefigaro.fr,http://uiuc.edu
http://ameblo.jp,http://lemonde.fr,http://umich.edu
http://android.com,http://line.me,http://un.org
http://answers.yahoo.com,http://linkedin.com,http://unesco.org
http://aol.com,http://list-manage.com,http://uol.com.br
http://ap.org,http://live.com,http://urbandictionary.com
http://apache.org,http://livescience.com,http://usa.gov
http://apachefriends.org,http://loc.gov,http://usatoday.com
http://apple.com,http://lonelyplanet.com,http://usgs.gov
http://archive.org,http://lycos.com,http://usnews.com
http://archives.gov,http://m.wikipedia.org,http://uspto.gov
http://arstechnica.com,http://mail.google.com,http://ustream.tv
http://arxiv.org,http://mail.ru,http://utexas.edu
http://asahi.com,http://mail.yahoo.com,http://variety.com
http://ask.fm,http://maps.google.com,http://venturebeat.com
http://asus.com,http://marketingplatform.google.com,http://vice.com
http://axs.com,http://marketwatch.com,http://video.google.com
http://bandcamp.com,http://marriott.com,http://viglink.com
http://bbc.co.uk,http://mashable.com,http://vimeo.com
http://bbc.com,http://mediafire.com,http://vk.com
http://berkeley.edu,http://medium.com,http://vox.com
http://biblegateway.com,http://mega.nz,http://w3.org
http://billboard.com,http://megaupload.com,http://wa.me
http://bing.com,http://mercurynews.com,http://walmart.com
http://bit.ly,http://metro.co.uk,http://washingtonpost.com
http://bitly.com,http://microsoft.com,http://wattpad.com
http://blackberry.com,http://mirror.co.uk,http://weather.com
http://bloomberg.com,http://mit.edu,http://web.fc2.com
http://booking.com,http://mixcloud.com,http://webmd.com
http://books.google.com,http://mlb.com,http://weibo.com
http://boston.com,http://mozilla.com,http://welt.de
http://box.com,http://mozilla.org,http://whatsapp.com
http://bp.blogspot.com,http://msn.com,http://whitehouse.gov
http://bp0.blogger.com,http://my.yahoo.com,http://who.int
http://bp1.blogger.com,http://myaccount.google.com,http://wikia.com
http://bp2.blogger.com,http://myspace.com,http://wikihow.com
http://bp3.blogger.com,http://mysql.com,http://wikimedia.org
http://britannica.com,http://namecheap.com,http://wiktionary.org
http://bt.com,http://narod.ru,http://wiley.com
http://bund.de,http://nasa.gov,http://windowsphone.com
http://businessinsider.com,http://nationalgeographic.com,http://wired.com
http://businesswire.com,http://nature.com,http://wordpress.org
http://buydomains.com,http://naver.com,http://worldbank.org
http://buzzfeed.com,http://naver.jp,http://wp.com
http://calendar.google.com,http://nba.com,http://wsj.com
http://cambridge.org,http://nbcnews.com,http://www.blogger.com
http://cbc.ca,http://netflix.com,http://www.google.com
http://cbslocal.com,http://netvibes.com,http://www.gov.uk
http://cbsnews.com,http://networkadvertising.org,http://www.over-blog.com
http://cdc.gov,http://news.com.au,http://www.skyrock.com
http://change.org,http://news.google.com,http://www.weebly.com
http://channel4.com,http://news.yahoo.com,http://www.wikipedia.org
http://chicagotribune.com,http://newscientist.com,http://www.wix.com
http://chinadaily.com.cn,http://newsweek.com,http://www.yahoo.com
http://cisco.com,http://newyorker.com,http://xbox.com
http://cloudflare.com,http://nginx.com,http://xing.com
http://cnbc.com,http://nginx.org,http://xinhuanet.com
http://cnet.com,http://nhk.or.jp,http://yadi.sk
http://cnn.com,http://nicovideo.jp,http://yahoo.co.jp
http://cocolog-nifty.com,http://nifty.com,http://yale.edu
http://code.google.com,http://nih.gov,http://yandex.ru
http://columbia.edu,http://nikkei.com,http://yelp.com
http://connect.over-blog.com,http://noaa.gov,http://youronlinechoices.com
http://cornell.edu,http://nokia.com,http://youtu.be
http://cpanel.com,http://npr.org,http://youtube.com
http://cpanel.net,http://nvidia.com,http://ytimg.com
http://creativecommons.org,http://nydailynews.com,http://zdnet.com
http://csmonitor.com,http://nypost.com,http://zendesk.com
http://dailymail.co.uk,http://nytimes.com,https://moz.com
http://dailymotion.com,http://odnoklassniki.ru,
http://dan.com,http://office.com,
http://daum.net,http://offset.com,
http://de.wikipedia.org,http://ok.ru,
http://dell.com,http://opera.com,
http://depositfiles.com,http://oracle.com,
http://detik.com,http://orange.fr,
http://developers.google.com,http://oup.com,
http://digg.com,http://ovh.co.uk,
http://discovery.com,http://ovh.com,
http://disney.com,http://ovh.net,
http://disney.go.com,http://ox.ac.uk,
http://disqus.com,http://parallels.com,
http://docs.google.com,http://pastebin.com,
http://doubleclick.net,http://paypal.com,
http://draft.blogger.com,http://pbs.org,
http://dreniq.com,http://pcmag.com,
http://dribbble.com,http://people.com,
http://drive.google.com,http://photobucket.com,
http://dropbox.com,http://photos.google.com,
http://dropboxusercontent.com,http://photos1.blogger.com,
http://dw.com,http://php.net,
http://e-recht24.de,http://picasa.google.com,
http://ea.com,http://picasaweb.google.com,
http://ebay.com,http://pinterest.com,
http://economist.com,http://pixabay.com,
http://eff.org,http://pl.wikipedia.org,
http://ehow.com,http://play.google.com,
http://elmundo.es,http://playstation.com,
http://elpais.com,http://plesk.com,
http://en.wikipedia.org,http://plos.org,
http://engadget.com,http://plus.google.com,
http://entrepreneur.com,http://policies.google.com,
http://eonline.com,http://prestashop.com,
http://es.wikipedia.org,http://prezi.com,
http://espn.com,http://princeton.edu,
http://espn.go.com,http://privacyshield.gov,
http://etsy.com,http://prnewswire.com,
http://europa.eu,http://psychologytoday.com,
http://eventbrite.com,http://pt.wikipedia.org,
http://example.com,http://qq.com,
http://express.co.uk,http://quantcast.com,
http://facebook.com,http://quora.com,
http://fandom.com,http://rakuten.co.jp,
http://fastcompany.com,http://rambler.ru,
http://fb.com,http://rapidshare.com,
http://fb.me,http://repubblica.it,
http://fda.gov,http://researchgate.net,
http://fedoraproject.org,http://reuters.com,
http://feedburner.com,http://ria.ru,
http://feedproxy.google.com,http://rottentomatoes.com,
http://fifa.com,http://rt.com,
http://files.wordpress.com,http://rtve.es,
http://finance.yahoo.com,http://ru.wikipedia.org,
http://flickr.com,http://sakura.ne.jp,
http://forbes.com,http://samsung.com,
http://fortune.com,http://sapo.pt,
http://foursquare.com,http://scholastic.com,
http://foxnews.com,http://sciencedaily.com,
http://fr.wikipedia.org,http://sciencedirect.com,
http://ft.com,http://sciencemag.org,
http://ftc.gov,http://scientificamerican.com,
http://gen.xyz,http://scribd.com,
http://geocities.jp,http://search.google.com,
http://get.google.com,http://search.yahoo.com,
http://ggpht.com,http://seattletimes.com,
http://github.com,http://secureserver.net,
http://gizmodo.com,http://sedo.com,
http://globo.com,http://seesaa.net,
http://gmail.com,http://sendspace.com,
http://gnu.org,http://shopify.com,
http://godaddy.com,http://shutterstock.com,
http://gofundme.com,http://siemens.com,
http://goo.gl,http://sina.com.cn,
http://goo.ne.jp,http://sites.google.com,
http://goodreads.com,http://sky.com,
http://google.ca,http://skype.com,
http://google.co.in,http://slate.com,
http://google.co.jp,http://slideshare.net,
http://google.co.uk,http://smh.com.au,
http://google.com.br,http://so-net.ne.jp,
http://google.de,http://softonic.com,
http://google.es,http://soratemplates.com,
http://google.fr,http://soundcloud.com,
http://google.it,http://spiegel.de,
http://google.nl,http://sports.yahoo.com,
http://google.pl,http://spotify.com,
http://google.ru,http://springer.com,
http://googleblog.com,http://sputniknews.com,
http://googleusercontent.com,http://stackoverflow.com,
http://gooyaabitemplates.com,http://standard.co.uk,
http://gravatar.com,http://stanford.edu,
http://greenpeace.org,http://steamcommunity.com,
http://groups.google.com,http://steampowered.com,
http://gstatic.com,http://storage.canalblog.com,
http://guardian.co.uk,http://storage.googleapis.com,
http://harvard.edu,http://stores.jp,
http://hatena.ne.jp,http://storify.com,
http://histats.com,http://support.google.com,
http://hm.com,http://surveymonkey.com,
http://hollywoodreporter.com,http://symantec.com,
http://hp.com,http://t-online.de,
